{
  "header": {
    "motifText": "Viasat User Agreement",
    "noticeHeader":
      "IMPORTANT NOTICE: PLEASE READ THIS AGREEMENT CAREFULLY TO ENSURE THAT YOU UNDERSTAND EACH PROVISION."
  },
  "terms": {
    "termsHeader": "Terms of Service Agreement",
    "termsSections": [
      {
        "title": "Introduction.",
        "isOpen": false,
        "paragraphs": [
          {
            "style": {"color": "#4A4F54"},
            "content":
              "This Terms of Service Agreement (the \u201C<strong>Agreement</strong>\u201D) is between you and Viasat, Inc. (\u201C<strong>Viasat</strong>,\u201D \u201C<strong>Service Provider</strong>,\u201D \u201C<strong>us</strong>,\u201D or \u201C<strong>we</strong>\u201D), and governs your use of WiFi and internet services provided by Viasat (the \u201C<strong>Service</strong>\u201D) on Dreamjet SAS dba La Compagnie’s (including any affiliate and/or subsidiary, and any other brand names as will be applicable from time-to-time) aircraft from which you are connecting to the Service (the \u201C<strong>Airline</strong>\u201D). Your acceptance below and continued use of the Service represents your agreement to the terms set forth in this Agreement. If you do not agree with the terms set forth in this Agreement, immediately cease using the Service. If you would like to contact Service Provider, you may write to:<br><br>Viasat, Inc.<br>3902 South Traditions Drive<br>College Station, TX 77845<br>USA<br><br>Or you may contact Airline at:<br><br>Dreamjet SAS La Compagnie<br>Customer Care Department<br>21-37-le baudron<br>21 rue de stalingrad<br>94110 arcueil<br>France<br><br>Email. <a href='mailto:contactny@lacompagnie.com'>contactny@lacompagnie.com</a><br>Phone. 1-800-218-8187"
          }
        ]
      },
      {
        "title": "1. Using the Service.",
        "isOpen": false,
        "paragraphs": [
          {
            "style": {"color": "#4A4F54"},
            "content":
              "In exchange for access to and use of the Service, you: (a) agree to provide Service Provider with accurate and complete information, including your e-email address, when accessing the Service, and to notify Service Provider of changes to your  information; (b) if applicable, agree to protect the password, username and security information you use to access the Service and to notify Service Provider immediately of any unauthorized use of your account that you become aware of; (c) agree to comply with applicable laws and regulations, including but not limited to copyright and intellectual property rights laws; and (d) represent that you are at least 18 years of age."
          }
        ]
      },
      {
        "title": "2. Free Services.",
        "isOpen": false,
        "paragraphs": [
          {
            "style": {"color": "#4A4F54"},

            "content":
              "The Service is offered at no cost to you.   If a paid version of the service is made avaialble, we will notify you and request your affirmative confirmation if you want to transfer your free Service to a paid Service.  All such free Services are governed by the full terms of this Agreement as applicable."
          }
        ]
      },
      {
        "title": "3. Operational Limits of the Service.",
        "isOpen": false,
        "paragraphs": [
          {
            "style": {"color": "#4A4F54"},
            "content":
              "Provisioning of the Service is subject to the availability and the operational limitations of the requisite equipment and associated facilities. There is no guarantee of bandwidth. Your connection and data rate speeds may not be suitable for some applications. You understand and agree that temporary interruptions of the Service may occur as normal events in the provision of the Service. Virtual private network or other remote computer access (\u201C<strong>VPN</strong>\u201D) may be intermittent and require multiple logins, depending on the VPN provider\u2019s security settings, due to brief losses in connectivity. Voice or video calls, online gaming and software updates are expressly prohibited through the Service. You further understand and agree that Service Provider has no control over third party networks you may access in the course of your use of the Service, and therefore, delays and disruptions of other network transmissions are beyond the control of Service Provider. Service Provider will not be liable for any failure of performance if such failure is due to any cause beyond Service Provider\u2019s reasonable control, including acts of God, fire, explosion, vandalism, nuclear disaster, terrorism, satellite component failure, cable cut, storm or other weather or solar occurrence, any law, order or regulation by any government, civil, or military authority, national emergencies, insurrections, riots, wars, labor difficulties, supplier failures, shortages, breaches, or delays, or other failures or delays caused by you or your equipment."
          }
        ]
      },
      {
        "title": "4. Third Party Content Disclaimer/ Links to Third Party Sites.",
        "isOpen": false,
        "paragraphs": [
          {
            "style": {"color": "#4A4F54"},
            "content":
              "Content provided by third parties (\u201C<strong>Third Party Content</strong>\u201D) have not been independently authenticated in whole or in part by Service Provider or the Airline even if Service Provider provides a link to such content. Service Provider does not provide, sell, license, or lease any of the Third Party Content other than that specifically identified as being provided by Service Provider. Service Provider is providing links to Third Party Content as a convenience only. Service Provider and Airline does not make any warranty or representation, of any kind, regarding Third Party Content."
          }
        ]
      },
      {
        "title": "5. Privacy Policy and Acceptable Use Policy.",
        "isOpen": false,
        "paragraphs": [
          {
            "style": {"color": "#4A4F54"},
            "content":
              "Any data provided to or collected by Service Provider in the performance of the Service is subject to Service Provider\u2019s Privacy Policy for the Service. Use of the Service is also subject to the terms and conditions of Service Provider\u2019s Acceptable Use Policy for the Service. Service Provider\u2019s Privacy Policy and Acceptable Use Policy for the Service are incorporated into this Agreement and are accepted together with these Terms of Service at time of registration. Click <a href='/cms-served-assets/Viasat_Privacy_Policy.pdf' target='_blank'>here</a> to review the Privacy Policy and click <a href='/cms-served-assets/Viasat_Acceptable_Use_Policy.pdf' target='_blank'>here</a> to review the Acceptable Use Policy."
          }
        ]
      },
      {
        "title": "6. General Use Restrictions.",
        "isOpen": false,
        "paragraphs": [
          {
            "style": {"color": "#4A4F54"},
            "content":
              "Subject to your acceptance of and compliance with this Agreement, you are hereby granted the right to use the Service through a non-exclusive, non-transferable and non-assignable limited license. The Service is provided for your personal, non-commercial use only (unless otherwise specifically stated) and you agree not to reproduce, duplicate, copy, sell, sublicense, transfer, resell or exploit for any purposes your use of the Service or access to the Service. You agree not to share your access to the internet connection provided through the Service with another party by linking/tethering your connected device to the other party\u2019s device. All information, documents, products, and software (the \u201C<strong>Materials</strong>\u201D) provided with this Service were provided by or to Service Provider by its respective manufacturers, authors, developers, licensees and vendors (the \u201C<strong>Third Party Provider(s)</strong>\u201D) and are the copyrighted work of Service Provider and/or the Third Party Provider(s). Except as permitted for interoperability purposes by applicable law and as stated herein, none of the Materials may be copied, reproduced, resold, distributed, republished, downloaded, displayed, posted or transmitted in any form or by any means, including, but not limited to, electronic, mechanical, photocopying, recording, or otherwise, without the prior express written permission of Service Provider or the Third Party Provider(s). Except as expressly stated herein, you are not granted any intellectual rights in and to the Service or Materials not expressly granted herein are hereby reserved and retained by Service Provider and/or the Third Party Provider(s)."
          }
        ]
      },
      {
        "title": "7. Export Laws.",
        "isOpen": false,
        "paragraphs": [
          {
            "style": {"color": "#4A4F54"},

            "content":
              "Your use of the Service is subject to U.S. export control laws and regulations, or any applicable local laws or regulations. You represent that you are not a prohibited end user under applicable U.S. export laws, regulations and lists, including but not limited to the U.S. Treasury Department list of Specially Designated Nationals or Blocked Persons. You will not use the Service in any manner that would violate applicable law, including but not limited to applicable export control laws and regulations."
          }
        ]
      },
      {
        "title": "8. Disclaimer of Warranties and Liability.",
        "isOpen": false,
        "paragraphs": [
          {
            "style": {"color": "#4A4F54"},
            "content":
              "YOU ARE USING A PUBLIC INTERNET CONNECTION AND SHOULD TAKE ALL PRECAUTIONS FOR THE SECURITY OF YOUR DEVICE AND INFORMATION. YOU UNDERSTAND THAT YOU ARE SOLELY RESPONSIBLE FOR ANY DAMAGE TO YOUR COMPUTER SYSTEM OR LOSS OF DATA THAT RESULTS FROM ANY MATERIAL AND/OR DATA DOWNLOADED FROM OR OTHERWISE PROVIDED THROUGH THE SERVICE."
          },
          {
            "style": {"color": "#4A4F54"},
            "content":
              "THE SERVICE PROVIDER DOES NOT GUARANTEE THAT THE SERVICE WILL BE FREE OF VIRUSES OR OTHER HARMFUL COMPONENTS."
          },
          {
            "style": {"color": "#4A4F54"},
            "content":
              "THE SERVICE PROVIDER SHALL BE LIABLE FOR DAMAGES ACCORDING TO APPLICABLE STATUTORY PROVISIONS FOR ANY DAMAGES CAUSED BY INTENTIONAL OR GROSSLY NEGLIGENT CONDUCT OF LEGAL REPRESENTATIVES OR EXECUTIVES OF THE SERVICE PROVIDER."
          }
        ]
      },
      {
        "title": "9. Indemnity.",
        "isOpen": false,
        "paragraphs": [
          {
            "style": {"color": "#4A4F54"},
            "content":
              "You agree to indemnify and hold harmless Service Provider from any claim or demand, including reasonable attorneys\u2019 fees, made by any third party arising out of: (a) content you submit, post, transmit or otherwise make available through the Service; (b) your violation of this Agreement; (c) your violation of Service Provider\u2019s Acceptable Use Policy; (d) your violation of any rights of another. At our expense and election, you agree to cooperate with us in connection with our defense. Other than as expressly stated in this Agreement, this Agreement shall not be deemed to create any rights in third parties."
          }
        ]
      },
      {
        "title": "10. General.",
        "isOpen": false,
        "paragraphs": [
          {
            "style": {"marginLeft": "25px", "color": "#4A4F54"},
            "content":
              "<strong>a. Contact Information.</strong><br/>Subject to applicable law, you agree that by entering into this Agreement and, if applicable, provide us with your wireless phone number and/or any other telephone number and/or your billing address and/or e-mail address, we or our agents may contact you for any account-related issues: (a) by calling or texting you at such number(s) using a prerecorded/artificial voice or text message delivered by an automatic telephone dialing system and/or using a call made by live individuals for any account-related issues, and/or (b) by sending an e-mail to such e-mail address."
          },
          {
            "style": {"marginLeft": "25px", "color": "#4A4F54"},
            "content":
              "<strong>b. Applicable Law.</strong><br/>Any action related to this Agreement will be governed by Colorado law and controlling U.S. federal law and no choice of law rules of any jurisdiction will apply, however, if you are an EU resident your consumer protection rights are not limited by this choice of law and you may bring a claim to enforce your consumer protection rights in connection with this Agreement in the EU country in which you live. The European Commission provides for an online dispute resolution platform, which you can access here: <a href='http://ec.europa.eu/consumers/odr/' target='_blank'>http://ec.europa.eu/consumers/odr/</a>."
          },
          {
            "style": {"marginLeft": "25px", "color": "#4A4F54"},
            "content":
              "<strong>c. Construction and Delegation.</strong><br/>In the event that any provision of this Agreement shall be rendered invalid or unenforceable, such invalidity or unenforceability shall not invalidate or render unenforceable any other provision of this Agreement and this Agreement shall continue in full force and effect and be construed as if it did not contain the invalid or unenforceable provision."
          },
          {
            "style": {"marginLeft": "25px", "color": "#4A4F54"},
            "content":
              "<strong>d. Entire Agreement.</strong><br/>This Agreement, as well as the additional online documents specifically incorporated as a part of this Agreement, constitutes the entire and only agreement with respect to its subject matter between you and us, applicable also to all users of your account. This Agreement supersedes all representations, proposals, inducements, assurances, promises, agreements and other communications with respect to its subject matter except as expressly set forth in this Agreement."
          },
          {
            "style": {"marginLeft": "25px", "color": "#4A4F54"},
            "content":
              "<strong>e. Miscellaneous.</strong><br/>We may enforce or decline to enforce any or all of the terms of this Agreement in our sole discretion. Captions used in this document are for convenience only and shall not be considered a part of this Agreement or be used to construe its terms or meaning. The effective date of this Agreement is the date that you first \u201Caccept\u201D this Agreement in order to receive the Services. The provisions of this Agreement which by their nature should continue shall survive any termination of this Agreement."
          }
        ]
      }
    ]
  },
  "privacy": {
    "privacyHeader": "Viasat Inflight Wi-Fi Privacy Policy",
    "privacySections": [
      {
        "title": "1. INFORMATION COLLECTION",
        "isOpen": false,
        "paragraphs": [
          "Viasat may collect information about you when you use our Services, when we request information directly from you, or when you contact us (collectively <strong>\u201CInformation\u201D</strong>). The Information falls into the following categories, which we treat differently under this Policy: Personal Information (<strong>\u201CPI\u201D</strong>), Viasat-Collected PI, and non-Personal Information (each as defined below). This section explains each category of data and how we collect each category of data from you.  We may use contractors to help us provide the Services (<strong>\u201CVendors\u201D</strong>) and they, in that capacity, may collect the Information. However, any Personal Information collected by our Vendors on our behalf will be treated as Viasat-Collected PI under this Policy.",
          {
            "style": {"marginLeft": "25px"},
            "content":
              "<strong>A. Personal Information</strong><br/>Information that Viasat and its Vendors, and/or Third Party Services, may collect includes personally identifiable information, which is any information relating to an identified or identifiable natural person (<strong>\u201CPersonal Information\u201D</strong>). Examples of Personal Information include your first and last name, e-mail address, phone number, address, full payment account number, and IP addresses, as well as demographic information such as gender, age, zip code, interests, and recent and upcoming purchases. To the extent any non-Personal Information (defined below) is combined by, or on behalf of, Viasat with Personal Information Viasat itself collects directly from you on the Services (<strong>\u201CViasat-Collected PI\u201D</strong>), we will treat the combined data as Personal Information under this Policy."
          },
          {
            "style": {"marginLeft": "25px"},
            "content":
              "<strong>B. Non-Personal Information</strong><br/>Information that Viasat and its Vendors, and/or Third Party Services, may collect includes certain information about you when you access or use the Services (<strong>\u201CUsage Information\u201D</strong>). Usage Information may include browser type, operating system, information about your use of the Services, and data regarding network-connected hardware (e.g., computer or mobile device). Except to the extent required by applicable law, or to the extent combined by or on behalf of Viasat with Viasat-Collected PI, Usage Information (including, without limitation, unique identifiers) are considered hereunder to be <strong>\u201Cnon-Personal Information\u201D</strong> (i.e., data that is not Personal Information under this Policy).  In addition, Personal Information, including, without limitation, Viasat-Collected PI, once <strong>\u201Cde-identified\u201D</strong> (i.e., the removal of personal identifiers from data to make it no longer personally identifiable) is also considered hereunder to be non-Personal Information and may be used and shared without obligation to you, except as prohibited by applicable law."
          },
          {
            "style": {"marginLeft": "25px"},
            "content":
              "<strong>C. Children and Minors</strong><br/>The Services are intended for a general audience and not directed to children less than 13 years of age. Viasat does not intend to collect Personal Information as defined by the U.S. Children\u2019s Privacy Protection Act (<strong>\u201CCOPPA\u201D</strong>) (<strong>\u201CChildren\u2019s Personal Information\u201D</strong>) in a manner that is not permitted by COPPA.  If you are a parent or guardian and believe Viasat has collected Children\u2019s Personal Information in a manner not permitted by COPPA, please contact use here and we will remove such data to the extent required by COPPA.</br></br>Any California residents under the age of eighteen (18) who have registered to use the Services, and who have publicly posted content or information on the public-facing pages that are part of the Services operated by us (as opposed to on Third Party Services that may have been accessed via the Services, which we do not operate and for which we are not responsible), can request removal by contacting us at Viasat, Inc., 3902 S. Traditions Drive, College Station, TX  77845, Attention: Legal Department, detailing where the content or information is posted and its location and attesting that you posted it.  Viasat will then make reasonable good faith efforts to remove the post from prospective public view or anonymize it so the minor cannot be individually identified to the extent required by applicable law.  This removal process cannot ensure complete or comprehensive removal.  For instance, third-parties may have republished or archived content by search engines and others that Viasat does not control."
          },
          {
            "style": {"marginLeft": "25px"},
            "content": "<strong>D. How Information is Collected</strong>"
          },
          {
            "style": {"marginLeft": "50px"},
            "content":
              "<strong>(1) Information You Provide to Us</strong><br/>You may provide us with Information when you register for or use our Services. Personal Information that we collect may include your name, address, email address, phone number, Airline frequent flyer account number, and a credit or debit card number or other financial information. We will retain your Personal Information for the period necessary to fulfill the purposes outlined in this Policy, as needed to provide Services and to comply with our legal obligations."
          },
          {
            "style": {"marginLeft": "50px"},
            "content":
              "<strong>(2) Information Automatically Collected</strong><br/>When you use our Services, we may use cookies, log files, or other now and hereafter developed tracking technologies (<strong>\u201CTracking Technologies\u201D</strong>) to collect Information. Tracking Technologies help us automatically collect certain Information without you affirmatively providing it to us (i.e., passive collection). This may include collection of data regarding your login credentials, browser type, operating system, software version, Internet Protocol (IP) address or MAC address, and platform types, as well as Usage Information."
          },
          {
            "style": {"marginLeft": "50px"},
            "content":
              "Usage Information may also be collected as a byproduct of operating Viasat\u2019s commercial satellite services network; such includes information about your use of the Services, including domain and subdomain names and the complete addresses (<strong>\u201CURLs\u201D</strong>) of the websites visited while using our Services, the amount of time you spend using them, the number of times you return to them, the amount of time it takes to load a page, the order in which the content on a page loads, and other data that helps us to track and understand how users use our Services. This helps us, for instance, to improve the performance and user experience of our Services, including to optimize, troubleshoot, measure, and monitor the performance of our network and Services, including performing de-bugging, measuring service levels and identifying loading trends and websites that are statistically significant to our user population in order to deliver internet traffic more efficiently."
          },
          {
            "style": {"marginLeft": "50px"},
            "content":
              "<strong>(3) Information You Post</strong><br/>Any information, including comments and Personal Information that you post on public pages or our Services or Third Party Services is publicly available and may be viewed, collected, and used by Viasat. Viasat is not responsible for the accuracy of any information contained in those postings."
          },
          {
            "style": {"marginLeft": "50px"},
            "content":
              "<strong>(4) Tracking Technologies and Do Not Track</strong><br/>The Tracking Technologies that you may encounter using our Services, both on our Services and on Third Party Services, include:"
          },
          {
            "style": {"marginLeft": "50px"},
            "content":
              "<strong>Cookies</strong>. Cookies are alphanumeric identifiers that we transfer to your computer\u2019s hard drive through your browser to enable our systems to recognize your browser. Cookies allow a web server to transfer data to a computer for recordkeeping and other purposes. We and our Vendors may use \u201Ccookies\u201D in association with our Services for a variety of purposes, such as to facilitate your ongoing access to and use of the Services, as well as to conduct analytics on and collect Usage Information related to our Services. Third Party Services may also associate cookies with you, but we are not responsible for that."
          },
          {
            "style": {"marginLeft": "50px"},
            "content":
              "For example, we may use cookies to remember your username and password, if you choose to store them. We may also use cookies to determine when your current session on the Services should be logged out after a period of no activity, as well as for efficient management of the servers providing our Services."
          },
          {
            "style": {"marginLeft": "50px"},
            "content":
              "If you use your browser\u2019s method of blocking or removing cookies, some but not all types of cookies may be deleted and/or blocked and as a result some features and functionalities of the Services may not work. A Flash cookie (or locally shared object) is a data file which may be placed on a device via the Adobe Flash plug-in that may be built-in to or downloaded by you to your device. HTML5 cookies can be programmed through HTML5 local storage. Flash cookies and HTML 5 cookies are locally stored on your device other than in the browser and browser settings won’t control them. To identify certain types of local shared objects on your computer and adjust your settings, please visit: <a href='https://www.macromedia.com/support/documentation/en/flashplayer/help/settings_manager.html' target='_blank'>www.macromedia.com/support/documentation/en/flashplayer/help/settings_manager.html</a>. The Services may associate some or all of these types of cookies with your devices."
          },
          {
            "style": {"marginLeft": "50px"},
            "content":
              "We and our Vendors may use both session-based cookies and persistent cookies. A description of each of these cookies is provided below."
          },
          {
            "style": {"marginLeft": "50px"},
            "content":
              "<strong>Session Cookies</strong>. Session cookies exist only during an online session. They disappear from your computer when you close your browser or turn off your computer. We may use session cookies to, for instance, allow our systems to uniquely identify you during a session or while you are logged in to the Services. This allows us to process your online transactions and requests and verify your identity, after you have logged in, as you move through our Services."
          },
          {
            "style": {"marginLeft": "50px"},
            "content":
              "<strong>Persistent Cookies</strong>. Persistent cookies remain on your computer after you have closed your browser or turned off your computer. We may use persistent cookies to, for instance, allow our systems to remember you and automatically log you in to our Services."
          },
          {
            "style": {"marginLeft": "50px"},
            "content":
              "While most browsers will allow you to block cookies by enabling a Do Not Track header within the browser, our Services do not look for, and we do not respond to, Do Not Track headers. However, we only use cookies as described in this Policy."
          },
          {
            "style": {"marginLeft": "50px"},
            "content":
              "Some information about your use of the Services and certain Third-Party Services may be collected using Tracking Technologies across time and services, and used by Viasat, our Vendors, and third parties for purposes such as to associate different devices you use, and conduct analytics. See Section 5.D and E regarding certain choices regarding these activities."
          },
          {
            "style": {"marginLeft": "50px"},
            "content":
              "Viasat is giving you notice of the Tracking Technologies and your choices regarding them explained in Section 5.D and E so that your consent to encountering them is meaningfully informed."
          }
        ]
      },
      {
        "title": "2. HOW WE USE INFORMATION COLLECTED",
        "isOpen": false,
        "paragraphs": [
          "Viasat (and our Vendors working on our behalf) may use the Information we (and our Vendors working on our behalf) collect from and about you, including Personal Information, for any purpose not prohibited by applicable law or inconsistent with this Privacy Policy or applicable Additional Privacy Terms. When necessary, we will obtain your consent before using your data for these purposes:",
          {
            "style": {"marginLeft": "25px"},
            "content": "• To provide the Services and communicate with our customers;"
          },
          {
            "style": {"marginLeft": "25px"},
            "content": "• To develop new products or services;"
          },
          {
            "style": {"marginLeft": "25px"},
            "content": "• To market our Services and related services to you;"
          },
          {
            "style": {"marginLeft": "25px"},
            "content":
              "• To contact you with information and promotional materials from Viasat or on behalf of our partners and affiliates;"
          },
          {
            "style": {"marginLeft": "25px"},
            "content": "• To identify and/or contact you;"
          },
          {
            "style": {"marginLeft": "25px"},
            "content":
              "• To optimize, troubleshoot, measure and monitor the performance of our network and Services, including performing de-bugging, measuring service levels and identifying loading trends and websites that are statistically significant to our user population in order to deliver internet traffic more efficiently;"
          },
          {
            "style": {"marginLeft": "25px"},
            "content": "• To address problems with the Services or our business;"
          },
          {
            "style": {"marginLeft": "25px"},
            "content": "• To protect the security or integrity of the Services and our business;"
          },
          {
            "style": {"marginLeft": "25px"},
            "content": "• As described to you at the point of data collection;"
          },
          {
            "style": {"marginLeft": "25px"},
            "content":
              "• To use and disclose your credit/debit card information or other financial information only to process payments and prevent fraud; and/or"
          },
          {
            "style": {"marginLeft": "25px"},
            "content": "• To process and complete transactions."
          },
          "Please also note that in accordance with applicable laws, your Information may be stored and used for the purposes described in this Policy in the United States or in any other country in which Viasat or its subsidiaries, affiliates or service providers conduct operations.  Additionally, your Information may be transferred to countries outside the United States and EEA using appropriate safeguards when necessary."
        ]
      },
      {
        "title": "3. INFORMATION SHARING AND DISCLOSURE",
        "isOpen": false,
        "paragraphs": [
          "Viasat may send your Information, including Personal Information, to third parties, for any purposes not prohibited by applicable law or inconsistent with this Policy.  However, we will not share Viasat-Collected PI with third parties for their own direct marketing purposes, unless we give you a choice (either opt-in or opt-out depending on applicable law) of that sharing.  When necessary, we will obtain your consent before sharing and disclosing your data in the following circumstances:",
          {
            "style": {"marginLeft": "25px"},
            "content":
              "• We may disclose your Information to partners, Vendors or others who perform functions on our behalf related to the Services;"
          },
          {
            "style": {"marginLeft": "25px"},
            "content":
              "• We may disclose your Information to outside auditors, professional advisors, and potential business transition partners;"
          },
          {
            "style": {"marginLeft": "25px"},
            "content":
              "• In connection with Viasat being acquired by or merged with another company, or in the event of a consolidation or reorganization involving Viasat, or if all or a portion of our assets are transferred to another company, or as part of a bankruptcy proceeding or as part of a similar transaction, we may disclose, and may further transfer, the Information to the acquiring company or other involved third party (including without limitation in connection with due diligence regarding any potential such transaction);"
          },
          {
            "style": {"marginLeft": "25px"},
            "content":
              "• We may disclose your Information to law enforcement, government officials, regulatory agencies, or other parties when we are required to do so by applicable law."
          },
          {
            "style": {"marginLeft": "25px"},
            "content":
              "• We may disclose your Information to respond to legal process, such as to comply with a judicial proceeding, a subpoena or court order, to comply with the law, or to protect our rights in litigation or arbitration;"
          },
          {
            "style": {"marginLeft": "25px"},
            "content":
              "• We may disclose your Information where we believe it is necessary to investigate, prevent, or take action regarding illegal activities, suspected fraud, situations involving potential threats to the safety or property of any person or entity (including Viasat), or violations of our Terms of Service or policies;"
          },
          {
            "style": {"marginLeft": "25px"},
            "content":
              "• In emergency situations, we will use or share your Information when doing so is necessary to protect an interest that is essential for an individual’s life; and"
          },
          {
            "style": {"marginLeft": "25px"},
            "content":
              "• We will use or disclose your Information when doing so is necessary to protect an interest that is essential for an individual\u2019s life."
          }
        ]
      },
      {
        "title": "4. THIRD-PARTY SERVICES, SOCIAL FEATURES, ADVERTISING AND ANALYTICS",
        "isOpen": false,
        "paragraphs": [
          "The Services may include hyperlinks to, or include on or in connection with, the Services (e.g., apps and plug-ins), websites, locations, platforms, applications or services operated by third parties (<strong>\u201CThird Party Service(s)\u201D</strong>), and you can use the Services to navigate to view and use Third Party Services. These Third-Party Services may use their own cookies, web beacons, and other Tracking Technology to independently collect information about you and may solicit Personal Information from you.",
          "Certain functionalities on the Services may permit interactions that you initiate between the Services and certain Third-Party Services, such as third party social networks (<strong>\u201CSocial Features\u201D</strong>). Examples of Social Features include: enabling you to send content such as contacts and photos between the Services and a Third Party Service; \u201Cliking\u201D or \u201Csharing\u201D our content; logging in to the Services using your Third Party Service account (e.g., using Facebook Connect to sign-in to the Services); and to otherwise connect the Service to a Third Party Service (e.g., to pull or push information to or from the Services).  If you use Social Features, and potentially other Third Party Services, information you post or provide access to may be publicly displayed on the Services (see Section 1.D(3)) or by the Third Party Service that you use. Similarly, if you post information on a third-party service that references the Services (e.g., by using a hashtag associated with Viasat in a tweet or status update), your post may be used on or in connection with the Services or otherwise by Viasat. Also, both Viasat and the third party may have access to certain information about you and your use of the Services and any Third Party Service.",
          "Viasat may use Vendors for analytics services. These analytics services may use cookies and other Tracking Technologies to help analyze Services users and how they use the Services. Information generated by these services (e.g., your IP address and other Usage Information) may be transmitted to and stored by these Vendors on servers in the U.S. (or elsewhere) and these Vendors may use this information for purposes such as evaluating your use of the Services, compiling statistic reports on the Services\u2019 activity, and providing other services relating to Services activity and other internet usage.",
          "Except to the extent Viasat combines information from Vendors, Third Party Services, or other third parties with Viasat-Collected PI, in which case Viasat will treat the combined information as Personal Information under this Privacy Policy (see Section 1.A), data obtained by Viasat from a third party, even in association with the Services, is not subject to Viasat’s limitations regarding Viasat-Collected PI under this Policy.  Otherwise, the information collected, stored, and shared by third parties remains subject to their privacy policies and practices, including whether they continue to share information with Viasat, the types of information shared, and your choices on what is visible to others on third party services.",
          "Viasat is not responsible for, and makes no representations or warranties regarding, the policies or business practices of any third parties, including, without limitation, any informational content, products, services, software, or other materials available on an external website.  Viasat encourages you to familiarize yourself with and consult their privacy policies and terms of use.  See Section 5 for more on certain choices offered by some third parties regarding their data collection and use, including regarding analytics."
        ]
      },
      {
        "title": "5. YOUR CHOICES",
        "isOpen": false,
        "paragraphs": [
          {
            "style": {"marginLeft": "25px"},
            "content":
              "<strong>A. Account Information</strong><br/>You may update or change your account contact and billing information by reaching us at the contact information provided below.  Viasat will make good faith efforts to make requested changes in our then-active databases as soon as practicable, but it is not always possible to completely change, remove, or delete all of your information or public postings from our databases (parents of children under 13 and California minors see the next section) and residual and/or cached data may remain archived thereafter.  Further, we reserve the right to retain data (a) as required by applicable law; and (b) for so long as reasonably necessary to fulfill the purposes for which the data is retained except to the extent prohibited by applicable law."
          },
          {
            "style": {"marginLeft": "25px"},
            "content":
              "If you would like to opt-out of receiving direct marketing communications from us, you may do so by following any instructions included in the communication or by contacting us at the contact information provided below."
          },
          {
            "style": {"marginLeft": "25px"},
            "content":
              "<strong>B. Your Rights</strong><br/>To the extent provided by the law of your jurisdiction, you may have the right to: (a) access certain Personal Information we maintain about you; (b) exercise your right to data portability; (c) request that we update, correct, amend, erase, or restrict your Personal Information; (d) withdraw your consent previously given; (e) request that we not share your Personal Information with third parties for ancillary or competing services; and/or (f) object at any time to the processing of your Personal Information on legitimate grounds relating to your particular situation.  We will comply with such requests to the extent required by the applicable law of your jurisdiction, but may not accommodate a request if we believe the change would violate any law or legal requirement or cause the information to be incorrect.  We may take steps to verify your identity before granting you access to your information.  We may apply a charge, to the extent permitted by applicable law, before we provide you with a copy of any of your Personal Information we maintain.  You may, depending on your location, have a right to file a complaint with a government regulator if you are not satisfied with our response."
          },
          {
            "style": {"marginLeft": "25px"},
            "content":
              "To exercise the above rights, please contact us at the information provided below. We will consider and process your request within a reasonable period of time.  Please be aware that under certain circumstances, the GDPR may limit your exercise of these rights."
          },
          {
            "style": {"marginLeft": "25px"},
            "content":
              "<strong>C. Withdrawal of Consent</strong><br/>At any time, Data Subjects from the EEA may withdraw consent you have provided to Viasat for using, disclosing, or otherwise processing your Personal Information.  You may withdraw your consent by emailing Viasat at the contact information provided below, and following the instructions in our communication to you."
          },
          {
            "style": {"marginLeft": "25px"},
            "content":
              "Please note that your withdrawal of consent to process certain Personal Information about you (1) may limit our ability to deliver services to you and (2) does not affect the lawfulness of our processing activities based on your consent before its withdrawal."
          },
          {
            "style": {"marginLeft": "25px"},
            "content":
              "<strong>D. Tracking Technologies Generally</strong><br/>Regular cookies may generally be disabled or removed by tools available as part of most commercial browsers, and in some instances blocked in the future by selecting certain settings.  Browsers offer different functionalities and options so you may need to set them separately.  Also, tools from commercial browsers may not be effective with regard to Flash cookies (also known as locally shared objects), HTML5 cookies, or other Tracking Technologies.  For information on disabling Flash cookies, go to Adobe’s website <a href='http://helpx.adobe.com/flash-player/kb/disable-third-party-local-shared.html' target='_blank'>http://helpx.adobe.com/flash-player/kb/disable-third-party-local-shared.html</a>.  Please be aware that if you disable or remove these technologies, some parts of the Service (and Third Party Services) may not work and that when you revisit the Service your ability to limit browser-based Tracking Technologies is subject to your browser settings and limitations."
          },
          {
            "style": {"marginLeft": "25px"},
            "content":
              "Your browser settings may allow you to automatically transmit a \u201CDo Not Track\u201D signal to online services you visit.  Note, however, there is no consensus among industry participants as to what \u201CDo Not Track\u201D means in this context.  Like many online services, we currently do not alter our practices when we receive a \u201CDo Not Track\u201C signal from a user\u2019s browser.  To find out more about \u201CDo Not Track,\u201D you can visit <a href='http://www.allaboutdnt.com' target='_blank'>http://www.allaboutdnt.com</a>, but we are not responsible for the completeness or accuracy of this third party information.  Some third parties, however, may offer you choices regarding their Tracking Technologies.  One way to potentially identify cookies on our Services (and Third Party Services) is to add the free Ghostery plug-in to your browser (<a href='http://www.ghostery.com' target='_blank'>www.ghostery.com</a>), which according to Ghostery will display for you traditional, browser-based cookies associated with the websites (but not mobile apps) you visit and privacy and opt-out policies and options of the parties operating those cookies.  Viasat is not responsible for the completeness or accuracy of this tool or third party choice notices or mechanisms.   For specific information on some of the choice options offered by third party analytics and advertising providers, see the next section."
          },
          {
            "style": {"marginLeft": "25px"},
            "content":
              "<strong>E. Analytics and Advertising Tracking Technologies</strong><br/>You may exercise choices regarding the use of cookies from Google Analytics by going to <a href='https://tools.google.com/dlpage/gaoptout' target='_blank'>https://tools.google.com/dlpage/gaoptout</a> or downloading the Google Analytics Opt-out Browser Add-on.  You may exercise choices regarding the use of cookies from Adobe Analytics by going to <a href='http://www.adobe.com/privacy/opt-out.html' target='_blank'>http://www.adobe.com/privacy/opt-out.html</a> under the section labeled \u201CTell our customers not to measure your use of their websites or tailor their online ads for you.\u201D"
          },
          {
            "style": {"marginLeft": "25px"},
            "content":
              "You may choose whether to receive some Interest-based Advertising by submitting opt-outs.  Some of the advertisers and Vendors that perform advertising-related services for us and our partners, or that are associated with Third Party Services you may visit using our Services, may participate in the Digital Advertising Alliance\u2019s (<strong>\u201CDAA\u201D</strong>) Self-Regulatory Program for Online Behavioral Advertising.  To learn more about how you can exercise certain choices regarding Interest-based Advertising, visit <a href='http://www.aboutads.info/choices/' target='_blank'>http://www.aboutads.info/choices/</a>, and <a href='http://www.aboutads.info/appchoices' target='_blank'>http://www.aboutads.info/appchoices</a> for information on the DAA\u2019s opt-out program for mobile apps.  Some of these companies may also be members of the Network Advertising Initiative (<strong>\u201CNAI\u201D</strong>).  To learn more about the NAI and your opt-out options for their members, see <a href='http://www.networkadvertising.org/choices/' target='_blank'>http://www.networkadvertising.org/choices/</a>.  Please be aware that, even if you are able to opt out of certain kinds of Interest-based Advertising, you may continue to receive other types of ads.  Opting out only means that those selected members should no longer deliver certain Interest-based Advertising to you, but does not mean you will no longer receive any targeted content and/or ads (e.g., from other ad networks).  Also, if your browsers are configured to reject cookies when you visit these opt-out webpages, or you subsequently erase your cookies, use of a different device or web browsers or use a non-browser-based method of access (e.g., mobile app), your NAI / DAA browser-based opt-out may not, or may no longer, be effective.  Viasat is not responsible for effectiveness of, or compliance with, any third-parties’ opt-out options or programs or the accuracy of their statements regarding their programs."
          }
        ]
      },
      {
        "title": "6. YOUR CALIFORNIA PRIVACY RIGHTS",
        "isOpen": false,
        "paragraphs": [
          "We may from time to time elect to share certain Information about you with third parties, such as an Airline, for those third parties\u2019 direct marketing purposes, however, we will only knowingly share Personal Information with third parties for third party direct marketing purposes if you have consented to that sharing (opt-in) or are given an opportunity to prospectively terminate that sharing (opt-out).  California Civil Code Section 1798.83 permits California residents who have supplied personal information, as defined in the statute, to us to, under certain circumstances, to exercise such opt-in /opt-out rights and inquire further about how to do so and how we comply with Section 1798.83.  To make such a request, please provide sufficient information for us to determine if this applies to you, attest to the fact that you are a California resident and provide a current California address for our response.  You may make this request in writing at: Viasat, Inc., 3902 S. Traditions Drive, College Station, TX  77845, Attention: Legal Department.  Any such request must include \u201CCalifornia Privacy Rights Request\u201D in the first line of the description and include your name, street address, city, state, and ZIP code.  Please note that we are only required to respond to one request per customer each year, and we are not required to respond to requests made by means other than through our e-mail address or mail address."
        ]
      },
      {
        "title": "7. INTERNATIONAL TRANSFER",
        "isOpen": false,
        "paragraphs": [
          "Your information is stored on servers in the United States. If you are located outside of the United States, please note that information we collect will be transferred to and processed in the United States, using appropriate safeguards when necessary."
        ]
      },
      {
        "title": "8. DATA SECURITY",
        "isOpen": false,
        "paragraphs": [
          "Viasat has taken certain physical, administrative, and technical steps to safeguard the Personal Information we collect from and about customers and visitors to our Services.  While we seek to ensure the integrity and security of our network and systems, we cannot guarantee the security of the Information from misappropriation by hackers or from other nefarious or criminal activities, or in the event of a failure of computer hardware, software, or a telecommunications network.  We encourage you to take precautions to protect your personal data when you are on the internet.  In accordance with applicable law(s), we will notify you in the event we become aware of a security breach involving your Personal Data stored by or for us."
        ]
      },
      {
        "title": "9. CHANGES TO PRIVACY POLICY",
        "isOpen": false,
        "paragraphs": [
          "Viasat may amend this Policy from time to time.  When we do, we will post the change(s) on the Services.  Any changes will be effective immediately upon the posting of the revised Policy, unless a different effective date is stated, and your use of our Service indicates your consent to the privacy policy posted at the time of use.  However, we will not use your previously collected Viasat-Collected PI, to the extent it is not collected under the new privacy policy, in a manner materially different than represented at the time it was collected without your consent.  To the extent any provision of this Policy is found by a competent tribunal to be invalid or unenforceable, such provision shall be severed to the extent necessary for the remainder to be valid and enforceable."
        ]
      },
      {
        "title": "10. HOW TO CONTACT US",
        "isOpen": false,
        "paragraphs": [
          "If you have any questions that you would like to ask about this Policy or about our handling of your Information, or with a request relating to the section entitled \u201CYour Rights,\u201D please send an e-mail to <a href='mailto:privacy@Viasat.com'>privacy@Viasat.com</a> or reach us at our customer care number at 1-866-497-5377."
        ]
      }
    ]
  },
  "consentDeclaration": {
    "consentDeclarationHeader": "Consent Declaration",
    "consentDeclarationContent":
      "<p>Pursuant to the European Union General Data Protection Regulation 2016/679 (<strong>\u201CEU GDPR\u201D</strong>), Viasat (the <strong>\u201CCompany\u201D</strong>), in its capacity as a data controller under the EU GDPR, is requesting your explicit, affirmative consent to certain processing activities involving your personal data.</p><p>By checking the box below to confirm <strong>\u201Cyou have read and accept this Terms of Service Agreement\u201D</strong>, you consent to the collection, processing, and use of personal data by Viasat, Inc.,  3902 South Traditions Drive, College Station, TX 77845, UNITED STATES (<strong>\u201CViasat\u201D</strong>), as described in the <a href='/cms-served-assets/Viasat_Privacy_Policy.pdf' target='_blank'>Viasat Inflight WiFi Privacy Policy</a> (the <strong>\u201CPrivacy Policy\u201D</strong>), including a transfer and storage within Viasat\u2019s database(s), for the purposes of providing the Viasat in-flight WiFi internet service and related products and services (the <strong>\u201CPurpose\u201D</strong>) (collectively the <strong>\u201CServices\u201D</strong>). Generally, \u201Cpersonal data\u201D (or \u201Cpersonal information\u201D as the term is used in the Privacy Policy) means information about an identified or identifiable natural person. The types of personal data we may process about you include, but is not limited to, your first and last name, e-mail address, IP addresses, and/or zip code.</p><p>Viasat may process your personal data as required to provide you the Services. For example, Viasat will use your personal information to process your payment for the Service and to identify your personal device to provide you with the Service.</p><p>Viasat will also share your personal data with third parties in order to provide you the Services. Third parties that Viasat may share your personal data with may include partners, vendors, or others who perform functions on our behalf related to the Services. Viasat will require any third party that processes your personal data to comply with the terms and conditions of this Consent Declaration.</p><p>Viasat may also process your personal data as necessary to comply with applicable laws, to protect your vital interests, and to fulfil goals related to the Viasat’s legitimate interests in providing you the Services (to the extent that such interests are not outweighed by your interests in protecting your personal data). Unless otherwise required by law, personal data will be handled and processed only by the persons who are responsible for the necessary activities for the Purpose.</p><p>Viasat is committed to ensuring the security of your information. We have put in place reasonable physical, technical, and administrative safeguards designed to prevent unauthorized access to your information.</p><p>Furthermore, you acknowledge and confirm that your personal data will be shared with Viasat offices in California, India, and in United States, Amazon Web Services, Inc., Salesforce.com, Inc., CMC Americas, Inc. Eutelsat SA, and Viawest, Inc., which may be located outside your country of residence and may have a different level of data protection than your country of residence, all in accordance with the Privacy Policy.</p><p>You have the right to withdraw your consent to the collection and processing of personal data at any time.  If you would like to withdraw consent, please contact via e-mail <a href='mailto:privacy@Viasat.com'>privacy@Viasat.com</a>.</p>"
  },
  "effectiveDate": {
    "effectiveDateText": "Effective Date: May 15, 2019"
  },
  "agreements": {
    "agreementCheckOneText":
      "By checking this box, you agree that you have read and accept this Terms of Service Agreement and Consent Declaration, as well as Viasat’s <a href='/cms-served-assets/Viasat_Privacy_Policy.pdf' target='_blank' lang='en' style='color: #92C0E9'>Privacy Policy</a> and <a href='/cms-served-assets/Viasat_Acceptable_Use_Policy.pdf' target='_blank' lang='en' style='color: #92C0E9'>Acceptable Use Policy</a>. Neither Viasat nor the Airline will use your contact details to send emails regarding promotional or marketing related content.",
    "buttonText": "CONTINUE"
  }
}
