{
  "feature": {
    "id": "en",
    "shouldCloseOnOverlayClick": false,
    "autoShow": false,
    "fullscreen": false,
    "visibleOnLoad": false,
    "dynamic": true
  },
  "componentTheme": {
    "overlayColor": "theme.secondaryBackgroundColor",
    "overlayOpacity": ".9",
    "zIndex": 2000,
    "modalRadius":"theme.modalRadius",
    "display": {
      "xs": true
    }
  }
}
