{
  "componentTheme": {
    "fontFamily": "theme.appFontFamily",
    "headerTextColor": "theme.secondaryTextColor",
    "subHeaderTextColor": "theme.primaryTextColor",
    "backgroundColor": "theme.quaternaryBackgroundColor",
    "headerArrowFloat": "right",
    "billboardHeaderFontWeight": "normal",
    "headertextAlign": {
      "xs": "left"
    },
    "subheadertextAlign": {
      "xs": "left"
    },
    "buttonAlign": {
      "xs": "center"
    },
    "arrowMargin": {
      "xs": "0 0 0 0"
    }
  },
  "feature": {
    "image": {
      "xs": "./mocks/images/BillBoard1.png"
    },
    "spanArrow": false,
    "navIcon": null,
    "includeButton": false,
    "openPageOnClick": "#",
    "displayArrowIcon": true
  }
}
