{
  "componentTheme": {
    "arrowTopPosition": {"xs": "50%"},
    "arrowsColor": "theme.primaryTextColor",
    "arrowsHeight": "5px",
    "arrowsMargin": "5px",
    "arrowsThikness": "2px",
    "bulletButtonBarColor": "theme.primaryBackgroundColor",
    "bulletButtonsBorderColor": "theme.primaryTextColor",
    "bulletButtonsBorderColorThikness": "1px",
    "bulletButtonsColor": "transparent",
    "bulletButtonsMargin": "10px",
    "bulletButtonsSelectedColor": "theme.primaryTextColor",
    "bulletButtonsSize": "5px"
  },
  "feature": {
    "autoplay": false,
    "autoplayInterval": 3000
  }
}
