{
  "layout": {
    "app": {
      "meta": {
        "portalUid": "neos",
        "defaultLocale": "it",
        "componentsVersion": "0.0.1"
      },
      "template": "HASH_FIRST_TEMPLATE",
      "pages": [
        "HASH_HOME_PAGE",
        "HASH_PRIVACY_POLICY_PAGE",
        "HASH_TERMS_OF_SERVICE_PAGE",
        "c131da9f-92d0-4c39-8184-f7e91694822c",
        "b2ce9962-2875-410b-843b-8c2368fdcee0",
        "7a53826c-77eb-4710-afc7-b66f3f79d559",
        "7a53826c-77eb-4710-afc7-b66f3f79d551",
        "7a53826c-77eb-4710-afc7-b66f3f79d552",
        "77ad8d65-04ce-498a-89e1-8921e78677ab",
        "a985f22f-5d1c-407a-9b21-66845bae20b3",
        "HASH_PAYMENT_CONFIRMATION_PAGE"
      ],
      "homePage": "HASH_HOME_PAGE"
    },
    "locale": [
      {
        "code": "it",
        "title": "Italian",
        "messages": {
          "HASH_WIFISERVIEOPTION1:header": "",
          "HASH_WIFISERVIEOPTION1:body": "",
          "HASH_WIFISERVIEOPTION1:voucherTitle": "Utilizza il",
          "HASH_WIFISERVIEOPTION1:voucherText": "Voucher",
          "HASH_WIFISERVIEOPTION1:voucherDescripiton": "",
          "HASH_WIFISERVIEOPTION1:voucherButtonText": "Connetti",
          "HASH_WIFISERVIEOPTION2:header": "Acquista wifi",
          "HASH_WIFISERVIEOPTION2:body": "",
          "HASH_WIFISERVIEOPTION2:voucherTitle": "Utilizza il",
          "HASH_WIFISERVIEOPTION2:voucherText": "Voucher",
          "HASH_WIFISERVIEOPTION2:voucherDescripiton": "Il modo più semplice per essere online.",
          "HASH_WIFISERVIEOPTION2:voucherButtonText": "Connetti",
          "HASH_CHECKOUT:errorMessageOnFormHeader": "Si prega di correggere i seguenti errori.",
          "HASH_CHECKOUT:errorMessageVoucherCodeRequired": "Inserire il codice del voucher per continuare.",
          "HASH_CHECKOUT:errorMessageInvalidEmail": "Inserire un indirizzo email valido.",
          "HASH_CHECKOUT:errorMessageEmailMismatch": "E-mail immessi non corrispondono",
          "HASH_CHECKOUT:emailConfirmationLabel": "Conferma indirizzo e-mail",
          "HASH_CHECKOUT:errorMessageGeneric": "La tua richiesta non può essere elaborata. Ti preghiamo di riprovare.",
          "HASH_CHECKOUT:errorMessageConsumedVoucherCode": "Il codice del voucher inserito non è stato riconosciuto.",
          "HASH_CHECKOUT:errorMessageAccountAlreadyActive": "L'account che stai tentando di utilizzare è già attivo.",
          "HASH_CHECKOUT:errorMessageExpiredVoucherCode": "Il codice del voucher inserito è scaduto.",
          "HASH_CHECKOUT:errorMessageInvalidVoucherCode": "Il voucher inserito non è valido.",
          "HASH_CHECKOUT:voucherHeader": "Usa il tuo voucher",
          "HASH_CHECKOUT:voucherBodyText":
            "Per connetterti al sistema Wi-Fi di bordo ti chiediamo di inserire il codice del tuo voucher e il tuo indirizzo email.</br></br><a href='#/Coverage_MAP_Page_2'>Informazioni WiFi</a>",
          "HASH_CHECKOUT:voucherInputLabel": "Codice voucher",
          "HASH_CHECKOUT:voucherInputErrorHelpText": "",
          "HASH_CHECKOUT:voucherEmailLabel": "Indirizzo email",
          "HASH_CHECKOUT:voucherEmailErrorHelpText": "",
          "HASH_CHECKOUT:voucherNoteText": "Il servizio Wi-Fi è utilizzabile in qualsiasi momento durante la fase di crociera all'interno delle aree coperte dal satellite. Decidi tu quando connetterti e quando scollegarti dal Wi-Fi in modo da non perdere i minuti che hai acquistato. Il servizio sarà attivo da quando premerai il tasto CONNETTI.",
          "HASH_CHECKOUT:voucherSubmitButtonText": "CONNETTI",
          "HASH_CHECKOUT:purchaseBodyText": "Per accedere al nostro servizio Wi-Fi, effettua l'acquisto utilizzando il tuo metodo di pagamento preferito. Sono accettate carte di credito VISA, MasterCard, American Express o Discover.<ul style='margin-top: 30px; margin-bottom: 0px;'><li style='margin-bottom: 14px'><img src='/mocks/images/neos-paypal.svg' style='margin: 0px; position: relative; top:8px; width:85px;' /></li><li><span>Carte di credito</span><img src='/mocks/images/neos-cc-visa.svg' style='margin: 0px;margin-left: 10px; position: relative; top:14px; height:40px; width:40px;' /><img src='/mocks/images/neos-cc-mastercard.svg' style='margin: 0px;margin-left: 10px; position: relative; top:14px; height:40px; width:40px;' /><img src='/mocks/images/neos-cc-amex.svg' style='margin: 0px;margin-left: 10px; position: relative; top:14px; height:40px; width:40px;' /></li></ul><br /> <br/> <a href='#/Coverage_MAP_Page_2'>Maggiori informazioni sulla copertura satellitare.</a>",
          "HASH_CHECKOUT:purchaseEmailLabel": "Indirizzo email",
          "HASH_CHECKOUT:purchaseEmailErrorHelpText": "",
          "HASH_CHECKOUT:purchaseNoteText": "Il Wi-Fi può essere utilizzato in qualsiasi momento della crociera all'intero delle aree coperte dal servizio. Decidi tu quando connetterti e quando scollegarti dal Wi-Fi in modo da non perdere i minuti che hai acquistato. La tua sessione inizia dopo aver completato l'acquisto.",
          "HASH_CHECKOUT:purchaseAltTextForNoteImage": "Assistente di volo Neos che mostra i voucher in vendita a bordo",
          "HASH_CHECKOUT:purchaseTotalLabel": "Totale",
          "HASH_CHECKOUT:purchaseSubmitButtonText": "Continua",
          "61e537cc-8952-4ecb-acaf-e4fad925a114:header:text": "Informazioni Wi-Fi",
          "61e537cc-8952-4ecb-acaf-e4fad925a114:subHeader:text": "Neos è lieta di offrirti la connessione internet Wi-Fi a bordo di questo aeromobile.<br></br> La tecnologia ad alta velocità fornita da Viasat ti consentirà di fare streaming sulle tue app preferite e di navigare in internet, rimanendo connesso con i tuoi familiari, amici e colleghi.<br></br> Il servizio Wi-Fi è utilizzabile in qualsiasi momento una volta raggiunta la quota di crociera. Decidi tu quando connetterti e disconnetterti dal Wi-Fi in modo da non perdere i minuti che hai acquistato.</br><br>N.B. Fai attenzione che la connessione acquistata sarà valida SOLAMENTE fino al primo atterraggio.<br> </br> Controlla sulla mappa le aree coperte dal servizio, tenendo presente che potrebbero variare in base alle condizioni climatiche del volo. Neos e Viasat stanno collaborando per perfezionare il servizio ed estenderne la copertura. </br><br>Per maggiori informazioni prendi visione del materiale informativo posto nella tasca del sedile di fronte a te o visita la sezione \"Neos\" del sistema di intrattenimento.",
          "61e537cc-8952-4ecb-acaf-e4fad925a114:button:text": "Continua",
          "61e537cc-8952-4ecb-acaf-e4fad925a114:altTextForImage:text": "Mappa dell'emisfero nord che mostra l'area di copertura satellitare sul Nord America e in Europa.",
          "b0854192-d727-4afa-8233-738dd4b934b5:header:text": "Informazioni WiFi",
          "b0854192-d727-4afa-8233-738dd4b934b5:subHeader:text": "Neos è lieta di offrirti la connessione internet Wi-Fi a bordo di questo aeromobile.<br></br> La tecnologia ad alta velocità fornita da Viasat ti consentirà di fare streaming sulle tue app preferite e di navigare in internet, rimanendo connesso con i tuoi familiari, amici e colleghi.<br></br> Il servizio Wi-Fi è utilizzabile in qualsiasi momento una volta raggiunta la quota di crociera. Decidi tu quando connetterti e disconnetterti dal Wi-Fi in modo da non perdere i minuti che hai acquistato.</br><br>N.B. Fai attenzione che la connessione acquistata sarà valida SOLAMENTE fino al primo atterraggio.<br> </br> Controlla sulla mappa le aree coperte dal servizio, tenendo presente che potrebbero variare in base alle condizioni climatiche del volo. Neos e Viasat stanno collaborando per perfezionare il servizio ed estenderne la copertura. </br><br>Per maggiori informazioni prendi visione del materiale informativo posto nella tasca del sedile di fronte a te o visita la sezione \"Neos\" del sistema di intrattenimento.",
          "b0854192-d727-4afa-8233-738dd4b934b5:button:text": "Continua",
          "b0854192-d727-4afa-8233-738dd4b934b5:altTextForImage:text": "Mappa dell'emisfero nord che mostra l'area di copertura satellitare sul Nord America e in Europa.",
          "61e537cc-8952-4ecb-acaf-e4fad925a112:image:altText": "Aeromobile Neos",
          "61e537cc-8952-4ecb-acaf-e4fad925a112:header:text": "Sei connesso",
          "61e537cc-8952-4ecb-acaf-e4fad925a112:subHeader:text": "",
          "53bd4293-c342-4ffc-b90f-a61d9868eeda:image:altText": "Aeromobile Neos",
          "53bd4293-c342-4ffc-b90f-a61d9868eeda:header:text": "WiFi non disponibile",
          "53bd4293-c342-4ffc-b90f-a61d9868eeda:subHeader:text": "",
          "7bd004be-dc8c-46cf-b3e5-732eb01245a7:image:altText": "Aeromobile Neos",
          "7bd004be-dc8c-46cf-b3e5-732eb01245a7:header:text": "",
          "7bd004be-dc8c-46cf-b3e5-732eb01245a7:subHeader:text": "",
          "HASH_BANNER_FOR_WIFISERVICE_OPTIONS:image:altText": "Aeromobile Neos",
          "HASH_BANNER_FOR_WIFISERVICE_OPTIONS:header:text": "",
          "HASH_BANNER_FOR_WIFISERVICE_OPTIONS:subHeader:text": "",
          "HASH_TEXTBUTTON:header:text": "Grazie",
          "HASH_TEXTBUTTON:subheader:text": "Goditi il WiFi!",
          "HASH_TEXTBUTTON:button:text": "Vedi la tua ricevuta",
          "HASH_STATUS_BAR:wifiConnectivityUpText": "Connessione Wi-Fi disponibile",
          "HASH_STATUS_BAR:wifiConnectivityDownText": "Connessione Wi-Fi momentaneamente non disponibile",
          "HASH_STATUS_BAR:wifiConnectivityUpAltText": " ",
          "HASH_STATUS_BAR:wifiConnectivityDownAltText": " ",
          "HASH_HOME_PAGE:page:title": "Viasat Portal - Welcome!",
          "HASH_MENU:logoImage:altText": "Logo Neos",
          "HASH_PRIVACY_POLICY_PAGE:page:title": "Viasat Portal - Privacy Policy",
          "HASH_TERMS_OF_SERVICE_PAGE:page:title": "Viasat Portal - Terms of Service",
          "HASH_SERVICE_COUNTDOWN:header:text": "Tempo rimanente",
          "HASH_BILLBOARD1:subHeader:text": "Quando prendi posto sul nuovo Neos 787 Dreamliner ti senti subito in vacanza. Il nostro aereo ti trasporterà in un mondo da sogno.",
          "HASH_BILLBOARD1:image:altText": "Neos 787 Dreamliner",
          "HASH_BILLBOARD1:header:text": "Neos 787 Dreamliner",
          "HASH_BILLBOARD2:subHeader:text": "Italia - Capo Verde - Egitto - Canarie - Grecia - Cuba - Baleari - Kenya - Giamaica - Tanzania - Madagascar - Maldive - Messico - Portogallo - Bahamas - Spagna - Repubblica Dominicana - Cina - Israele - Vietnam - Myanmar - Guadalupa - Oman - Emirati Arabi - India",
          "HASH_BILLBOARD2:image:altText": "Palme su una spiaggia",
          "HASH_BILLBOARD2:header:text": "Dove Voliamo",
          "HASH_BILLBOARD3:subHeader:text": "Su tutti i voli operati con il Boeing 787 Dreamliner scegli e acquista i prodotti in vendita nei cataloghi shopping e bar. Puoi pagare in euro o con carta di credito senza commissioni.",
          "HASH_BILLBOARD3:image:altText": "Varietà di snack e drink in vendita a bordo",
          "HASH_BILLBOARD3:header:text": "Shopping in the air",
          "HASH_BILLBOARD4:subHeader:text": "Cinque piccoli vigneti di Nebbiolo, luogo di origine del Barolo nella sua massima espressione.",
          "HASH_BILLBOARD4:image:altText": "Cantina con botti Batasiolo",
          "HASH_BILLBOARD4:header:text": "5 cru di Barolo",
          "HASH_BILLBOARD5:subHeader:text": "Conosciuta per il calore e l’ospitalità del suo popolo, la Repubblica Dominicana é una destinazione come nessun’altra, caratterizzata da una natura strabiliante e una storia intrigante ricca di cultura.",
          "HASH_BILLBOARD5:image:altText": "Oceano  Repubblica Dominicana",
          "HASH_BILLBOARD5:header:text": "Me Gusta",
          "HASH_BILLBOARD6:subHeader:text": "Ascolta la migliore musica italiana anche quando sei… fra le nuvole. Su tutti i voli Neos puoi ascoltare la musica selezionata da Radio Italia.",
          "HASH_BILLBOARD6:image:altText": "Logo Radio Italia",
          "HASH_BILLBOARD6:header:text": "Radioitalia",
          "HASH_CONTACT_US_LINK:chat:title": "Servizio Clienti - Disponibile solo in inglese",
          "HASH_CONTACT_US_LINK:help:title": "Need help?",
          "HASH_CONTACT_US_LINK:chat:helpAltText": "Continue to read frequently asked questions",
          "HASH_CONTACT_US_LINK:chat:iconAltText": "Continue to live chat or contact viasat customer care",
          "HASH_FOOTER:copyright:text": "© 2018 Viasat, Tutti i diritti riservati",
          "HASH_FOOTER:image:alttext": "Logo Viasat",
          "HASH_DEVICE_SWAP:headerText": "Utilizza il Wi-Fi con questo dispositivo",
          "HASH_DEVICE_SWAP:bodyText": "Per connettere il tuo dispositivo inserisci l'indirizzo email utilizzato durante l'acquisto. Il servizio è utilizzabile solamente su un dispositivo alla volta.",
          "HASH_DEVICE_SWAP:emailLabel": "Indirizzo email",
          "HASH_DEVICE_SWAP:cancelButtonText": "Cancella",
          "HASH_DEVICE_SWAP:submitButtonText": "Cambia dispositivo",
          "HASH_DEVICE_SWAP:connectedDeviceHeaderText": "Sei già connesso",
          "HASH_DEVICE_SWAP:connectedDevicebodyText": "Sei già connesso a Internet su questo dispositivo. Se vuoi utilizzare il servizio Wi-Fi su un altro device, connettiti al portale da quel dispositivo e seleziona \"Cambia dispositivo\".",
          "HASH_DEVICE_SWAP:connectedDeviceAlertButtonText": "OK",
          "HASH_DEVICE_SWAP:errorMessageOnFormHeader": "Si prega di correggere gli errori.",
          "HASH_DEVICE_SWAP:errorMessageInvalidEmail": "Prego inserire una mail valida.",
          "HASH_DEVICE_SWAP:errorMessageGeneric": "La tua richiesta non può essere elaborata. Per favore riprova.",
          "HASH_PAYMENT_CONFIRMATION_PAGE:header": "Conferma pagamento",
          "HASH_PAYMENT_CONFIRMATION_PAGE:thankYouNoteText": "Grazie per l'acquisto",
          "HASH_PAYMENT_CONFIRMATION_PAGE:transactionIdLabel": "ID transazione",
          "HASH_PAYMENT_CONFIRMATION_PAGE:dateLabel": "Data",
          "HASH_PAYMENT_CONFIRMATION_PAGE:flightNumberLabel": "Numero di volo",
          "HASH_PAYMENT_CONFIRMATION_PAGE:merchantOfRecordLabel": "Servizio fornito da:",
          "HASH_PAYMENT_CONFIRMATION_PAGE:paymentMethodLabel": "Metodo di pagamento",
          "HASH_PAYMENT_CONFIRMATION_PAGE:serviceCostLabel": "Costo del servizio",
          "HASH_PAYMENT_CONFIRMATION_PAGE:discountLabel": "Discount",
          "HASH_PAYMENT_CONFIRMATION_PAGE:totalLabel": "Totale",
          "HASH_PAYMENT_CONFIRMATION_PAGE:buttonText": "OK",
          "HASH_SERVICE_UNAVAILABLE_MODAL:message": "<p style=\"font-weight: bold;\">IL SERVIZIO È TEMPORANEAMENTE NON DISPONIBILE</p></br>Potresti essere al di fuori della copertura satellitare o riscontrare una breve interruzione. Il sistema si riconnettarà automaticamente appena possibile.",
          "HASH_SERVICE_UNAVAILABLE_MODAL:okButtonText": "OK",
          "HASH_SERVICE_UNAVAILABLE_MODAL:backToHomeButtonText": "Home page",
          "HASH_PAYMENT_CONFIRMATION_COMPONENT:header": "Conferma pagamento",
          "HASH_PAYMENT_CONFIRMATION_COMPONENT:thankYouNoteText": "Grazie per l'acquisto",
          "HASH_PAYMENT_CONFIRMATION_COMPONENT:transactionIdLabel": "ID transazione",
          "HASH_PAYMENT_CONFIRMATION_COMPONENT:dateLabel": "Data",
          "HASH_PAYMENT_CONFIRMATION_COMPONENT:flightNumberLabel": "Numero di volo",
          "HASH_PAYMENT_CONFIRMATION_COMPONENT:merchantOfRecordLabel": "Servizio fornito da:",
          "HASH_PAYMENT_CONFIRMATION_COMPONENT:paymentMethodLabel": "Metodo di pagamento",
          "HASH_PAYMENT_CONFIRMATION_COMPONENT:serviceCostLabel": "Costo del servizio",
          "HASH_PAYMENT_CONFIRMATION_COMPONENT:discountLabel": "Discount",
          "HASH_PAYMENT_CONFIRMATION_COMPONENT:totalLabel": "Totale",
          "HASH_PAYMENT_CONFIRMATION_COMPONENT:buttonText": "OK"
        }
      }
    ],
    "components": {
      "HASH_FIRST_TEMPLATE": {
        "componentName": "Template",
        "componentLib": "system",
        "properties": {
          "feature": {
            "name": "Portal Template",
            "template": null
          },
          "componentTheme": {"height": {"xs": "100%"}},
          "children": ["HASH_TEMPLATE_GRID"]
        }
      },
      "HASH_TEMPLATE_GRID": {
        "componentName": "GridContainer",
        "componentLib": "system",
        "properties": {
          "componentTheme": {},
          "feature": {},
          "children": [
            "HASH_MENU",
            "HASH_USER_AGREEMENT",
            "HASH_SERVICE_UNAVAILABLE_MODAL",
            "HASH_DEVICE_SWAP",
            "HASH_STATUS_BAR",
            "*",
            "HASH_HIDE_CONTACT_US_LINK",
            "HASH_FOOTER"
          ]
        }
      },
      "HASH_HIDE_CONTACT_US_LINK": {
        "componentName": "HideOnServiceUnavailable",
        "componentLib": "ifc",
        "properties": {
          "children": ["HASH_CONTACT_US_LINK"],
          "feature": {}
        }
      },
      "HASH_HOME_PAGE": {
        "componentName": "Page",
        "componentLib": "system",
        "properties": {
          "feature": {
            "name": "Home_Page",
            "setAsHomePage": true
          },
          "children": ["HASH_HOME_PAGE_GRID"]
        }
      },
      "HASH_HOME_PAGE_GRID": {
        "componentName": "GridContainer",
        "componentLib": "system",
        "properties": {
          "componentTheme": {},
          "children": [
            "9ed692f2-28fc-41a8-a876-6544c5431e49",
            "HASH_HIDE_WIFI_OPTION_ON_HOME_PAGE_ON_PREMIUM",
            "HASH_ADVERTISMENTS",
            "HASH_ADVERTISMENTS_CONTD"
          ]
        }
      },
      "HASH_ADVERTISMENTS": {
        "componentName": "GridContainer",
        "componentLib": "system",
        "properties": {
          "componentTheme": {},
          "children": ["HASH_BILLBOARD1_GRID", "HASH_BILLBOARD2_GRID", "HASH_BILLBOARD3_GRID"],
          "feature": {
            "columnSizes": {
              "xs": 12
            }
          }
        }
      },
      "HASH_ADVERTISMENTS_CONTD": {
        "componentName": "GridContainer",
        "componentLib": "system",
        "properties": {
          "componentTheme": {},
          "children": ["HASH_BILLBOARD4_GRID", "HASH_BILLBOARD5_GRID", "HASH_BILLBOARD6_GRID"],
          "feature": {
            "columnSizes": {
              "xs": 12
            }
          }
        }
      },
      "HASH_PRIVACY_POLICY_PAGE": {
        "componentName": "Page",
        "componentLib": "system",
        "properties": {
          "feature": {
            "name": "Privacy_Policy"
          },
          "children": ["HASH_PRIVACY_POLICY_GRID"]
        }
      },
      "HASH_PRIVACY_POLICY_GRID": {
        "componentName": "GridContainer",
        "componentLib": "system",
        "properties": {
          "componentTheme": {},
          "children": ["HASH_PP_GRID_ITEM"]
        }
      },
      "HASH_TERMS_OF_SERVICE_PAGE": {
        "componentName": "Page",
        "componentLib": "system",
        "properties": {
          "feature": {
            "name": "Terms_of_Service"
          },
          "children": ["HASH_TERMS_OF_SERVICE_GRID_CONTAINER"]
        }
      },
      "HASH_TERMS_OF_SERVICE_GRID_CONTAINER": {
        "componentName": "GridContainer",
        "componentLib": "system",
        "properties": {
          "componentTheme": {},
          "children": ["HASH_TERMS_SERVICE_GRID_ITEM"]
        }
      },
      "HASH_LIVE_CHAT_GRID": {
        "componentName": "GridContainer",
        "componentLib": "system",
        "properties": {
          "componentTheme": {},
          "children": ["HASH_CAROUSEL_GRID_3"]
        }
      },
      "HASH_CONTACT_US_GRID": {
        "componentName": "GridContainer",
        "componentLib": "system",
        "properties": {
          "componentTheme": {},
          "children": ["HASH_CAROUSEL_GRID_4"]
        }
      },
      "HASH_USER_AGREEMENT": {
        "componentName": "UserAgreement",
        "componentLib": "ifc",
        "properties": {
          "config": [
            {
              "contentKey": "UserAgreement",
              "url": "/portals/:portalUid/contents?contentKey=:contentKey&componentUid=:componentUid&locale=:locale",
              "mockUrl": "/mocks/api/content/:portalUid/:locale/:componentUid/:contentKey/GET.json",
              "contentType": "application/vnd.viasat.vcap.pb.v1.0+json",
              "lazyload": false
            }
          ],
          "componentTheme": {
            "margin": {
              "xs": "0px 0px 0px 0px"
            },
            "lineHeight": "1.55",
            "noticeHeaderTextColor": "black",
            "motifTextFontSize": "24px"
          },
          "feature": {
            "headerImage": "",
            "openPageOnAccept": "",
            "includeAddtionalCheckbox": true
          },
          "children": ["HASH_ACCORDION_HASH_USER_AGREEMENT"]
        }
      },
      "HASH_ACCORDION_HASH_USER_AGREEMENT": {
        "componentName": "Accordion",
        "componentLib": "core",
        "properties": {
          "componentTheme": {}
        }
      },
      "HASH_MENU": {
        "componentName": "Header",
        "componentLib": "core",
        "properties": {
          "feature": {
            "airlineLogo": "/mocks/images/neos_logo.svg",
            "hamburgerCloseMenuIcon": "/mocks/images/hamburger_menu_close_icon_neos.svg",
            "hamburgerMenuIcon": "/mocks/images/hamburger_menu_icon_neos.svg",
            "menuItems": [
              {
                "iconHeight": "",
                "iconUrl": "/mocks/images/wifi_menu_icon_session_status_neos.svg",
                "url": "Session_status_page",
                "id": "d4190603-2a43-46cd-9082-7797c75e6b83",
                "labels": {
                  "it": {
                    "label": "Stato della sessione",
                    "iconAltText": ""
                  }
                }
              },
              {
                "iconHeight": "",
                "iconUrl": "/mocks/images/swap_devices_menu_icon_neos.svg",
                "url": "Home_Page?swapmodal=open",
                "id": "fe615bb6-df15-4b5a-af70-3e7e47bb1af5",
                "labels": {
                  "it": {
                    "label": "Scambio di dispositivi",
                    "iconAltText": "Swap Devices"
                  }
                }
              },
              {
                "iconHeight": "",
                "iconUrl": "/mocks/images/satellite_coverage_menu_icon_neos.svg",
                "url": "Coverage_MAP_Page_2",
                "id": "d4190603-2a43-46cd-9082-7797c75e6b83",
                "labels": {
                  "it": {
                    "label": "Mappa della copertura satellitare",
                    "iconAltText": ""
                  }
                }
              },
              {
                "iconHeight": "",
                "iconUrl": "/mocks/images/faqs_neos.svg",
                "url": "FAQs",
                "id": "d4190603-2a43-46cd-9082-7797c75e6b83",
                "labels": {
                  "it": {
                    "label": "FAQs",
                    "iconAltText": ""
                  }
                }
              },
              {
                "iconHeight": "",
                "iconUrl": "/mocks/images/viasat_legal_icon_neos.svg",
                "url": "Terms_of_Service",
                "id": "dcf55691-6ed4-465c-aa4c-40ba67f0d725",
                "labels": {
                  "it": {
                    "label": "Termini di servizio",
                    "iconAltText": ""
                  }
                }
              }
            ]
          },
          "componentTheme": {
            "backgroundColor": "#ffffff",
            "fontSize": "16px",
            "fontWeight": "600",
            "display": {
              "xs": true
            },
            "margin": {
              "xl": "0px 0px 0px 0px",
              "lg": "0px 0px 0px 0px",
              "md": "0px 0px 0px 0px",
              "sm": "0px 0px 0px 0px",
              "xs": "0px 0px 0px 0px"
            },
            "hamburgerMenuBackgroundColor": "#1A1919",
            "hamburgerMenuTextColor": "rgb(255, 255, 255)",
            "horizontalMenuTextColor": "rgb(32, 46, 57)",
            "textHoverColor": "#0073CB",
            "hamburgerSeperatorColor": "#5C5757",
            "hamburgerMenuCloseBackgroundColor": "#6DACE3",
            "horizontalMenuMargin": {
              "md": "0 1rem 0 0"
            },
            "airlineLogoHeight": "auto"
          }
        }
      },
      "HASH_STATUS_BAR": {
        "componentName": "Statusbar",
        "componentLib": "ifc",
        "properties": {
          "feature": {
            "flightIconPath": "/mocks/images/flight-icon.svg",
            "wifiUpIconPath": "/mocks/images/wifi_up_icon.svg",
            "wifiDownIconPath": "/mocks/images/wifi_down_icon.svg",
            "showOriginDestination": false,
            "showFlightNumber": false,
            "showTimeToDestination": false,
            "showWifiServiceAvailablity": true,
            "showDestinationWeather": false,
            "ShowDestinationTemp": false
          },
          "componentTheme": {
            "backgroundColorWifiUp": "#0073CB",
            "backgroundColorWifiDown": "#DF2927"
          }
        }
      },
      "HASH_PP_GRID_ITEM": {
        "componentName": "GridItem",
        "componentLib": "system",
        "properties": {
          "componentTheme": {},
          "feature": {
            "columnSizes": {
              "xs": 12
            }
          },
          "children": ["HASH_PRIVACY_POLICY_COMPONENT"]
        }
      },
      "HASH_PRIVACY_TEST_1": {
        "componentName": "GridItem",
        "componentLib": "system",
        "properties": {
          "componentTheme": {},
          "feature": {
            "columnSizes": {
              "xs": 7
            }
          },
          "children": ["HASH_PRIVACY_TEST_3"]
        }
      },
      "HASH_PRIVACY_TEST_2": {
        "componentName": "GridItem",
        "componentLib": "system",
        "properties": {
          "componentTheme": {},
          "feature": {
            "columnSizes": {
              "xs": 5
            }
          },
          "children": ["HASH_PRIVACY_TEST_4"]
        }
      },
      "HASH_PRIVACY_POLICY_COMPONENT": {
        "componentName": "Legal",
        "componentLib": "core",
        "properties": {
          "config": [
            {
              "contentKey": "Legal",
              "url": "/portals/:portalUid/contents?contentKey=:contentKey&componentUid=:componentUid&locale=:locale",
              "mockUrl": "/mocks/api/content/:portalUid/:locale/:componentUid/:contentKey/GET.json",
              "contentType": "application/vnd.viasat.vcap.pb.v1.0+json",
              "lazyload": false
            }
          ],
          "componentTheme": {
            "margin": {
              "xs": "0px 0px 0px 0px"
            },
            "noticeHeaderTextColor": "#1A1919",
            "noticeTextColor": "#1A1919",
            "noticeTextBorderColor": "#BDBDBD"
          },
          "feature": {
            "headerImage": ""
          },
          "children": ["HASH_ACCORDION_HASH_PRIVACY_POLICY_COMPONENT"]
        }
      },
      "HASH_ACCORDION_HASH_PRIVACY_POLICY_COMPONENT": {
        "componentName": "Accordion",
        "componentLib": "core",
        "properties": {
          "componentTheme": {}
        }
      },
      "HASH_PRIVACY_TEST_3": {
        "componentName": "Placeholder",
        "componentLib": "core",
        "properties": {
          "feature": {
            "text": "Addendum 1"
          },
          "componentTheme": {
            "height": {
              "xs": "249px"
            },
            "backgroundColor": "#123456",
            "display": {
              "xs": true
            }
          }
        }
      },
      "HASH_PRIVACY_TEST_4": {
        "componentName": "Placeholder",
        "componentLib": "core",
        "properties": {
          "feature": {
            "text": "Addendum 2"
          },
          "componentTheme": {
            "height": {
              "xs": "249px"
            },
            "backgroundColor": "#789abc",
            "display": {
              "xs": true
            }
          }
        }
      },
      "HASH_TERMS_SERVICE_GRID_ITEM": {
        "componentName": "GridItem",
        "componentLib": "system",
        "properties": {
          "componentTheme": {},
          "feature": {
            "columnSizes": {
              "xs": 12
            }
          },
          "children": ["HASH_TERMS"]
        }
      },
      "HASH_TERMS": {
        "componentName": "Legal",
        "componentLib": "core",
        "properties": {
          "config": [
            {
              "contentKey": "Legal",
              "url": "/portals/:portalUid/contents?contentKey=:contentKey&componentUid=:componentUid&locale=:locale",
              "mockUrl": "/mocks/api/content/:portalUid/:locale/:componentUid/:contentKey/GET.json",
              "contentType": "application/vnd.viasat.vcap.pb.v1.0+json",
              "lazyload": false
            }
          ],
          "componentTheme": {
            "margin": {
              "xs": "0px 0px 0px 0px"
            },
            "noticeHeaderTextColor": "#1A1919",
            "noticeTextColor": "#1A1919",
            "noticeTextBorderColor": "#BDBDBD"
          },
          "feature": {
            "headerImage": ""
          },
          "children": ["HASH_ACCORDION_HASH_TERMS"]
        }
      },
      "HASH_ACCORDION_HASH_TERMS": {
        "componentName": "Accordion",
        "componentLib": "core",
        "properties": {
          "componentTheme": {}
        }
      },
      "HASH_BILLBOARD1_GRID": {
        "componentName": "GridItem",
        "componentLib": "system",
        "properties": {
          "componentTheme": {
            "backgroundColor": "#f2f2f2",
            "padding": {
              "xs": "23px 23px 23px 23px"
            }
          },
          "feature": {
            "columnSizes": {
              "sm": 4,
              "xs": 12
            }
          },
          "children": ["HASH_BILLBOARD1"]
        }
      },
      "HASH_BILLBOARD1": {
        "componentName": "BillBoard",
        "componentLib": "core",
        "properties": {
          "componentTheme": {
            "backgroundColor": "#f2f2f2"
          },
          "feature": {
            "image": {
              "lg": "/mocks/images/BillBoard_Neos_Laptop_6.png",
              "sm": "/mocks/images/BillBoard_Neos_Tablet_6.png",
              "xs": "/mocks/images/BillBoard_Neos_Mobile_6.png"
            },
            "openPageOnClick": "https://www.neosair.it/it/mondoneos/neos787_plus",
            "navIcon": "/mocks/images/billboard_icon.svg"
          }
        }
      },
      "HASH_BILLBOARD2_GRID": {
        "componentName": "GridItem",
        "componentLib": "system",
        "properties": {
          "componentTheme": {
            "backgroundColor": "#ffffff",
            "padding": {
              "xs": "23px 23px 23px 23px"
            }
          },
          "feature": {
            "columnSizes": {
              "sm": 4,
              "xs": 12
            }
          },
          "children": ["HASH_BILLBOARD2"]
        }
      },
      "HASH_BILLBOARD2": {
        "componentName": "BillBoard",
        "componentLib": "core",
        "properties": {
          "componentTheme": {
            "backgroundColor": "#ffffff"
          },
          "feature": {
            "image": {
              "lg": "/mocks/images/BillBoard_Neos_Laptop_1.png",
              "sm": "/mocks/images/BillBoard_Neos_Tablet_1.png",
              "xs": "/mocks/images/BillBoard_Neos_Mobile_1.png"
            },
            "openPageOnClick": "https://www.neosair.it/it/infovoli/destinazioni",
            "navIcon": "/mocks/images/billboard_icon.svg"
          }
        }
      },
      "HASH_BILLBOARD3_GRID": {
        "componentName": "GridItem",
        "componentLib": "system",
        "properties": {
          "feature": {
            "columnSizes": {
              "sm": 4,
              "xs": 12
            }
          },
          "componentTheme": {
            "backgroundColor": "#f2f2f2",
            "padding": {
              "xs": "23px 23px 23px 23px"
            }
          },
          "children": ["HASH_BILLBOARD3"]
        }
      },
      "HASH_BILLBOARD3": {
        "componentName": "BillBoard",
        "componentLib": "core",
        "properties": {
          "componentTheme": {
            "backgroundColor": "#F2F2F2"
          },
          "feature": {
            "image": {
              "lg": "/mocks/images/BillBoard_Neos_Laptop_5.png",
              "sm": "/mocks/images/BillBoard_Neos_Tablet_5.png",
              "xs": "/mocks/images/BillBoard_Neos_Mobile_5.png"
            },
            "openPageOnClick": "",
            "navIcon": "/mocks/images/billboard_icon.svg"
          }
        }
      },
      "HASH_BILLBOARD4_GRID": {
        "componentName": "GridItem",
        "componentLib": "system",
        "properties": {
          "feature": {
            "columnSizes": {
              "sm": 4,
              "xs": 12
            }
          },
          "componentTheme": {
            "backgroundColor": "#ffffff",
            "padding": {
              "xs": "23px 23px 23px 23px"
            }
          },
          "children": ["HASH_BILLBOARD4"]
        }
      },
      "HASH_BILLBOARD4": {
        "componentName": "BillBoard",
        "componentLib": "core",
        "properties": {
          "componentTheme": {
            "backgroundColor": "#ffffff"
          },
          "feature": {
            "image": {
              "lg": "/mocks/images/BillBoard_Neos_Laptop_2.png",
              "sm": "/mocks/images/BillBoard_Neos_Tablet_2.png",
              "xs": "/mocks/images/BillBoard_Neos_Mobile_2.png"
            },
            "openPageOnClick": "http://www.batasiolo.com/",
            "navIcon": "/mocks/images/billboard_icon.svg"
          }
        }
      },
      "HASH_BILLBOARD5_GRID": {
        "componentName": "GridItem",
        "componentLib": "system",
        "properties": {
          "feature": {
            "columnSizes": {
              "sm": 4,
              "xs": 12
            }
          },
          "componentTheme": {
            "backgroundColor": "#f2f2f2",
            "padding": {
              "xs": "23px 23px 23px 23px"
            }
          },
          "children": ["HASH_BILLBOARD5"]
        }
      },
      "HASH_BILLBOARD5": {
        "componentName": "BillBoard",
        "componentLib": "core",
        "properties": {
          "componentTheme": {
            "backgroundColor": "#F2F2F2"
          },
          "feature": {
            "image": {
              "lg": "/mocks/images/BillBoard_Neos_Laptop_3.png",
              "sm": "/mocks/images/BillBoard_Neos_Tablet_3.png",
              "xs": "/mocks/images/BillBoard_Neos_Mobile_3.png"
            },
            "openPageOnClick": "http://www.godominicanrepublic.com/",
            "navIcon": "/mocks/images/billboard_icon.svg"
          }
        }
      },
      "HASH_BILLBOARD6_GRID": {
        "componentName": "GridItem",
        "componentLib": "system",
        "properties": {
          "feature": {
            "columnSizes": {
              "sm": 4,
              "xs": 12
            }
          },
          "componentTheme": {
            "backgroundColor": "#ffffff",
            "padding": {
              "xs": "23px 23px 23px 23px"
            }
          },
          "children": ["HASH_BILLBOARD6"]
        }
      },
      "HASH_BILLBOARD6": {
        "componentName": "BillBoard",
        "componentLib": "core",
        "properties": {
          "componentTheme": {
            "backgroundColor": "#FFFFFF"
          },
          "feature": {
            "image": {
              "lg": "/mocks/images/BillBoard_Neos_Laptop_4.png",
              "sm": "/mocks/images/BillBoard_Neos_Tablet_4.png",
              "xs": "/mocks/images/BillBoard_Neos_Mobile_4.png"
            },
            "openPageOnClick": "https://www.radioitalia.it/",
            "navIcon": "/mocks/images/billboard_icon.svg"
          }
        }
      },
      "HASH_CAROUSEL_GRID_3": {
        "componentName": "GridItem",
        "componentLib": "system",
        "properties": {
          "componentTheme": {},
          "feature": {
            "columnSizes": {
              "xs": 12
            }
          },
          "children": ["HASH_CAROUSEL_3"]
        }
      },
      "HASH_CAROUSEL_3": {
        "componentName": "Placeholder",
        "componentLib": "core",
        "properties": {
          "feature": {
            "text": "Live Chat"
          },
          "componentTheme": {
            "height": {
              "xs": "549px"
            },
            "backgroundColor": "gainsboro",
            "display": {
              "xs": true
            }
          }
        }
      },
      "HASH_CAROUSEL_GRID_4": {
        "componentName": "GridItem",
        "componentLib": "system",
        "properties": {
          "componentTheme": {},
          "feature": {
            "columnSizes": {
              "xs": 12
            }
          },
          "children": ["HASH_CAROUSEL_4"]
        }
      },
      "HASH_CAROUSEL_4": {
        "componentName": "Placeholder",
        "componentLib": "core",
        "properties": {
          "feature": {
            "text": "Customer Support"
          },
          "componentTheme": {
            "height": {
              "xs": "549px"
            },
            "backgroundColor": "thistle",
            "display": {
              "xs": true
            }
          }
        }
      },
      "HASH_CONTACT_US_LINK": {
        "componentName": "ContactUsLink",
        "componentLib": "ifc",
        "properties": {
          "componentTheme": {
            "textColor": "white",
            "iconHeight": {
              "xs": "36px"
            },
            "iconWidth": {
              "xs": "36px"
            },
            "padding": {
              "xs": "21px 0px 21px 0px"
            }
          },
          "feature": {
            "showHelp": false,
            "helpIcon": "/mocks/images/help_icon.svg",
            "helpUrl": "/faq",
            "showChat": true,
            "chatIcon": "/mocks/images/chat_customer_support.svg"
          }
        }
      },
      "HASH_FOOTER": {
        "componentName": "Footer",
        "componentLib": "core",
        "properties": {
          "feature": {
            "text": "Footer",
            "menuItems": [
              {
                "url": "Terms_of_Service",
                "id": "footer-uuid-1",
                "labels": {
                  "it": {
                    "label": "Termini di servizio Viasat",
                    "iconAltText": ""
                  }
                }
              },
              {
                "url": "/cms-served-assets/Viasat_Politica_sugli_usi_accettabili.pdf",
                "id": "footer-uuid-2",
                "labels": {
                  "it": {
                    "label": "Informativa sulla privacy di Viasat",
                    "iconAltText": ""
                  }
                }
              }
            ],
            "logoImage": "/mocks/images/viasat-logo.svg"
          },
          "componentTheme": {
            "margin": {
              "xs": "0px 0 0 0"
            },
            "display": {
              "xs": true
            },
            "backgroundColor": "#1A1919",
            "dividerColor": "#5C5757",
            "textColorLinks": "#6DACE3",
            "textColorLogoRegion": "#FFFFFF"
          }
        }
      },
      "c131da9f-92d0-4c39-8184-f7e91694822c": {
        "componentName": "Page",
        "componentLib": "system",
        "properties": {
          "feature": {
            "name": "Contact_Support_Page"
          },
          "children": ["94c56ddf-b7af-4e29-921e-abe15c01cf6f"]
        }
      },
      "b2ce9962-2875-410b-843b-8c2368fdcee0": {
        "componentName": "Page",
        "componentLib": "system",
        "properties": {
          "feature": {
            "name": "FAQs"
          },
          "children": ["6652959c-fef0-4f91-a9a7-95f95f54cd4f"]
        }
      },
      "7a53826c-77eb-4710-afc7-b66f3f79d559": {
        "componentName": "Page",
        "componentLib": "system",
        "properties": {
          "feature": {
            "name": "Coverage_MAP_Page_2"
          },
          "children": ["67bea9bc-2248-4a25-bf42-b70b9bff00f4"]
        }
      },
      "77ad8d65-04ce-498a-89e1-8921e78677ab": {
        "componentName": "Page",
        "componentLib": "system",
        "properties": {
          "feature": {
            "name": "Coverage_MAP_Page"
          },
          "children": ["9a25afcf-167b-4851-9b33-56042cc88c50"]
        }
      },
      "7a53826c-77eb-4710-afc7-b66f3f79d552": {
        "componentName": "Page",
        "componentLib": "system",
        "properties": {
          "feature": {
            "name": "Session_status_page"
          },
          "children": ["67bea9bc-2248-4a25-bf42-b70b9bff00f2", "89a5cd78-82fc-484d-bd3d-0407e535f63f"]
        }
      },
      "67bea9bc-2248-4a25-bf42-b70b9bff00f2": {
        "componentName": "GridContainer",
        "componentLib": "system",
        "properties": {
          "children": ["HASH_CONNECTED_COMPONENTS_ON_DEFAULT_SERVICE"]
        }
      },
      "HASH_CONNECTED_COMPONENTS_ON_DEFAULT_SERVICE": {
        "componentName": "HideOnDefaultService",
        "componentLib": "ifc",
        "properties": {
          "children": [
            "HASH_BANNER_ON_CONNECTED",
            "HASH_BANNER_ON_DISCONNECTED",
            "HASH_HIDE_SERVICE_COUNTDOWN",
            "HASH_QUICKLINKS_GRID_CONTAINER",
            "c4e85f6c-33f8-4372-98d8-b061ce41aba7"
          ],
          "feature": {}
        }
      },
      "HASH_HIDE_SERVICE_COUNTDOWN": {
        "componentName": "HideOnFullFlightService",
        "componentLib": "ifc",
        "properties": {
          "children": ["HASH_SERVICE_COUNTDOWN"],
          "feature": {}
        }
      },
      "HASH_BANNER_ON_CONNECTED": {
        "componentName": "HideOnServiceUnavailable",
        "componentLib": "system",
        "properties": {
          "children": ["61e537cc-8952-4ecb-acaf-e4fad925a112"],
          "feature": {}
        }
      },
      "61e537cc-8952-4ecb-acaf-e4fad925a112": {
        "componentName": "Banner",
        "componentLib": "core",
        "properties": {
          "componentTheme": {
            "backgroundColor": "rgb(255, 255, 255)",
            "subheadertextAlign": "center",
            "padding": {
              "xs": "0 0 0px 0"
            },
            "imageMargin": {
              "xs": "44px auto 28px auto"
            },
            "imageWidth": "auto"
          },
          "feature": {
            "image": {
              "xs": "/mocks/images/wifi_airline_laptop.svg"
            },
            "displayArrowIcon": false,
            "actionLink": ""
          },
          "children": ["61e537cc-8952-4ecb-acaf-e4fad925a112-text"]
        }
      },
      "61e537cc-8952-4ecb-acaf-e4fad925a112-text": {
        "componentName": "Text",
        "componentLib": "core",
        "properties": {
          "componentTheme": {
            "align": {
              "xs": "center"
            }
          }
        }
      },
      "HASH_BANNER_ON_DISCONNECTED": {
        "componentName": "HideOnServiceAvailable",
        "componentLib": "system",
        "properties": {
          "children": ["53bd4293-c342-4ffc-b90f-a61d9868eeda"],
          "feature": {}
        }
      },
      "53bd4293-c342-4ffc-b90f-a61d9868eeda": {
        "componentName": "Banner",
        "componentLib": "core",
        "properties": {
          "componentTheme": {
            "backgroundColor": "rgb(255, 255, 255)",
            "subheadertextAlign": "center"
          },
          "feature": {
            "image": {
              "lg": "/mocks/images/wifiDown_connected_screen_laptop.svg",
              "sm": "/mocks/images/wifiDown_connected_screen_tablet.svg",
              "xs": "/mocks/images/wifiDown_connected_screen_mobile.svg"
            },
            "displayArrowIcon": false,
            "actionLink": ""
          },
          "children": ["53bd4293-c342-4ffc-b90f-a61d9868eeda-text"]
        }
      },
      "53bd4293-c342-4ffc-b90f-a61d9868eeda-text": {
        "componentName": "Text",
        "componentLib": "core",
        "properties": {
          "componentTheme": {
            "align": {
              "xs": "center"
            }
          }
        }
      },
      "HASH_SERVICE_COUNTDOWN": {
        "componentName": "ServiceCountdown",
        "componentLib": "ifc",
        "properties": {
          "children": [],
          "feature": {},
          "componentTheme": {
            "backgroundColor": "theme.primaryBackgroundColor",
            "position": "static",
            "margin": {
              "xs": "10px 0 0 0"
            },
            "padding": {
              "xs": "0 0 0 0"
            },
            "headerFontColor": "theme.secondaryTextColor",
            "headerFontSize": {
              "xs": "1.5em"
            },
            "headerFont": "theme.appFontFamily",
            "timerFontColor": "theme.secondaryTextColor",
            "timerFontSize": {
              "xs": "2.25em"
            },
            "timerFont": "theme.appFontFamily"
          }
        }
      },
      "c4e85f6c-33f8-4372-98d8-b061ce41aba7": {
        "componentName": "GridContainer",
        "componentLib": "system",
        "properties": {
          "children": ["7f0935f9-e0d8-4a16-82ac-61c93b3b049a"],
          "feature": {
            "justify": "center"
          }
        }
      },
      "7f0935f9-e0d8-4a16-82ac-61c93b3b049a": {
        "componentName": "GridItem",
        "componentLib": "system",
        "properties": {
          "children": ["HASH_DIVIDER", "HASH_TEXTBUTTON"],
          "componentTheme": {
            "margin": {
              "xs": "0px 24px 93px 24px",
              "sm": "0px 0px 42px 0px",
              "lg": "0px 0px 100px 0px"
            }
          },
          "feature": {
            "columnSizes": {
              "xs": 12,
              "sm": 10,
              "md": 8,
              "lg": 6,
              "xl": 4
            }
          }
        }
      },
      "HASH_TEXTBUTTON": {
        "componentName": "TextButton",
        "componentLib": "ifc",
        "properties": {
          "children": [],
          "componentTheme": {
            "backgroundColor": "rgb(255, 255, 255)"
          },
          "feature": {
            "includeButton": true,
            "openPageOnClick": "Payment_Confirmation"
          }
        }
      },
      "HASH_PAYMENT_CONFIRMATION_PAGE": {
        "componentName": "Page",
        "componentLib": "system",
        "properties": {
          "feature": {
            "name": "Payment_Confirmation"
          },
          "children": ["HASH_PAYMENT_CONFIRMATION_GRID"]
        }
      },
      "HASH_PAYMENT_CONFIRMATION_GRID": {
        "componentName": "GridContainer",
        "componentLib": "system",
        "properties": {
          "componentTheme": {},
          "children": ["HASH_PC_GRID_ITEM"]
        }
      },
      "HASH_PC_GRID_ITEM": {
        "componentName": "GridItem",
        "componentLib": "system",
        "properties": {
          "componentTheme": {},
          "feature": {
            "columnSizes": {
              "xs": 12
            }
          },
          "children": ["HASH_PAYMENT_CONFIRMATION_COMPONENT"]
        }
      },
      "HASH_PAYMENT_CONFIRMATION_COMPONENT": {
        "componentName": "PaymentConfirmation",
        "componentLib": "ifc",
        "properties": {
          "componentTheme": {
            "margin": {
              "xs": "0px 0px 80px 0px"
            },
            "padding": {
              "xs": "20px 20px 20px 20px",
              "sm": "20px 40px 20px 40px"
            },
            "backgroundColor": "theme.primaryBackgroundColor",
            "headerColor": "theme.primaryTextColor",
            "headerFontSize": "theme.quinaryFontSize",
            "thankYouNoteColor": "theme.primaryTextColor",
            "thankYouNoteFontSize": "theme.primaryFontSize",
            "labelColor": "theme.primaryTextColor",
            "labelFontSize": "theme.primaryFontSize",
            "labelValueColor": "theme.primaryTextColor",
            "labelValueFontSize": "theme.primaryFontSize",
            "subTotalLabelColor": "theme.primaryTextColor",
            "subTotalLabelFontSize": "theme.tertiaryFontSize",
            "subTotalCostColor": "theme.secondaryTextColor",
            "subTotalCostFontSize": "theme.tertiaryFontSize",
            "dividerColor": "#BDBDBD"
          },
          "feature": {
            "openPageOnClick": "/Session_status_page"
          }
        }
      },
      "7a53826c-77eb-4710-afc7-b66f3f79d551": {
        "componentName": "Page",
        "componentLib": "system",
        "properties": {
          "feature": {
            "name": "Checkout_page"
          },
          "children": ["67bea9bc-2248-4a25-bf42-b70b9bff00f1"]
        }
      },
      "a985f22f-5d1c-407a-9b21-66845bae20b3": {
        "componentName": "Page",
        "componentLib": "system",
        "properties": {
          "feature": {
            "name": "WiFi_Services_Option_Page"
          },
          "children": ["89a5cd78-82fc-484d-bd3d-0407e535f63f"]
        }
      },
      "9ed692f2-28fc-41a8-a876-6544c5431e49": {
        "componentName": "GridItem",
        "componentLib": "system",
        "properties": {
          "children": ["7bd004be-dc8c-46cf-b3e5-732eb01245a7"],
          "componentTheme": {
            "padding": {
              "xs": "0px 0px 30px 0px"
            }
          },
          "feature": {
            "columnSizes": {
              "md": 12,
              "xs": 12
            }
          }
        }
      },
      "7bd004be-dc8c-46cf-b3e5-732eb01245a7": {
        "componentName": "Banner",
        "componentLib": "core",
        "properties": {
          "componentTheme": {
            "backgroundColor": "rgb(255, 255, 255)"
          },
          "feature": {
            "image": {
              "lg": "/mocks/images/dreamliner_laptop.png",
              "sm": "/mocks/images/dreamliner_tablet.png",
              "xs": "/mocks/images/dreamliner_mobile.png"
            },
            "displayArrowIcon": false,
            "actionLink": ""
          },
          "children": ["7bd004be-dc8c-46cf-b3e5-732eb01245a7-text"]
        }
      },
      "7bd004be-dc8c-46cf-b3e5-732eb01245a7-text": {
        "componentName": "Text",
        "componentLib": "core",
        "properties": {}
      },
      "HASH_HIDE_WIFI_OPTION_ON_HOME_PAGE_ON_PREMIUM": {
        "componentName": "HideOnPremiumService",
        "componentLib": "ifc",
        "properties": {
          "children": ["d146dabf-b029-455f-aa35-bbdbfb8a92fb"],
          "feature": {}
        }
      },
      "d146dabf-b029-455f-aa35-bbdbfb8a92fb": {
        "componentName": "GridContainer",
        "componentLib": "system",
        "properties": {
          "children": ["569506d0-daa3-45e8-813c-661a42df7bc5"]
        }
      },
      "569506d0-daa3-45e8-813c-661a42df7bc5": {
        "componentName": "GridItem",
        "componentLib": "system",
        "properties": {
          "children": ["HASH_WIFISERVIEOPTION1"],
          "feature": {
            "columnSizes": {
              "xs": 12
            }
          }
        }
      },
      "HASH_WIFISERVIEOPTION1": {
        "componentName": "WifiServiceOptions",
        "componentLib": "ifc",
        "properties": {
          "componentTheme": {
            "margin": {
              "xs": "0px 0px 0px 0px"
            },
            "padding": {
              "xs": "20px 20px 20px 20px"
            },
            "backgroundColor": "theme.primaryBackgroundColor",
            "dividerColor": "#BDBDBD",
            "headerColor": "theme.primaryTextColor",
            "headerFontSize": "theme.quinaryFontSize",
            "bodyTextColor": "theme.primaryTextColor",
            "bodyTextFontSize": "theme.primaryFontSize",
            "optionTitleColor": "#1A1919",
            "optionTitleFontSize": "theme.secondaryFontSize",
            "optionCostColor": "#0073CB",
            "optionCostFontSize": "theme.quaternaryFontSize",
            "optionDescriptionColor": "theme.primaryTextColor",
            "optionDescriptionFontSize": "theme.primaryFontSize"
          },
          "feature": {
            "voucherAvailable": true,
            "purchaseOptionSortBy": "duration",
            "purchaseOptionOrderBy": "ascending",
            "showOptionDescription": false,
            "openPageOnSelection": "Coverage_MAP_Page"
          }
        }
      },
      "HASH_BANNER_FOR_WIFISERVICE_OPTIONS": {
        "componentName": "Banner",
        "componentLib": "core",
        "properties": {
          "children": [],
          "componentTheme": {
            "backgroundColor": "rgb(255, 255, 255)",
            "headertextAlign": "center",
            "subheadertextAlign": "center",
            "padding": {
              "xs": "0 0 0px 0"
            }
          },
          "feature": {
            "image": {
              "lg": "/mocks/images/dreamliner_laptop.png",
              "sm": "/mocks/images/dreamliner_tablet.png",
              "xs": "/mocks/images/dreamliner_mobile.png"
            },
            "displayArrowIcon": false,
            "actionLink": ""
          }
        }
      },
      "HASH_WIFISERVIEOPTION2": {
        "componentName": "WifiServiceOptions",
        "componentLib": "ifc",
        "properties": {
          "componentTheme": {
            "margin": {
              "xs": "0px 0px 80px 0px"
            },
            "padding": {
              "xs": "0px 20px 10px 20px",
              "sm": "0px 40px 10px 40px",
              "lg": "0px 40px 20px 40px"
            },
            "backgroundColor": "theme.primaryBackgroundColor",
            "dividerColor": "#BDBDBD",
            "headerColor": "theme.primaryTextColor",
            "headerFontSize": "theme.quinaryFontSize",
            "bodyTextColor": "theme.primaryTextColor",
            "bodyTextFontSize": "theme.primaryFontSize",
            "optionTitleColor": "#1A1919",
            "optionTitleFontSize": "theme.secondaryFontSize",
            "optionCostColor": "#0073CB",
            "optionCostFontSize": "theme.quaternaryFontSize",
            "optionDescriptionColor": "theme.primaryTextColor",
            "optionDescriptionFontSize": "theme.primaryFontSize"
          },
          "feature": {
            "voucherAvailable": true,
            "purchaseOptionSortBy": "duration",
            "purchaseOptionOrderBy": "ascending",
            "showOptionDescription": true,
            "openPageOnSelection": "Coverage_MAP_Page"
          }
        }
      },
      "834db2dc-907b-4076-9583-a094f220914a": {
        "componentName": "GridContainer",
        "componentLib": "system",
        "properties": {
          "children": ["18d916d8-0599-41a3-bbb9-aba72b76fa5c"]
        }
      },
      "18d916d8-0599-41a3-bbb9-aba72b76fa5c": {
        "componentName": "GridItem",
        "componentLib": "system",
        "properties": {
          "children": ["13917128-eb3a-43cf-9b7e-6dd3d00321bf"],
          "feature": {
            "columnSizes": {
              "xs": 12
            }
          }
        }
      },
      "HASH_QUICKLINKS_GRID_CONTAINER": {
        "componentName": "GridContainer",
        "componentLib": "system",
        "properties": {
          "children": ["HASH_QUICKLINKS_GRID_ITEM"],
          "componentTheme": {
            "margin": {
              "xs": "80px 0px 0px 0px"
            }
          },
          "feature": {
            "justify": "center"
          }
        }
      },
      "HASH_QUICKLINKS_GRID_ITEM": {
        "componentName": "GridItem",
        "componentLib": "system",
        "properties": {
          "children": ["HASH_QUICKLINKS"],
          "feature": {
            "columnSizes": {
              "xs": 10,
              "sm": 4,
              "lg": 3
            }
          }
        }
      },
      "HASH_QUICKLINKS": {
        "componentName": "QuickLinks",
        "componentLib": "core",
        "properties": {
          "feature": {
            "itemsPerRow": 5,
            "menuItems": [
              {
                "iconHeight": "",
                "iconUrl": "/mocks/images/facebook-square - FontAwesome.svg",
                "url": "http://facebook.com",
                "id": "35111f28-5fa8-4ef2-bdcd-64ba962c9e096",
                "labels": {
                  "en": {
                    "label": "Facebook",
                    "iconAltText": "Visit Facebook"
                  },
                  "it": {
                    "label": "Facebook",
                    "iconAltText": "Visita Facebook"
                  }
                }
              },
              {
                "iconHeight": "",
                "iconUrl": "/mocks/images/reddit-square - FontAwesome.svg",
                "url": "http://reddit.com",
                "id": "35111f28-5fa8-4ef2-bdcd-64ba962c9e095",
                "labels": {
                  "en": {
                    "label": "Reddit",
                    "iconAltText": "Visit Reddit"
                  },
                  "it": {
                    "label": "Reddit",
                    "iconAltText": "Visita Reddit"
                  }
                }
              },
              {
                "iconHeight": "",
                "iconUrl": "/mocks/images/instagram-square - FontAwesome.svg",
                "url": "http://instagram.com",
                "id": "35111f28-5fa8-4ef2-bdcd-64ba962c9e098",
                "labels": {
                  "en": {
                    "label": "Instagram",
                    "iconAltText": "Visit Instagram"
                  },
                  "it": {
                    "label": "Instagram",
                    "iconAltText": "Visita Instagram"
                  }
                }
              },
              {
                "iconHeight": "",
                "iconUrl": "/mocks/images/youtube-square - FontAwesome.svg",
                "url": "http://youtube.com",
                "id": "35111f28-5fa8-4ef2-bdcd-64ba962c9e091",
                "labels": {
                  "en": {
                    "label": "YouTube",
                    "iconAltText": "Visit YouTube"
                  },
                  "it": {
                    "label": "YouTube",
                    "iconAltText": "Visita YouTube"
                  }
                }
              },
              {
                "iconHeight": "",
                "iconUrl": "/mocks/images/twitter-square - FontAwesome.svg",
                "url": "http://twitter.com",
                "id": "35111f28-5fa8-4ef2-bdcd-64ba962c9e094",
                "labels": {
                  "en": {
                    "label": "Twitter",
                    "iconAltText": "Visit Twitter"
                  },
                  "it": {
                    "label": "Twitter",
                    "iconAltText": "Visita Twitter"
                  }
                }
              },
              {
                "iconHeight": "",
                "iconUrl": "/mocks/images/flickr-square - FontAwesome.svg",
                "url": "http://flickr.com",
                "id": "35111f28-5fa8-4ef2-bdcd-64ba962c9e099",
                "labels": {
                  "en": {
                    "label": "Flickr",
                    "iconAltText": "Visit Flickr"
                  },
                  "it": {
                    "label": "Flickr",
                    "iconAltText": "Visita Flickr"
                  }
                }
              },
              {
                "iconHeight": "",
                "iconUrl": "/mocks/images/pinterest-square - FontAwesome.svg",
                "url": "http://pinterest.com",
                "id": "35111f28-5fa8-4ef2-bdcd-64ba962c9e092",
                "labels": {
                  "en": {
                    "label": "Pinterest",
                    "iconAltText": "Visit Pinterest"
                  },
                  "it": {
                    "label": "Pinterest",
                    "iconAltText": "Visita Pinterest"
                  }
                }
              },
              {
                "iconHeight": "",
                "iconUrl": "/mocks/images/google-plus-square - FontAwesome.svg",
                "url": "http://google.com",
                "id": "35111f28-5fa8-4ef2-bdcd-64ba962c9e097",
                "labels": {
                  "en": {
                    "label": "Google Plus",
                    "iconAltText": "Visit Google Plus"
                  },
                  "it": {
                    "label": "Google Plus",
                    "iconAltText": "Visita Google Plus"
                  }
                }
              },
              {
                "iconHeight": "",
                "iconUrl": "/mocks/images/linkedin-square - FontAwesome.svg",
                "url": "http://linkedin.com",
                "id": "35111f28-5fa8-4ef2-bdcd-64ba962c9e093",
                "labels": {
                  "en": {
                    "label": "LinkedIn",
                    "iconAltText": "Visit LinkedIn"
                  },
                  "it": {
                    "label": "LinkedIn",
                    "iconAltText": "Visita LinkedIn"
                  }
                }
              }
            ]
          },
          "componentTheme": {
            "backgroundColor": "#ffffff",
            "display": {
              "xs": true,
              "sm": true,
              "md": true,
              "lg": true,
              "xl": true
            }
          }
        }
      },
      "HASH_DIVIDER": {
        "componentName": "HorizontalDivider",
        "componentLib": "core",
        "properties": {
          "children": [],
          "feature": {},
          "componentTheme": {
            "marginBottom": {
              "xs": "20px"
            },
            "paddingTop": {
              "xs": "0px"
            }
          }
        }
      },
      "13917128-eb3a-43cf-9b7e-6dd3d00321bf": {
        "componentName": "Placeholder",
        "componentLib": "core",
        "properties": {
          "children": [],
          "feature": {
            "text": "Carousel"
          },
          "componentTheme": {
            "height": {
              "xs": "400px"
            },
            "backgroundColor": "rgb(189, 207, 111)"
          }
        }
      },
      "94c56ddf-b7af-4e29-921e-abe15c01cf6f": {
        "componentName": "GridContainer",
        "componentLib": "system",
        "properties": {
          "children": ["1ad835b8-a856-4a6a-90a3-ec167153f442"]
        }
      },
      "1ad835b8-a856-4a6a-90a3-ec167153f442": {
        "componentName": "GridItem",
        "componentLib": "system",
        "properties": {
          "children": ["65cd561a-7116-474b-849b-cd40b8f53786"],
          "feature": {
            "columnSizes": {
              "xs": 12
            }
          }
        }
      },
      "65cd561a-7116-474b-849b-cd40b8f53786": {
        "componentName": "Placeholder",
        "componentLib": "core",
        "properties": {
          "children": [],
          "feature": {
            "text": "Customer Support"
          },
          "componentTheme": {
            "height": {
              "xs": "500px"
            }
          }
        }
      },
      "89a5cd78-82fc-484d-bd3d-0407e535f63f": {
        "componentName": "GridContainer",
        "componentLib": "system",
        "properties": {
          "children": ["629d3c0e-b10f-4d2e-af7d-f9bbd0836645"]
        }
      },
      "629d3c0e-b10f-4d2e-af7d-f9bbd0836645": {
        "componentName": "GridItem",
        "componentLib": "system",
        "properties": {
          "children": ["HASH_HIDE_WIFI_OPTION_ON_PREMIUM"],
          "feature": {
            "columnSizes": {
              "xs": 12
            }
          }
        }
      },
      "HASH_HIDE_WIFI_OPTION_ON_PREMIUM": {
        "componentName": "HideOnPremiumService",
        "componentLib": "ifc",
        "properties": {
          "children": ["HASH_BANNER_FOR_WIFISERVICE_OPTIONS", "HASH_WIFISERVIEOPTION2"],
          "feature": {}
        }
      },
      "9a25afcf-167b-4851-9b33-56042cc88c50": {
        "componentName": "GridContainer",
        "componentLib": "system",
        "properties": {
          "children": ["10a8ded3-8e45-41ae-8846-3092119864ea"]
        }
      },
      "6652959c-fef0-4f91-a9a7-95f95f54cd4f": {
        "componentName": "GridContainer",
        "componentLib": "system",
        "properties": {
          "children": ["f8689c4d-81c6-4141-a5a1-209513c97033"]
        }
      },
      "f8689c4d-81c6-4141-a5a1-209513c97033": {
        "componentName": "GridItem",
        "componentLib": "system",
        "properties": {
          "children": ["HASH_FAQs"],
          "feature": {
            "columnSizes": {
              "xs": 12
            }
          },
          "componentTheme": {
            "margin": {
              "xs": "0px 0px 98px 0px"
            }
          }
        }
      },
      "HASH_FAQs": {
        "componentName": "Legal",
        "componentLib": "core",
        "properties": {
          "config": [
            {
              "contentKey": "Legal",
              "url": "/portals/:portalUid/contents?contentKey=:contentKey&componentUid=:componentUid&locale=:locale",
              "mockUrl": "/mocks/api/content/:portalUid/:locale/:componentUid/:contentKey/GET.json",
              "contentType": "application/vnd.viasat.vcap.pb.v1.0+json",
              "lazyload": false
            }
          ],
          "componentTheme": {
            "margin": {
              "xs": "0px 0px 0px 0px"
            }
          },
          "feature": {
            "headerImage": ""
          },
          "children": ["HASH_ACCORDION_HASH_FAQs"]
        }
      },
      "HASH_ACCORDION_HASH_FAQs": {
        "componentName": "Accordion",
        "componentLib": "core",
        "properties": {
          "componentTheme": {}
        }
      },
      "67bea9bc-2248-4a25-bf42-b70b9bff00f4": {
        "componentName": "GridContainer",
        "componentLib": "system",
        "properties": {
          "children": ["d7206cee-d691-407a-88e9-11bf80053b16"]
        }
      },
      "d7206cee-d691-407a-88e9-11bf80053b16": {
        "componentName": "GridItem",
        "componentLib": "system",
        "properties": {
          "children": ["61e537cc-8952-4ecb-acaf-e4fad925a114"],
          "feature": {
            "columnSizes": {
              "xs": 12
            }
          },
          "componentTheme": {
            "margin": {
              "xs": "0px 0px 98px 0px"
            }
          }
        }
      },
      "61e537cc-8952-4ecb-acaf-e4fad925a114": {
        "componentName": "FYI",
        "componentLib": "ifc",
        "properties": {
          "children": [],
          "feature": {
            "image": {
              "xs": "/mocks/images/CovMap_M.svg",
              "sm": "/mocks/images/CovMap_T.svg",
              "lg": "/mocks/images/CovMap_L.svg"
            },
            "openPageOnClick": "Checkout_page",
            "includeAcceptButton": false
          },
          "componentTheme": {
            "backgroundColor": "#ffffff",
            "display": {
              "xs": true
            }
          }
        }
      },
      "10a8ded3-8e45-41ae-8846-3092119864ea": {
        "componentName": "GridItem",
        "componentLib": "system",
        "properties": {
          "children": ["b0854192-d727-4afa-8233-738dd4b934b5"],
          "feature": {
            "columnSizes": {
              "xs": 12
            }
          },
          "componentTheme": {
            "margin": {
              "xs": "0px 0px 0px 0px"
            }
          }
        }
      },
      "b0854192-d727-4afa-8233-738dd4b934b5": {
        "componentName": "FYI",
        "componentLib": "ifc",
        "properties": {
          "children": [],
          "feature": {
            "image": {
              "xs": "/mocks/images/CovMap_M.svg",
              "sm": "/mocks/images/CovMap_T.svg",
              "lg": "/mocks/images/CovMap_L.svg"
            },
            "openPageOnClick": "Checkout_page",
            "includeAcceptButton": true
          },
          "componentTheme": {
            "backgroundColor": "#ffffff",
            "display": {
              "xs": true
            }
          }
        }
      },
      "67bea9bc-2248-4a25-bf42-b70b9bff00f1": {
        "componentName": "GridContainer",
        "componentLib": "system",
        "properties": {
          "children": ["d7206cee-d691-407a-88e9-11bf80053b11"]
        }
      },
      "d7206cee-d691-407a-88e9-11bf80053b11": {
        "componentName": "GridItem",
        "componentLib": "system",
        "properties": {
          "children": ["HASH_CHECKOUT"],
          "feature": {
            "columnSizes": {
              "xs": 12
            }
          }
        }
      },
      "HASH_CHECKOUT": {
        "componentName": "Checkout",
        "componentLib": "ifc",
        "properties": {
          "componentTheme": {
            "margin": {
              "xs": "35px 0px 80px 0px"
            },
            "padding": {
              "xs": "20px 20px 20px 20px"
            },
            "backgroundColor": "theme.primaryBackgroundColor",
            "dividerColor": "theme.senaryBackgroundColor",
            "voucherHeaderColor": "theme.primaryTextColor",
            "voucherHeaderFontSize": "theme.quinaryFontSize",
            "voucherBodyTextColor": "theme.primaryTextColor",
            "voucherBodyTextFontSize": "theme.primaryFontSize",
            "voucherInputLabelColor": "theme.primaryTextColor",
            "voucherInputLabelFontSize": "theme.primaryFontSize",
            "voucherNoteColor": "theme.primaryTextColor",
            "voucherNoteFontSize": "theme.primaryFontSize",
            "purchaseOptionHeaderColor": "theme.primaryTextColor",
            "purchaseOptionHeaderFontSize": "theme.quinaryFontSize",
            "purchaseOptionBodyTextColor": "theme.primaryTextColor",
            "purchaseOptionBodyTextFontSize": "theme.primaryFontSize",
            "purchaseOptionInputLabelColor": "theme.primaryTextColor",
            "purchaseOptionInputLabelFontSize": "theme.primaryFontSize",
            "purchaseOptionNoteColor": "theme.primaryTextColor",
            "purchaseOptionNoteFontSize": "theme.primaryFontSize",
            "subTotalLabelColor": "theme.primaryTextColor",
            "subTotalLabelFontSize": "theme.tertiaryFontSize",
            "subTotalCostColor": "theme.secondaryTextColor",
            "subTotalCostFontSize": "theme.tertiaryFontSize",
            "subTotalLineColor": "#BDBDBD"
          },
          "feature": {
            "openPageWhenConnected": "Payment_Confirmation",
            "addEmailConfirmationField": true
          }
        }
      },
      "HASH_DEVICE_SWAP": {
        "componentName": "DeviceSwap",
        "componentLib": "ifc",
        "properties": {
          "componentTheme": {
            "margin": {
              "xs": "0px 0px 0px 0px"
            },
            "padding": {
              "xs": "20px 20px 20px 20px"
            },
            "backgroundColor": "theme.primaryBackgroundColor",
            "headerColor": "theme.primaryTextColor",
            "headerFontSize": "1.25rem",
            "bodyTextColor": "theme.primaryTextColor",
            "bodyTextFontSize": "theme.primaryFontSize",
            "inputLabelColor": "theme.primaryTextColor",
            "inputLabelFontSize": "theme.primaryFontSize"
          },
          "feature": {
            "modal": true,
            "openPageWhenConnected": "Session_status_page"
          }
        }
      },
      "HASH_SERVICE_UNAVAILABLE_MODAL": {
        "componentName": "ServiceUnavailableModal",
        "componentLib": "ifc",
        "properties": {
          "componentTheme": {
            "margin": {
              "xs": "100px 0px 0px 0px"
            },
            "padding": {
              "xs": "20px 20px 20px 20px"
            },
            "backgroundColor": "theme.primaryBackgroundColor",
            "messageTextColor": "theme.primaryTextColor",
            "messageTextFontSize": "theme.primaryFontSize"
          },
          "feature": {}
        }
      }
    }
  },
  "settings": {
    "core": {
      "spinnerIcon": "/mocks/images/neos_spinner_bird.svg",
      "spinnerText": "Caricamento in corso...<br /> Attendere prego"
    },
    "ifc": {
      "deviceUrl": "device",
      "devicePollRate": "5000",
      "profileUrl": "profile",
      "ICAO": "NOS",
      "defaultCurrencyCode": "EUR",
      "defaultMinimumFractionDigits": "2",
      "defaultMaximumFractionDigits": "2"
    },
    "ife": {},
    "system": {}
  },
  "theme": {
    "activeIconColor": "#E40000",
    "gutter": "16px",
    "altBackgroundColor": "#013064",
    "appFontFamily": "'neos'",
    "appFontFiles": [
      {
        "file": "url('/cms-served-assets/fonts/neos/neoslight.woff') format('woff');",
        "weight": 400
      },
      {
        "file": "url('/cms-served-assets/fonts/neos/neoslight.woff') format('woff');",
        "weight": 600
      }
    ],
    "secondaryFontFamily": "'neos2'",
    "secondaryFontFiles": [
      {
        "file": "url('/cms-served-assets/fonts/neos/neoslight.woff') format('woff');",
        "weight": 400
      },
      {
        "file": "url('/cms-served-assets/fonts/neos/neoslight.woff') format('woff');",
        "weight": 600
      },
      {
        "file": "url('/cms-served-assets/fonts/neos/neosbold.woff2') format('woff');",
        "weight": 100
      }
    ],
    "fontIconFontFamily": "'FontAwesome'",
    "fontIconFiles": "url('/cms-served-assets/fonts/font-awesome/fonts/fontawesome-webfont.woff2') format('woff2'), url('/cms-served-assets/fonts/font-awesome/fonts/fontawesome-webfont.woff') format('woff'), url('/cms-served-assets/fonts/font-awesome/fonts/fontawesome-webfont.ttf') format('truetype'), url('/cms-served-assets/fonts/font-awesome/fonts/fontawesome-webfont.svg#font') format('svg');",
    "fontIconCss": "/cms-served-assets/fonts/font-awesome/css/font-awesome.css",
    "fontIconUsesLigature": false,
    "fontIconBaseClass": "fa",
    "buttonRadius": "40px",
    "defaultFontSize": "16px",
    "fontWeight": "normal",
    "formErrorColor": "#DF2927",
    "modalRadius": "4px",
    "primaryBackgroundColor": "#ffffff",
    "primaryDividerColor": "#5C5757",
    "primaryButtonColor": "#0073CB",
    "primaryButtonActiveColor": "#BDBDBD",
    "primaryButtonInactiveColor": "#BDBDBD",
    "primaryButtonHoverColor": "#025FA7",
    "primaryButtonHoverTextColor": "#FFFFFF",
    "primaryButtonTextColor": "#ffffff",
    "primaryFontSize": "1rem",
    "primaryIconColor": "#ffffff",
    "primaryIconDisabledColor": "#9c9c9c",
    "primaryLinkColor": "#1A1919",
    "primaryLinkActiveColor": "#1A1919",
    "primaryTextColor": "#1A1919",
    "primaryTextShadow": "none",
    "primaryFocusColor": "#0073CB",
    "primaryFocusBorder": "1px",
    "secondaryBackgroundColor": "#1A1919",
    "secondaryButtonColor": "#FFFFFF",
    "secondaryButtonActiveColor": "#BDBDBD",
    "secondaryButtonHoverColor": "#A9D2F0",
    "secondaryButtonHoverTextColor": "#333333",
    "secondaryButtonTextColor": "#1A1919",
    "secondaryFontSize": "1.25rem",
    "secondaryTextShadow": "0px 2px 2px rgba(0, 0, 0, 0.3)",
    "secondaryIconColor": "#202e39",
    "secondaryIconDisabledColor": "#9c9c9c",
    "secondaryTextColor": "#0073CB",
    "secondaryFocusColor": "#ffffff",
    "tertiaryBackgroundColor": "#0073CB",
    "tertiaryTextColor": "#ffffff",
    "tertiaryFontSize": "1.5rem",
    "tertiaryIconColor": "#1694CA",
    "tertiaryFocusColor": "#6DACE3",
    "quaternaryBackgroundColor": "#6DACE3",
    "quaternaryIconColor": "#25b2ef",
    "quaternaryFontSize": "1.875rem",
    "quinaryBackgroundColor": "#25B2EF",
    "quinaryFontSize": "3rem",
    "senaryBackgroundColor": "#6DACE3"
  },
  "locations": {
    "destinationLatitude": 40.7771988,
    "originCode": "DFW",
    "originCountry": "---",
    "destination": "New York, NY",
    "originElevation": "---",
    "originLatitude": 32.897,
    "destinationElevation": 21,
    "originLongitude": -97.038,
    "destinationLongitude": -73.8725967,
    "destinationCountry": "US",
    "destinationCode": "LGA",
    "origin": "Dallas, TX"
  },

  "serviceTiers": [
    {
      "active": 1,
      "alternateCost": null,
      "autoConnect": 1,
      "cost": 0,
      "customerId": 5,
      "description": "Aa PED Default Plan",
      "deviceCategoryId": "PED",
      "deviceTypeMask": 0,
      "duration": 86400,
      "id": 53,
      "metadata": null,
      "name": "Aa PED Default Plan",
      "npiCodeId": "AaPedDefault"
    },
    {
      "active": 1,
      "alternateCost": null,
      "autoConnect": 0,
      "cost": 10,
      "customerId": 5,
      "description": "1 HOUR PASS",
      "deviceCategoryId": "PED",
      "deviceTypeMask": 0,
      "duration": 3600,
      "id": 54,
      "metadata": {
        "description": "60 minutes of internet access on this flight",
        "taxNote": "includes applicable taxes"
      },
      "name": "Aa PED Limited Premium Plan",
      "npiCodeId": "AaPedPremium"
    },
    {
      "active": 1,
      "alternateCost": null,
      "autoConnect": 0,
      "cost": 14,
      "customerId": 5,
      "description": "FLIGHT PASS",
      "deviceCategoryId": "PED",
      "deviceTypeMask": 0,
      "duration": 86400,
      "id": 57,
      "metadata": {
        "description": "Internet access for the duration of this flight",
        "taxNote": "includes applicable taxes"
      },
      "name": "Aa PED Full Premium Plan",
      "npiCodeId": "AaPedPremium"
    }
  ]
}
