{
  "componentTheme": {
    "backgroundColor": "theme.primaryBackgroundColor",
    "carouselButtonColor": "theme.primaryTextColor",
    "carouselPadding": {"xs": "0 0 0 0"},
    "categoryTitleColor": "theme.primaryTextColor",
    "categoryTitleFontWeight": "800",
    "categoryTitlePadding": {"xs": "theme.gutter"},
    "categoryTitleSize": "theme.defaultFontSize",
    "itemTitleColor": "theme.primaryTextColor",
    "itemTitleFontWeight": "200",
    "itemTitleFontSize": "theme.defaultFontSize",
    "itemTitlePadding": {"xs": "theme.gutter"}
  }
}
