{
  "header": {
    "motifText": "Viasat Terms of Service",
    "motifHighlightText":
      "IMPORTANT NOTICE: PLEASE READ THIS AGREEMENT CAREFULLY TO ENSURE THAT YOU UNDERSTAND EACH PROVISION.",
    "noticeHeader": "Terms of Service Agreement",
    "headerText": "",
    "noticeText":
      "This Terms of Service Agreement (the \u201C<strong>Agreement</strong>\u201D) is between you and Viasat, Inc. (\u201C<strong>Viasat</strong>,\u201D \u201C<strong>Service Provider</strong>,\u201D \u201C<strong>us</strong>,\u201D or \u201C<strong>we</strong>\u201D), and governs your use of WiFi and internet services provided by Viasat (the \u201C<strong>Service</strong>\u201D) on Dreamjet SAS dba La Compagnie’s (including any affiliate and/or subsidiary, and any other brand names as will be applicable from time-to-time) aircraft from which you are connecting to the Service (the \u201C<strong>Airline</strong>\u201D). Your acceptance below and continued use of the Service represents your agreement to the terms set forth in this Agreement. If you do not agree with the terms set forth in this Agreement, immediately cease using the Service. If you would like to contact Service Provider, you may write to:<br><br>Viasat, Inc.<br>3902 South Traditions Drive<br>College Station, TX 77845<br>USA<br><br>Or you may contact Airline at:<br><br>Dreamjet SAS La Compagnie<br>Customer Care Department<br>21-37-le baudron<br>21 rue de stalingrad<br>94110 arcueil<br>France<br><br>Email. <a href='mailto:contactny@lacompagnie.com'>contactny@lacompagnie.com</a><br>Phone. 1-800-218-8187"
  },
  "effectiveDate": {
    "effectiveDateText": ""
  },
  "sections": [
    {
      "title": "1. Using the Service.",
      "isOpen": false,
      "paragraphs": [
        {
          "style": {"color": "#4A4F54"},
          "content":
            "In exchange for access to and use of the Service, you: (a) agree to provide Service Provider with accurate and complete information, including your e-email address, when accessing the Service, and to notify Service Provider of changes to your  information; (b) if applicable, agree to protect the password, username and security information you use to access the Service and to notify Service Provider immediately of any unauthorized use of your account that you become aware of; (c) agree to comply with applicable laws and regulations, including but not limited to copyright and intellectual property rights laws; and (d) represent that you are at least 18 years of age."
        }
      ]
    },
    {
      "title": "2. Free Services.",
      "isOpen": false,
      "paragraphs": [
        {
          "style": {"color": "#4A4F54"},
          "content":
            "The Service is offered at no cost to you.   If a paid version of the service is made avaialble, we will notify you and request your affirmative confirmation if you want to transfer your free Service to a paid Service.  All such free Services are governed by the full terms of this Agreement as applicable."
        }
      ]
    },
    {
      "title": "3. Operational Limits of the Service.",
      "isOpen": false,
      "paragraphs": [
        {
          "style": {"color": "#4A4F54"},
          "content":
            "Provisioning of the Service is subject to the availability and the operational limitations of the requisite equipment and associated facilities. There is no guarantee of bandwidth. Your connection and data rate speeds may not be suitable for some applications. You understand and agree that temporary interruptions of the Service may occur as normal events in the provision of the Service. Virtual private network or other remote computer access (\u201C<strong>VPN</strong>\u201D) may be intermittent and require multiple logins, depending on the VPN provider\u2019s security settings, due to brief losses in connectivity. Voice or video calls, online gaming and software updates are expressly prohibited through the Service. You further understand and agree that Service Provider has no control over third party networks you may access in the course of your use of the Service, and therefore, delays and disruptions of other network transmissions are beyond the control of Service Provider. Service Provider will not be liable for any failure of performance if such failure is due to any cause beyond Service Provider\u2019s reasonable control, including acts of God, fire, explosion, vandalism, nuclear disaster, terrorism, satellite component failure, cable cut, storm or other weather or solar occurrence, any law, order or regulation by any government, civil, or military authority, national emergencies, insurrections, riots, wars, labor difficulties, supplier failures, shortages, breaches, or delays, or other failures or delays caused by you or your equipment."
        }
      ]
    },
    {
      "title": "4. Third Party Content Disclaimer/ Links to Third Party Sites.",
      "isOpen": false,
      "paragraphs": [
        {
          "style": {"color": "#4A4F54"},
          "content":
            "Content provided by third parties (\u201C<strong>Third Party Content</strong>\u201D) have not been independently authenticated in whole or in part by Service Provider or the Airline even if Service Provider provides a link to such content. Service Provider does not provide, sell, license, or lease any of the Third Party Content other than that specifically identified as being provided by Service Provider. Service Provider is providing links to Third Party Content as a convenience only. Service Provider and Airline does not make any warranty or representation, of any kind, regarding Third Party Content."
        }
      ]
    },
    {
      "title": "5. Privacy Policy and Acceptable Use Policy.",
      "isOpen": false,
      "paragraphs": [
        {
          "style": {"color": "#4A4F54"},
          "content":
            "Any data provided to or collected by Service Provider in the performance of the Service is subject to Service Provider\u2019s Privacy Policy for the Service. Use of the Service is also subject to the terms and conditions of Service Provider\u2019s Acceptable Use Policy for the Service. Service Provider\u2019s Privacy Policy and Acceptable Use Policy for the Service are incorporated into this Agreement and are accepted together with these Terms of Service at time of registration. Click <a href='/cms-served-assets/Viasat_Privacy_Policy.pdf' target='_blank'>here</a> to review the Privacy Policy and click <a href='/cms-served-assets/Viasat_Acceptable_Use_Policy.pdf' target='_blank'>here</a> to review the Acceptable Use Policy."
        }
      ]
    },
    {
      "title": "6. General Use Restrictions.",
      "isOpen": false,
      "paragraphs": [
        {
          "style": {"color": "#4A4F54"},
          "content":
            "Subject to your acceptance of and compliance with this Agreement, you are hereby granted the right to use the Service through a non-exclusive, non-transferable and non-assignable limited license. The Service is provided for your personal, non-commercial use only (unless otherwise specifically stated) and you agree not to reproduce, duplicate, copy, sell, sublicense, transfer, resell or exploit for any purposes your use of the Service or access to the Service. You agree not to share your access to the internet connection provided through the Service with another party by linking/tethering your connected device to the other party\u2019s device. All information, documents, products, and software (the \u201C<strong>Materials</strong>\u201D) provided with this Service were provided by or to Service Provider by its respective manufacturers, authors, developers, licensees and vendors (the \u201C<strong>Third Party Provider(s)</strong>\u201D) and are the copyrighted work of Service Provider and/or the Third Party Provider(s). Except as permitted for interoperability purposes by applicable law and as stated herein, none of the Materials may be copied, reproduced, resold, distributed, republished, downloaded, displayed, posted or transmitted in any form or by any means, including, but not limited to, electronic, mechanical, photocopying, recording, or otherwise, without the prior express written permission of Service Provider or the Third Party Provider(s). Except as expressly stated herein, you are not granted any intellectual rights in and to the Service or Materials not expressly granted herein are hereby reserved and retained by Service Provider and/or the Third Party Provider(s)."
        }
      ]
    },
    {
      "title": "7. Export Laws.",
      "isOpen": false,
      "paragraphs": [
        {
          "style": {"color": "#4A4F54"},
          "content":
            "Your use of the Service is subject to U.S. export control laws and regulations, or any applicable local laws or regulations. You represent that you are not a prohibited end user under applicable U.S. export laws, regulations and lists, including but not limited to the U.S. Treasury Department list of Specially Designated Nationals or Blocked Persons. You will not use the Service in any manner that would violate applicable law, including but not limited to applicable export control laws and regulations."
        }
      ]
    },
    {
      "title": "8. Disclaimer of Warranties and Liability.",
      "isOpen": false,
      "paragraphs": [
        {
          "style": {"color": "#4A4F54"},
          "content":
            "YOU ARE USING A PUBLIC INTERNET CONNECTION AND SHOULD TAKE ALL PRECAUTIONS FOR THE SECURITY OF YOUR DEVICE AND INFORMATION. YOU UNDERSTAND THAT YOU ARE SOLELY RESPONSIBLE FOR ANY DAMAGE TO YOUR COMPUTER SYSTEM OR LOSS OF DATA THAT RESULTS FROM ANY MATERIAL AND/OR DATA DOWNLOADED FROM OR OTHERWISE PROVIDED THROUGH THE SERVICE."
        },
        {
          "style": {"color": "#4A4F54"},
          "content":
            "THE SERVICE PROVIDER DOES NOT GUARANTEE THAT THE SERVICE WILL BE FREE OF VIRUSES OR OTHER HARMFUL COMPONENTS."
        },
        {
          "style": {"color": "#4A4F54"},
          "content":
            "THE SERVICE PROVIDER SHALL BE LIABLE FOR DAMAGES ACCORDING TO APPLICABLE STATUTORY PROVISIONS FOR ANY DAMAGES CAUSED BY INTENTIONAL OR GROSSLY NEGLIGENT CONDUCT OF LEGAL REPRESENTATIVES OR EXECUTIVES OF THE SERVICE PROVIDER."
        }
      ]
    },
    {
      "title": "9. Indemnity.",
      "isOpen": false,
      "paragraphs": [
        {
          "style": {
            "color": "#4A4F54"
          },
          "content":
            "You agree to indemnify and hold harmless Service Provider from any claim or demand, including reasonable attorneys\u2019 fees, made by any third party arising out of: (a) content you submit, post, transmit or otherwise make available through the Service; (b) your violation of this Agreement; (c) your violation of Service Provider\u2019s Acceptable Use Policy; (d) your violation of any rights of another. At our expense and election, you agree to cooperate with us in connection with our defense. Other than as expressly stated in this Agreement, this Agreement shall not be deemed to create any rights in third parties."
        }
      ]
    },
    {
      "title": "10. General.",
      "isOpen": false,
      "paragraphs": [
        {
          "style": {"marginLeft": "25px", "color": "#4A4F54"},
          "content":
            "<strong>a. Contact Information.</strong><br/>Subject to applicable law, you agree that by entering into this Agreement and, if applicable, provide us with your wireless phone number and/or any other telephone number and/or your billing address and/or e-mail address, we or our agents may contact you for any account-related issues: (a) by calling or texting you at such number(s) using a prerecorded/artificial voice or text message delivered by an automatic telephone dialing system and/or using a call made by live individuals for any account-related issues, and/or (b) by sending an e-mail to such e-mail address."
        },
        {
          "style": {"marginLeft": "25px", "color": "#4A4F54"},
          "content":
            "<strong>b. Applicable Law.</strong><br/>Any action related to this Agreement will be governed by Colorado law and controlling U.S. federal law and no choice of law rules of any jurisdiction will apply, however, if you are an EU resident your consumer protection rights are not limited by this choice of law and you may bring a claim to enforce your consumer protection rights in connection with this Agreement in the EU country in which you live. The European Commission provides for an online dispute resolution platform, which you can access here: <a href='http://ec.europa.eu/consumers/odr/' target='_blank'>http://ec.europa.eu/consumers/odr/</a>."
        },
        {
          "style": {"marginLeft": "25px", "color": "#4A4F54"},
          "content":
            "<strong>c. Construction and Delegation.</strong><br/>In the event that any provision of this Agreement shall be rendered invalid or unenforceable, such invalidity or unenforceability shall not invalidate or render unenforceable any other provision of this Agreement and this Agreement shall continue in full force and effect and be construed as if it did not contain the invalid or unenforceable provision."
        },
        {
          "style": {"marginLeft": "25px", "color": "#4A4F54"},
          "content":
            "<strong>d. Entire Agreement.</strong><br/>This Agreement, as well as the additional online documents specifically incorporated as a part of this Agreement, constitutes the entire and only agreement with respect to its subject matter between you and us, applicable also to all users of your account. This Agreement supersedes all representations, proposals, inducements, assurances, promises, agreements and other communications with respect to its subject matter except as expressly set forth in this Agreement."
        },
        {
          "style": {"marginLeft": "25px", "color": "#4A4F54"},
          "content":
            "<strong>e. Miscellaneous.</strong><br/>We may enforce or decline to enforce any or all of the terms of this Agreement in our sole discretion. Captions used in this document are for convenience only and shall not be considered a part of this Agreement or be used to construe its terms or meaning. The effective date of this Agreement is the date that you first \u201Caccept\u201D this Agreement in order to receive the Services. The provisions of this Agreement which by their nature should continue shall survive any termination of this Agreement."
        }
      ]
    },
    {
      "title": "11. Consent Declaration.",
      "isOpen": false,
      "paragraphs": [
        {
          "style": {"color": "#4A4F54"},
          "content":
            "Pursuant to the European Union General Data Protection Regulation 2016/679 (<strong>\u201CEU GDPR\u201D</strong>), Viasat (the <strong>\u201CCompany\u201D</strong>), in its capacity as a data controller under the EU GDPR, is requesting your explicit, affirmative consent to certain processing activities involving your personal data."
        },
        {
          "style": {"color": "#4A4F54"},
          "content":
            "By checking the box below to confirm <strong>\u201Cyou have read and accept this Terms of Service Agreement\u201D</strong>, you consent to the collection, processing, and use of personal data by Viasat, Inc.,  3902 South Traditions Drive, College Station, TX 77845, UNITED STATES (<strong>\u201CViasat\u201D</strong>), as described in the <a href='/cms-served-assets/Viasat_Privacy_Policy.pdf' target='_blank'>Viasat Inflight WiFi Privacy Policy</a> (the <strong>\u201CPrivacy Policy\u201D</strong>), including a transfer and storage within Viasat\u2019s database(s), for the purposes of providing the Viasat in-flight WiFi internet service and related products and services (the <strong>\u201CPurpose\u201D</strong>) (collectively the <strong>\u201CServices\u201D</strong>). Generally, \u201Cpersonal data\u201D (or \u201Cpersonal information\u201D as the term is used in the Privacy Policy) means information about an identified or identifiable natural person. The types of personal data we may process about you include, but is not limited to, your first and last name, e-mail address, IP addresses, and/or zip code."
        },
        {
          "style": {"color": "#4A4F54"},
          "content":
            "Viasat may process your personal data as required to provide you the Services. For example, Viasat will use your personal information to process your payment for the Service and to identify your personal device to provide you with the Service."
        },
        {
          "style": {"color": "#4A4F54"},
          "content":
            "Viasat will also share your personal data with third parties in order to provide you the Services. Third parties that Viasat may share your personal data with may include partners, vendors, or others who perform functions on our behalf related to the Services. Viasat will require any third party that processes your personal data to comply with the terms and conditions of this Consent Declaration."
        },
        {
          "style": {"color": "#4A4F54"},
          "content":
            "Viasat may also process your personal data as necessary to comply with applicable laws, to protect your vital interests, and to fulfil goals related to the Viasat’s legitimate interests in providing you the Services (to the extent that such interests are not outweighed by your interests in protecting your personal data). Unless otherwise required by law, personal data will be handled and processed only by the persons who are responsible for the necessary activities for the Purpose."
        },
        {
          "style": {"color": "#4A4F54"},
          "content":
            "Viasat is committed to ensuring the security of your information. We have put in place reasonable physical, technical, and administrative safeguards designed to prevent unauthorized access to your information."
        },
        {
          "style": {"color": "#4A4F54"},
          "content":
            "Furthermore, you acknowledge and confirm that your personal data will be shared with Viasat offices in California, India, and in United States, Amazon Web Services, Inc., Salesforce.com, Inc., CMC Americas, Inc. Eutelsat SA, and Viawest, Inc., which may be located outside your country of residence and may have a different level of data protection than your country of residence, all in accordance with the Privacy Policy."
        },
        {
          "style": {"color": "#4A4F54"},
          "content":
            "You have the right to withdraw your consent to the collection and processing of personal data at any time.  If you would like to withdraw consent, please contact via e-mail <a href='mailto:privacy@Viasat.com'>privacy@Viasat.com</a>."
        }
      ]
    }
  ]
}
