{
  "alertId": "30101",
  "authorizationState": 2,
  "authType": null,
  "category": "PED",
  "connectionState": 2,
  "destinationConditions": "Sunny",
  "destinationTemperature": 35.0,
  "destinationWeatherIcon": 1,
  "guid": "7c51bd97-01ea-11e8-ad9e-0242ac110002",
  "ifeState": "Available",
  "isConnected": true,
  "isAuthorized": true,
  "lanIpAddress": "172.27.144.47",
  "macAddress": "172027144047",
  "language": "en",
  "browserLanguage": "en-US",
  "isPausedUser": false,
  "isPausedSystem": false,
  "isProfileExpired": false,
  "serviceTierId": 131,
  "serviceUid": "172027144047",
  "serviceTimeRemaining": 86119,
  "messagesNew": 0,
  "messagesOld": 0,
  "isServiceAvailable": true,
  "profileHash": "87bb4fdb5d8df13b4190b7ec1377f05f",
  "flightOrigin": "KDFW",
  "flightDestination": "KLGA",
  "flightNumber": "XYZ43",
  "flightMinutesRemaining": 222.3,
  "tailId": "XYZFREE01",
  "altitude": 11000,
  "latitude": 30.569,
  "longitude": -96.276,
  "heading": 3.14,
  "wowState": "Off",
  "purchaseAvailability": true,
  "username": null,
  "typeId": 0,
  "serviceStartTime": "2018-01-25T20:20:14Z",
  "logLevel": 65535
}
