<?xml version="1.0" encoding="utf-8"?>
<!-- Generator: Adobe Illustrator 22.0.1, SVG Export Plug-In . SVG Version: 6.00 Build 0)  -->
<svg version="1.1" id="icons" xmlns="http://www.w3.org/2000/svg" xmlns:xlink="http://www.w3.org/1999/xlink" x="0px" y="0px"
	 viewBox="0 0 50 50" style="enable-background:new 0 0 50 50;" xml:space="preserve">
<style type="text/css">
	.st0{fill:#7C7C7C;}
	.st1{fill:#F9C900;}
	.st2{fill:#6F5E68;}
	.st3{fill:#C8C8C8;}
	.st4{fill:#FFFFFF;}
	.st5{fill:#0061A0;}
	.st6{fill:none;}
	.st7{fill:#009FE3;}
</style>
<g>
	<g>
		<path class="st5" d="M24.1,36c0,0.4,0.3,0.6,0.6,0.6c0.4,0,0.6-0.3,0.6-0.6v-5.8c0-0.4-0.3-0.6-0.6-0.6c-0.4,0-0.6,0.3-0.6,0.6V36
			z"/>
	</g>
	<g>
		<path class="st3" d="M32.1,17.4c-0.2,0-0.4-0.1-0.5-0.3C30,13,26,10.3,21.6,10.3c-5.9,0-10.7,4.7-10.9,10.6c0,0.2-0.2,0.3-0.4,0.3
			c-0.2,0-0.4,0-0.6,0c-3,0-5.4,2.4-5.4,5.4s2.4,5.4,5.4,5.4h4.2c0.4,0,0.6-0.3,0.6-0.6c0-0.4-0.3-0.6-0.6-0.6H9.7
			c-2.3,0-4.2-1.9-4.2-4.2s1.9-4.2,4.2-4.2c0.5,0,1,0.1,1.4,0.3l0.4,0.1c0.3,0.1,0.6-0.1,0.5-0.4l0-0.4c0-0.3-0.1-0.6-0.1-0.9
			c0-5.3,4.3-9.6,9.6-9.6c4.1,0,7.7,2.6,9.1,6.4c0.1,0.4,0.5,0.6,0.9,0.6c3.4,0,6.1,2.7,6.1,6.1s-2.7,6.1-6.1,6.1H28
			c-0.4,0-0.6,0.3-0.6,0.6c0,0.4,0.3,0.6,0.6,0.6h3.5c4.1,0,7.4-3.3,7.4-7.4C38.9,20.9,35.9,17.7,32.1,17.4z"/>
	</g>
	<g>
		<path class="st5" d="M21.6,27.6c0-0.3-0.3-0.6-0.6-0.6c-0.4,0-0.6,0.3-0.6,0.6v8.5c0,0.4,0.3,0.6,0.6,0.6h0c0.4,0,0.6-0.3,0.6-0.6
			V27.6z"/>
		<path class="st5" d="M20.3,45.3c0,0.4,0.3,0.6,0.6,0.6c0.4,0,0.6-0.3,0.6-0.6v-2.8c0-0.4-0.5-0.5-0.7-0.2l-0.5,0.7
			c-0.1,0.1-0.1,0.3-0.1,0.5V45.3z"/>
		<path class="st1" d="M21.8,37.6h-0.3h-1.3h-1.8c-0.2,0-0.3-0.1-0.3-0.3l0.8-6.1c0-0.2-0.2-0.2-0.3-0.1l-7.3,10.4
			c-0.2,0.2,0,0.5,0.3,0.5h4.1c0.2,0,0.3,0.1,0.3,0.3l-0.8,6.1c0,0.2,0.2,0.2,0.3,0.1l4.8-7.5l1.3-2l0.6-0.9
			C22.3,37.9,22.1,37.6,21.8,37.6z M20,39.1l-2.6,4.1c0,0.1-0.1,0-0.1,0l0.2-1.8c0-0.3-0.2-0.6-0.6-0.6h-3.1c-0.1,0-0.2-0.2-0.1-0.3
			l3.3-4.7c0-0.1,0.2,0,0.1,0.1l-0.3,2.3c0,0.3,0.2,0.6,0.6,0.6h2.5C20,38.8,20.1,39,20,39.1z"/>
	</g>
	<g>
		<path class="st3" d="M37,18c-0.4,0-0.7-0.3-0.8-0.6c-0.1-0.3,0.1-0.6,0.4-0.6h5c1.6,0,2.9-1.3,2.9-2.9S43.2,11,41.6,11
			c-0.3,0-0.5,0-0.8,0.1l-0.3,0.1c-0.3,0.1-0.6-0.1-0.5-0.4l0-0.3c0-0.3,0-0.5,0-0.8c0-3.9-3.2-7-7-7c-3.1,0-5.8,2-6.7,4.9
			c-0.1,0.4-0.5,0.6-0.8,0.6c-0.7,0-1.3,0.3-1.9,0.6c-0.4,0.2-0.8,0.4-1.2,0.5c-0.3,0.1-0.5,0.1-0.8,0.2c-0.2,0.1-0.4-0.2-0.3-0.4
			C22.1,8,23.3,7.2,24.8,7c0.2,0,0.3-0.2,0.4-0.3c1.2-3.1,4.3-5.3,7.7-5.3c4.5,0,8.2,3.6,8.3,8c0,0.2,0.2,0.3,0.3,0.3
			c2.3,0,4.2,1.9,4.2,4.2c0,2.3-1.9,4.2-4.2,4.2H37z"/>
	</g>
</g>
</svg>
