<?xml version="1.0" encoding="utf-8"?>
<!-- Generator: Adobe Illustrator 22.0.1, SVG Export Plug-In . SVG Version: 6.00 Build 0)  -->
<svg version="1.1" id="icons" xmlns="http://www.w3.org/2000/svg" xmlns:xlink="http://www.w3.org/1999/xlink" x="0px" y="0px"
	 viewBox="0 0 50 50" style="enable-background:new 0 0 50 50;" xml:space="preserve">
<style type="text/css">
	.st0{fill:#7C7C7C;}
	.st1{fill:#F9C900;}
	.st2{fill:#6F5E68;}
	.st3{fill:#C8C8C8;}
	.st4{fill:#FFFFFF;}
	.st5{fill:#0061A0;}
	.st6{fill:none;}
	.st7{fill:#009FE3;}
</style>
<g>
	<g>
		<path class="st3" d="M42.3,24.6c0-3.9-3-7-6.7-7.3c-0.2,0-0.4-0.1-0.5-0.3c-1.7-4.1-5.6-6.8-10.1-6.8c-5.9,0-10.7,4.7-10.9,10.6
			c0,0.2-0.2,0.3-0.4,0.3c-0.2,0-0.4,0-0.6,0c-3,0-5.4,2.4-5.4,5.4s2.4,5.4,5.4,5.4h3.5c0.4,0,0.6-0.3,0.6-0.6s-0.3-0.6-0.6-0.6
			h-3.5c-2.3,0-4.2-1.9-4.2-4.2s1.9-4.2,4.2-4.2c0.5,0,1,0.1,1.4,0.3l0.4,0.1c0.3,0.1,0.6-0.1,0.5-0.4l0-0.4c0-0.3-0.1-0.6-0.1-0.9
			c0-5.3,4.3-9.6,9.6-9.6c4.1,0,7.7,2.6,9.1,6.4c0.1,0.4,0.5,0.6,0.9,0.6c3.4,0,6.1,2.7,6.1,6.1c0,3.3-2.6,5.9-5.8,6.1
			c-0.3,0-0.6,0.3-0.6,0.6v0.1c0,0.3,0.2,0.5,0.5,0.5h0.5c0,0,0,0,0,0c0,0,0,0,0.1,0C39.4,31.6,42.3,28.4,42.3,24.6z"/>
	</g>
	<g>
		<path class="st7" d="M23.9,30.6c0.2-0.2,0.2-0.4,0-0.6c-0.2-0.2-0.4-0.2-0.6,0l-0.7,0.7c-0.1,0.1-0.1,0-0.1-0.1v-0.8
			c0-0.2-0.2-0.4-0.4-0.4c-0.2,0-0.4,0.2-0.4,0.4v0.8c0,0.1-0.1,0.1-0.1,0.1L20.9,30c-0.2-0.2-0.4-0.2-0.6,0c-0.2,0.2-0.2,0.4,0,0.6
			l0.7,0.7c0.1,0.1,0,0.1-0.1,0.1h-0.8c-0.2,0-0.4,0.2-0.4,0.4c0,0.2,0.2,0.4,0.4,0.4h0.8c0.1,0,0.1,0.1,0.1,0.1l-0.7,0.7
			c-0.2,0.2-0.2,0.4,0,0.6c0.2,0.2,0.4,0.2,0.6,0l0.7-0.7c0.1-0.1,0.1,0,0.1,0.1v0.8c0,0.2,0.2,0.4,0.4,0.4c0.2,0,0.4-0.2,0.4-0.4
			V33c0-0.1,0.1-0.1,0.1-0.1l0.7,0.7c0.2,0.2,0.4,0.2,0.6,0c0.2-0.2,0.2-0.4,0-0.6l-0.7-0.7c-0.1-0.1,0-0.1,0.1-0.1h0.8
			c0.2,0,0.4-0.2,0.4-0.4c0-0.2-0.2-0.4-0.4-0.4h-0.8c-0.1,0-0.1-0.1-0.1-0.1L23.9,30.6z"/>
	</g>
	<g>
		<path class="st7" d="M31.2,30.6c0.2-0.2,0.2-0.4,0-0.6c-0.2-0.2-0.4-0.2-0.6,0L30,30.7c-0.1,0.1-0.1,0-0.1-0.1v-0.8
			c0-0.2-0.2-0.4-0.4-0.4c-0.2,0-0.4,0.2-0.4,0.4v0.8c0,0.1-0.1,0.1-0.1,0.1L28.2,30c-0.2-0.2-0.4-0.2-0.6,0c-0.2,0.2-0.2,0.4,0,0.6
			l0.7,0.7c0.1,0.1,0,0.1-0.1,0.1h-0.8c-0.2,0-0.4,0.2-0.4,0.4c0,0.2,0.2,0.4,0.4,0.4h0.8c0.1,0,0.1,0.1,0.1,0.1l-0.7,0.7
			c-0.2,0.2-0.2,0.4,0,0.6c0.2,0.2,0.4,0.2,0.6,0l0.7-0.7c0.1-0.1,0.1,0,0.1,0.1v0.8c0,0.2,0.2,0.4,0.4,0.4c0.2,0,0.4-0.2,0.4-0.4
			V33c0-0.1,0.1-0.1,0.1-0.1l0.7,0.7c0.2,0.2,0.4,0.2,0.6,0c0.2-0.2,0.2-0.4,0-0.6l-0.7-0.7c-0.1-0.1,0-0.1,0.1-0.1h0.8
			c0.2,0,0.4-0.2,0.4-0.4c0-0.2-0.2-0.4-0.4-0.4h-0.8c-0.1,0-0.1-0.1-0.1-0.1L31.2,30.6z"/>
	</g>
	<g>
		<path class="st7" d="M27.6,36.1c0.2-0.2,0.2-0.4,0-0.6c-0.2-0.2-0.4-0.2-0.6,0l-0.7,0.7c-0.1,0.1-0.1,0-0.1-0.1v-0.8
			c0-0.2-0.2-0.4-0.4-0.4c-0.2,0-0.4,0.2-0.4,0.4v0.8c0,0.1-0.1,0.1-0.1,0.1l-0.7-0.7c-0.2-0.2-0.4-0.2-0.6,0
			c-0.2,0.2-0.2,0.4,0,0.6l0.7,0.7c0.1,0.1,0,0.1-0.1,0.1h-0.8c-0.2,0-0.4,0.2-0.4,0.4c0,0.2,0.2,0.4,0.4,0.4h0.8
			c0.1,0,0.1,0.1,0.1,0.1L24,38.6c-0.2,0.2-0.2,0.4,0,0.6c0.2,0.2,0.4,0.2,0.6,0l0.7-0.7c0.1-0.1,0.1,0,0.1,0.1v0.8
			c0,0.2,0.2,0.4,0.4,0.4c0.2,0,0.4-0.2,0.4-0.4v-0.8c0-0.1,0.1-0.1,0.1-0.1l0.7,0.7c0.2,0.2,0.4,0.2,0.6,0c0.2-0.2,0.2-0.4,0-0.6
			l-0.7-0.7c-0.1-0.1,0-0.1,0.1-0.1h0.8c0.2,0,0.4-0.2,0.4-0.4c0-0.2-0.2-0.4-0.4-0.4H27c-0.1,0-0.1-0.1-0.1-0.1L27.6,36.1z"/>
	</g>
</g>
</svg>
