<?xml version="1.0" encoding="utf-8"?>
<!-- Generator: Adobe Illustrator 22.0.1, SVG Export Plug-In . SVG Version: 6.00 Build 0)  -->
<svg version="1.1" id="icons" xmlns="http://www.w3.org/2000/svg" xmlns:xlink="http://www.w3.org/1999/xlink" x="0px" y="0px"
	 viewBox="0 0 50 50" style="enable-background:new 0 0 50 50;" xml:space="preserve">
<style type="text/css">
	.st0{fill:#7C7C7C;}
	.st1{fill:#F9C900;}
	.st2{fill:#6F5E68;}
	.st3{fill:#C8C8C8;}
	.st4{fill:#FFFFFF;}
	.st5{fill:#0061A0;}
	.st6{fill:none;}
	.st7{fill:#009FE3;}
</style>
<g>
	<path class="st1" d="M20.5,17c0.5,0,1,0.1,1.4,0.3c1.4-0.8,2.9-1.3,4.6-1.3c4.6,0,8.3,3.4,8.9,7.8c0.4-0.1,0.8-0.1,1.3-0.1
		c-0.6-5.1-4.9-9-10.2-9c-2.3,0-4.5,0.8-6.2,2.1c0,0,0,0,0,0C20.4,17,20.5,17,20.5,17z"/>
	<path class="st1" d="M24.8,33.8c-3.3-0.7-5.9-3.2-6.8-6.4h-1.3c0.9,3.9,4,6.9,7.9,7.6c0,0,0-0.1,0-0.1
		C24.6,34.6,24.7,34.2,24.8,33.8z"/>
	<path class="st1" d="M26.6,13.5c0.4,0,0.6-0.3,0.6-0.6V6.4c0-0.4-0.3-0.6-0.6-0.6c-0.4,0-0.6,0.3-0.6,0.6v6.4
		C26,13.2,26.3,13.5,26.6,13.5z"/>
	<path class="st1" d="M26,43.6c0,0.4,0.3,0.6,0.6,0.6c0.4,0,0.6-0.3,0.6-0.6v-4.9c-0.5-0.2-0.9-0.4-1.3-0.8V43.6z"/>
	<path class="st1" d="M45.2,25.6c0.4,0,0.6-0.3,0.6-0.6c0-0.4-0.3-0.6-0.6-0.6h-5.1c0.7,0.3,1.4,0.8,2,1.3H45.2z"/>
	<path class="st1" d="M17.6,33.2L13,37.7c-0.3,0.3-0.3,0.7,0,0.9c0.3,0.3,0.7,0.3,0.9,0l4.5-4.5c0.3-0.3,0.3-0.7,0-0.9
		C18.2,32.9,17.8,32.9,17.6,33.2z"/>
	<path class="st1" d="M14.8,12.3l-0.9-0.9c-0.3-0.3-0.7-0.3-0.9,0c-0.2,0.2-0.2,0.5-0.1,0.8c0.1,0,0.3,0,0.4,0
		C13.9,12.2,14.4,12.2,14.8,12.3z"/>
	<path class="st1" d="M35.7,16.8l4.5-4.5c0.3-0.3,0.3-0.7,0-0.9c-0.3-0.3-0.7-0.3-0.9,0l-4.5,4.5c-0.3,0.3-0.3,0.7,0,0.9
		C35,17.1,35.4,17.1,35.7,16.8z"/>
	<path class="st3" d="M44.2,28.6c-0.1,0-0.1-0.1-0.1-0.1c-0.5-1.1-1.1-2.1-2-2.8c-0.6-0.5-1.3-1-2-1.3c-0.9-0.4-2-0.6-3.1-0.6
		c-0.1,0-0.2,0-0.3,0c-0.4,0-0.9,0.1-1.3,0.1c-3.4,0.7-5.9,3.6-6,7.2C29.2,31,28.9,31,28.6,31c-1.8,0-3.3,1.2-3.8,2.8
		c-0.1,0.4-0.2,0.8-0.2,1.2c0,0,0,0.1,0,0.1c0,1.2,0.5,2.2,1.4,2.9c0.4,0.3,0.8,0.6,1.3,0.8c0.4,0.2,0.9,0.2,1.3,0.2h15.3
		c2.9,0,5.2-2.3,5.2-5.2C49.1,31,47,28.7,44.2,28.6z M43.9,37.8h-3.6h-1.8h-9.9c-0.5,0-0.9-0.1-1.3-0.4c-0.4-0.2-0.7-0.5-1-0.8
		c-0.3-0.4-0.5-0.9-0.5-1.4c0-0.1,0-0.2,0-0.2c0-0.4,0.1-0.7,0.2-1c0.4-1.1,1.4-1.8,2.7-1.8c0.4,0,0.8,0.1,1.2,0.3l0.3,0.1
		c0.1,0.1,0.3,0,0.4,0c0.1-0.1,0.2-0.2,0.2-0.4l0-0.3c0-0.2,0-0.3,0-0.5c0-3.1,2.1-5.6,5-6.3c0.4-0.1,0.8-0.2,1.3-0.2
		c0.1,0,0.1,0,0.2,0c0.4,0,0.7,0,1.1,0.1c0.7,0.1,1.4,0.4,2,0.7c1.4,0.8,2.5,2,3,3.5c0.1,0.3,0.4,0.5,0.7,0.5l0,0
		c2.2,0,4.1,1.8,4.1,4.1S46.2,37.8,43.9,37.8z"/>
	<path class="st3" d="M22,17.3c-0.5-0.2-0.9-0.3-1.4-0.3c-0.1,0-0.1-0.1-0.1-0.1c0,0,0,0,0,0c-1-2.4-3.1-4.1-5.5-4.5
		c-0.5-0.1-1-0.1-1.5-0.1c-0.1,0-0.3,0-0.4,0c-3.9,0.2-7.1,3.4-7.2,7.3c-0.3-0.1-0.6-0.1-0.9-0.1c-2.2,0-4,1.8-4,4s1.8,4,4,4h11.8
		H18h2.2c2.9,0,5.2-2.3,5.2-5.2C25.4,20,24,18.1,22,17.3z M6.9,20.3c0-0.2,0-0.3,0-0.5c0-3.6,2.9-6.5,6.5-6.5c0.2,0,0.5,0,0.7,0
		c1,0.1,2,0.5,2.8,1c1.2,0.8,2.1,1.9,2.6,3.3c0,0,0,0,0,0c0.1,0.3,0.4,0.5,0.7,0.5l0,0c0.2,0,0.4,0,0.6,0c2,0.3,3.5,2,3.5,4
		c0,2.2-1.8,4.1-4.1,4.1h-2.5h-1.3H4.9C3.3,26.3,2,25,2,23.4c0-1.6,1.3-2.9,2.9-2.9c0.4,0,0.8,0.1,1.2,0.3l0.3,0.1
		c0.1,0.1,0.3,0,0.4,0c0.1-0.1,0.2-0.2,0.2-0.4L6.9,20.3z"/>
</g>
</svg>
