<?xml version="1.0" encoding="utf-8"?>
<!-- Generator: Adobe Illustrator 22.0.1, SVG Export Plug-In . SVG Version: 6.00 Build 0)  -->
<svg version="1.1" id="icons" xmlns="http://www.w3.org/2000/svg" xmlns:xlink="http://www.w3.org/1999/xlink" x="0px" y="0px"
	 viewBox="0 0 50 50" style="enable-background:new 0 0 50 50;" xml:space="preserve">
<style type="text/css">
	.st0{fill:#7C7C7C;}
	.st1{fill:#F9C900;}
	.st2{fill:#6F5E68;}
	.st3{fill:#C8C8C8;}
	.st4{fill:#FFFFFF;}
	.st5{fill:#0061A0;}
	.st6{fill:none;}
	.st7{fill:#009FE3;}
</style>
<path class="st1" d="M41.9,32.4c-2.6,1.4-5.5,2.1-8.4,2.1c-9.9,0-17.9-8-17.9-17.9c0-2.9,0.7-5.8,2.1-8.4l0.7-1.3
	c0.1-0.2-0.1-0.4-0.3-0.3l-1.3,0.7c-6.3,3.4-10.2,9.9-10.2,17c0,10.6,8.6,19.2,19.2,19.2c7.1,0,13.6-3.9,17-10.2l0.7-1.3
	c0.1-0.2-0.1-0.4-0.3-0.3L41.9,32.4z M25.8,42.2c-9.9,0-17.9-8-17.9-17.9c0-5.9,2.8-11.3,7.5-14.6c0.1-0.1,0.1,0.1,0.1,0.2
	c-0.8,2.2-1.2,4.5-1.2,6.8c0,10.6,8.6,19.2,19.2,19.2c2.3,0,4.6-0.4,6.8-1.2c0.1,0,0.2,0,0.2,0.1C37,39.3,31.6,42.2,25.8,42.2z"/>
</svg>
