<?xml version="1.0" encoding="utf-8"?>
<!-- Generator: Adobe Illustrator 22.0.1, SVG Export Plug-In . SVG Version: 6.00 Build 0)  -->
<svg version="1.1" id="icons" xmlns="http://www.w3.org/2000/svg" xmlns:xlink="http://www.w3.org/1999/xlink" x="0px" y="0px"
	 viewBox="0 0 50 50" style="enable-background:new 0 0 50 50;" xml:space="preserve">
<style type="text/css">
	.st0{fill:#0061A0;}
	.st1{fill:#F9C900;}
	.st2{fill:#C8C8C8;}
</style>
<g>
	<g>
		<path class="st0" d="M28.8,32.7c0,0.4,0.3,0.6,0.6,0.6c0.4,0,0.6-0.3,0.6-0.6v-5.8c0-0.4-0.3-0.6-0.6-0.6c-0.4,0-0.6,0.3-0.6,0.6
			V32.7z"/>
	</g>
	<g>
		<path class="st1" d="M12,18.2c-1.6-0.5-2.9-1.5-3.7-3c-0.1-0.1,0-0.3,0.2-0.3c4.4-0.3,8-3.8,8.2-8.3c0-0.1,0.1-0.3,0.3-0.2
			c1.1,0.6,1.9,1.4,2.5,2.4c0.1,0.2,0.1,0.4-0.1,0.5c-0.5,0.5-1,1-1.5,1.5c0.2-0.2,0.4-0.4,0.6-0.6C18.9,9.8,19.9,9,21,8.3
			c-0.2,0-0.3-0.1-0.4-0.2c-0.9-1.6-2.4-2.8-4.3-3.4H16c-0.3-0.1-0.6,0.1-0.6,0.4v0.3c0,0.2,0,0.5,0,0.7c0,4.1-3.4,7.5-7.5,7.5
			c-0.2,0-0.5,0-0.7,0H6.9c-0.3,0-0.5,0.3-0.4,0.6l0.1,0.3c0.7,2.1,2.1,3.7,4,4.6c0.1,0.1,0.1,0.1,0.1,0.2c0.4-0.3,1-0.7,1.6-1
			C12.2,18.3,12.1,18.2,12,18.2z"/>
		<path class="st2" d="M32.6,28.6h3.5c4.1,0,7.4-3.3,7.4-7.3c0-3.4-2.7-6.5-6-7.1c-0.2,0-0.5-0.1-0.7-0.1c-0.2,0-0.4-0.1-0.5-0.3
			C34.6,9.7,30.7,7,26.2,7c-0.5,0-0.9,0-1.4,0.1c0,0-0.1,0-0.1,0c-1.3,0.2-2.5,0.6-3.6,1.2c0,0-0.1,0-0.1,0
			c-1.1,0.7-2.1,1.5-2.5,1.9c-0.2,0.2-0.4,0.4-0.6,0.6c-0.1,0.1-0.1,0.1-0.2,0.2c0,0,0,0.1-0.1,0.1c-1.4,1.8-2.3,4.1-2.4,6.6
			c0,0.2-0.2,0.3-0.4,0.3c-0.2,0-0.4,0-0.6,0c-0.6,0-1.1,0.1-1.6,0.2c-0.1,0.1-0.2,0.1-0.4,0.1c-0.6,0.3-1.2,0.7-1.6,1
			c0,0,0,0.1,0,0.1c-1.1,1-1.8,2.4-1.8,4c0,1.5,0.6,2.8,1.5,3.8c1,0.9,2.3,1.5,3.8,1.5h4.2c0.4,0,0.6-0.3,0.6-0.6
			c0-0.1-0.1-0.2-0.1-0.4c-0.1-0.1-0.2-0.1-0.4-0.1h-4.2c-1.2,0-2.2-0.5-3-1.3c-0.8-0.8-1.3-1.8-1.3-3c0-2.3,1.9-4.2,4.2-4.2
			c0.5,0,1,0.1,1.4,0.3l0.4,0.1c0.3,0.1,0.6-0.1,0.5-0.4v-0.4c0-0.3,0-0.5,0-0.8c0,0,0-0.1,0-0.1c0-5.3,4.3-9.6,9.6-9.6
			c4.1,0,7.7,2.6,9.1,6.4c0.1,0.4,0.5,0.6,0.9,0.6c3.4,0,6.1,2.7,6.1,6.1c0,0,0,0,0,0c0,0,0,0,0,0.1c0,3.4-2.7,6.1-6.1,6.1h-3.5
			c-0.4,0-0.6,0.3-0.6,0.5C32,28.3,32.3,28.6,32.6,28.6z"/>
	</g>
	<g>
		<path class="st0" d="M26.2,24.3c0-0.3-0.3-0.6-0.6-0.6c-0.4,0-0.6,0.3-0.6,0.6v8.5c0,0.4,0.3,0.6,0.6,0.6l0,0
			c0.4,0,0.6-0.3,0.6-0.6V24.3z"/>
		<path class="st0" d="M24.9,42c0,0.4,0.3,0.6,0.6,0.6c0.4,0,0.6-0.3,0.6-0.6v-2.8c0-0.3-0.4-0.5-0.6-0.2L25,39.9
			c-0.1,0.1-0.1,0.3-0.1,0.4V42z"/>
		<path class="st1" d="M26.5,34.3h-0.3h-1.3h-1.8c-0.2,0-0.3-0.1-0.3-0.3l0.8-6.1c0-0.2-0.2-0.2-0.3-0.1L16,38.2
			c-0.2,0.2,0,0.5,0.3,0.5h4.1c0.2,0,0.3,0.1,0.3,0.3l-0.8,6.1c0,0.2,0.2,0.2,0.3,0.1l4.8-7.5l1.3-2l0.6-0.9
			C27,34.6,26.8,34.3,26.5,34.3z M24.6,35.8L22,39.9c0,0.1-0.1,0-0.1,0l0.2-1.8c0-0.3-0.2-0.6-0.6-0.6h-3.1c-0.1,0-0.2-0.2-0.1-0.3
			l3.3-4.7c0-0.1,0.2,0,0.1,0.1l-0.3,2.3c0,0.3,0.2,0.6,0.6,0.6h2.5C24.6,35.6,24.7,35.7,24.6,35.8z"/>
	</g>
</g>
</svg>
