{
  "header": {
    "motifText": "Privacy Policy",
    "motifHighlightText": "Important",
    "noticeHeader": "",
    "headerText": "Terms of Service",
    "noticeText": ""
  },
  "effectiveDate": {
    "effectiveDateText": "Effective Date: August 1, 2017"
  },
  "sections": [
    {
      "title": "Viasat Inflight wi-fi privacy policy.",
      "isOpen": true,
      "content":
        "<p>This Terms of Service Agreement (the \u201CAgreement\u201D) is between you and Viasat, Inc. (\u201CViasat,\u201D \u201CService Provider,\u201D \u201Cus,\u201D or \u201Cwe\u201D), and governs your use of WiFi and internet services provided by Viasat (the \u201DService\u201D) to which you are connecting on the airline operator's aircraft from which you are connecting to such Service (the \u201CAirline\u201D) (collectively the \"Service\"). Your acceptance below and continued use of the Service represents your agreement to the terms set forth in this Agreement. If you do not agree with the terms set forth in this Agreement, immediately cease using the Service. If you would like to contact Service Provider, you may write to:</p><p>This Terms of Service Agreement (the \u201CAgreement\u201D) is between you and Viasat, Inc. (\u201CViasat,\u201D \u201CService Provider,\u201D \u201Cus,\u201D or \u201Cwe\u201D), and governs your use of WiFi and internet services provided by Viasat (the \u201DService\u201D) to which you are connecting on the airline operator's aircraft from which you are connecting to such Service (the \u201CAirline\u201D) (collectively the \"Service\"). Your acceptance below and continued use of the Service represents your agreement to the terms set forth in this Agreement. If you do not agree with the terms set forth in this Agreement, immediately cease using the Service. If you would like to contact Service Provider, you may write to:</p><p>This Terms of Service Agreement (the \u201CAgreement\u201D) is between you and Viasat, Inc. (\u201CViasat,\u201D \u201CService Provider,\u201D \u201Cus,\u201D or \u201Cwe\u201D), and governs your use of WiFi and internet services provided by Viasat (the \u201DService\u201D) to which you are connecting on the airline operator's aircraft from which you are connecting to such Service (the \u201CAirline\u201D) (collectively the \"Service\"). Your acceptance below and continued use of the Service represents your agreement to the terms set forth in this Agreement. If you do not agree with the terms set forth in this Agreement, immediately cease using the Service. If you would like to contact Service Provider, you may write to:</p><p>Viasat, Inc.<br/>2908 Finfeather Road<br/>Bryan, TX 77801<br/>USA</p>"
    },
    {
      "title": "Using The Service.",
      "isOpen": true,
      "content":
        "<p>In exchange for access to and use of the Service, you: (a) agree to provide Service Provider with accurate and complete registration information, if requested, and to notify Service Provider of changes to your registration information; (b) agree to protect the password, username and security information you use to access the Service and to notify Service Provider immediately of any unauthorized use of your account that you become aware of; (c) agree to comply with applicable laws and regulations, including but not limited to copyright and intellectual property rights laws; and (d) represent that you are at least 18 years of age.</p>"
    },
    {
      "title": "Billing Terms and Payment.",
      "isOpen": false,
      "content":
        "<p>General Billing Terms.  A billing period generally starts on the day and time you log in following the completion of the registration process (the \u201CBilling Commencement Date\u201D). The Billing Commencement Date will be the day and time you log in. You will be logged off of the Service when (i) you click the \u201CLogout\u201D button (\u201CIndividual Logout\u201D); or (ii) the system automatically logs you off because your session time has expired, your device has been powered off or has been inactive for an extended period of time, or Internet service is no longer permitted on the flight due to the aircraft approaching or having reached its destination (\u201CAutomatic Logout\u201D).  The billing period ends on upon the earliest to occur of an Individual Logout or Automatic Logout.</p><p>Single Session Pay Per Use Plan.  At the start of each session, we will charge all fees related to your use of the Service, including taxes, surcharges or other assessments applicable to the Service (\u201CService Fees\u201D) to your credit card, debit card or other payment method (a \u201CCard Payment\u201D).</p><p>Pay Per Flight Plan.  Each pay per flight session begins on the Billing Commencement Date and ends at the point in time when Internet service is no longer permitted on the flight due to the aircraft approaching or having reached its destination. At the start of each session, we will charge all Service Fees related to your use of the Service to your Card Payment.</p><p>Roaming Fees.  If you are a subscriber of another service provider that has a contractual relationship allowing that service provider\u2019s subscribers to roam on Viasat\u2019s Wi-Fi network, your service provider may charge you a roaming fee for access to Viasat\u2019s Wi-Fi network.</p><p>Payment Terms.  You agree to pay all Service Fees in accordance with the provisions of the Service plan you selected. You authorize Service Provider to charge your Card Payment for payment of all, or any portion of your Service fees, until such amounts are paid in full. Your card issuer agreement governs use of your Card Payment in connection with this Service; please refer to that agreement for your rights and liabilities as a cardholder. If we do not receive payment from your credit or debit card issuer or its agent, you agree to pay us all amounts due upon demand by us. You agree that we will not be responsible for any expenses that you may incur resulting from overdrawing your bank account or exceeding your credit limit as a result of an automatic charge made under this Agreement. </p><p>Billing Errors and Collections.  If you think a charge is incorrect or you need more information on any charges applied to your account, you should contact us through inflight.Viasat.com or by calling +(00) 1 888-649-6711 within 60 days of receiving the statement on which the error or problem appeared. We will not pay you interest on any overcharged amounts later refunded or credited to you.  If we choose to use a collection agency or attorney to collect money that you owe us or to assert any other right that we may have against you, you agree to pay the reasonable costs of collection or other action including, without limitation, collection agency fees, reasonable attorneys\u2019 fees, and court costs. </p>"
    }
  ]
}
