{
  "header": {
    "motifText": "FAQs",
    "motifHighlightText": "",
    "noticeHeader": "",
    "headerText": "",
    "noticeText": ""
  },
  "effectiveDate": {
    "effectiveDateText": ""
  },
  "sections": [
    {
      "title": "¿Quién proporciona el servicio de Wi-Fi durante el vuelo?",
      "isOpen": false,
      "content":
        "<p>Viasat es el proveedor de servicios de Internet (ISP) en este vuelo. Viasat es responsable de la atención al cliente y la facturación.</p>"
    },
    {
      "title": "¿Qué es el servicio Wi-Fi de Viasat?",
      "isOpen": false,
      "content":
        "<p>El servicio de Wi-Fi en este vuelo es provisto por Viasat. Este servicio de Wi-Fi de alta velocidad le permite conectarse de manera inalámbrica al Internet a más de 10,000 pies a través de su dispositivo electrónico personal (por ejemplo, computadora portátil, tableta, teléfono inteligente). El servicio Wi-Fi está disponible puerta a puerta en aeronaves seleccionadas.</p>"
    },
    {
      "title": "¿El servicio Wi-Fi de Viasat está disponible en todas partes?",
      "isOpen": false,
      "content":
        "<p>El servicio Wi-Fi de Viasat es accesible en casi todas partes donde vuela este avión. Favor de considerar que existen ciertas rutas en América Central y América del Sur con cobertura limitada. </p>"
    },
    {
      "title": "¿Cómo me conecto al servicio Wi-Fi de Viasat?",
      "isOpen": false,
      "content":
        "<p>Use su dispositivo para Wi-Fi para buscar y conectarse a la señal de Wi-Fi en vuelo de Aeroméxico. Si el portal no aparece cuando inicia su navegador, ingrese una dirección web pública (por ejemplo, https://aeromexicowifi.com) para redirigir su navegador web.</p>"
    },
    {
      "title": "¿Qué tipo de dispositivos puedo usar para conectarme al servicio Wi-Fi de Viasat?",
      "isOpen": false,
      "content":
        "<p>Para conectarse al servicio de Wi-Fi, puede usar cualquier dispositivo con Wi-Fi incluido, con su computadora portátil, tableta o teléfono inteligente. Asegúrese de que la red celular de su dispositivo esté en modo avion.</p>"
    },
    {
      "title": "¿Qué dispositivos son compatibles con el servicio Wi-Fi en vuelo Viasat?",
      "isOpen": false,
      "content":
        "<p><ul> <li>Navegadores: Internet Explorer (IE) 10 y superior; Microsoft Edge (todas las versiones); Cromo 48 y por encima; Firefox 38 y superior; Safari 8 y superior <li> Navegadores móviles: Safari 8 y superior; Navegador de Android 4.4 y superior; Cromo 47; Microsoft Edge (todas las versiones) <li> Sistemas operativos(SO): Windows 7 y superior; MacOS 10.11 y superior <li> SO móvil: Android 4.4 y superior; iOS 8 y superior; Windows 10 Mobile y superior </ul> </p>"
    },
    {
      "title": "¿Requiero hacer algún pago para  tener  acceso  a \"Mensajes de texto gratis\"?",
      "isOpen": false,
      "content":
        "<p>No, La mensajería es proporcionada de forma gratuita por Aeromexico  en este vuelo  para las siguientes aplicaciones: iMessage, Facebook messenger, WhatsApp  e Instagram chat. Sin embargo no será posible  adjuntar  fotos, vídeos o algún archivo similar.</p>"
    },
    {
      "title": "Estoy teniendo problemas  con el acceso a \"Mensajes de texto gratis\", ¿Qué debo hacer?",
      "isOpen": false,
      "content":
        "<p>Por favor confirme que ha seleccionado la opción \"Mensajes de texto gratis\" en el portal. También asegúrese de que está utilizando una de las aplicaciones gratuitas de mensajería: iMessage, Facebook messenger, WhatsApp  e Instagram chat. Si el problema persiste, póngase en contacto con un agente  de atención al cliente de Viasat  desde la página principal.</p>"
    },
    {
      "title":
        "¿Puedo usar Netflix u otro sitio web de transmisión de video cuando estoy conectado al servicio Viasat Wi-Fi?",
      "isOpen": false,
      "content":
        "<p>Sí. El servicio de Wi-Fi en vuelo Viasat es compatible con la transmisión de su video favorito y contenido de audio.Una vez conectado, simplemente acceda a la página o app.</p>"
    },
    {
      "title": "¿Qué tan rápida es la conexión a Internet utilizando el servicio Wi-Fi de Viasat?",
      "isOpen": false,
      "content":
        "<p>Viasat utiliza la tecnología de sistema satelital de mayor capacidad para brindar una experiencia de Internet comparable a la de su hogar.</p>"
    },
    {
      "title": "¿Puedo usar las llamadas de Wi-Fi mientras uso el servicio de Wi-Fi de Viasat?",
      "isOpen": false,
      "content":
        "<p>No se permiten llamadas de voz, incluyendo llamadas de Wi-Fi, voz sobre IP (VoIP), etc., durante este vuelo.</p>"
    },
    {
      "title":
        "¿Puedo conectarme a mi lugar de trabajo o red corporativa a través de una red privada virtual (VPN) utilizando el servicio de Wi-Fi Viasat?",
      "isOpen": false,
      "content":
        "<p>El servicio Wi-Fi de Viasat es compatible con todas las aplicaciones principales de VPN; sin embargo, una conexión exitosa también depende de la configuración VPN de su compañía. El servicio Wi-Fi de Viasat permite conexiones de Internet que siguen el estándar TCP / IP. Si tiene problemas con su conexión VPN, póngase en contacto con el servicio de asistencia de su empresa para obtener asistencia.</p>"
    },
    {
      "title": "¿Se pueden ver o interceptar mis datos en la aeronave mientras utilizo el servicio Wi-Fi de Viasat?",
      "isOpen": false,
      "content":
        "<p>El proceso de autenticación entre su dispositivo habilitado para Wi-Fi y las páginas de compra de Viasat está protegido por el cifrado de Secure Socket Layer (SSL). Dentro de esas páginas, todos los datos están encriptados. Una vez que accede a las páginas de compra de Viasat, el transmisor envía una clave pública que es probada y aceptada por el navegador de su dispositivo. El cifrado SSL garantiza que los datos transmitidos en las páginas de compra de Viasat no puedan ser leídos o manipulados por otros. Sin embargo, fuera de esas páginas de compra, el servicio de Wi-Fi provisto por Viasat opera en una oferta de red pública y ningún Wi-Fi público es completamente seguro; por lo tanto, le recomendamos que siga buenas prácticas de seguridad cuando navegue por páginas fuera de las páginas de compra de Viasat para disminuir los riesgos potenciales.</p>"
    },
    {
      "title": "¿Alguien puede ver los datos de mi disco duro mientras usa el servicio Wi-Fi de Viasat?",
      "isOpen": false,
      "content":
        "<p>Al igual que con su Internet en casa, los pasajeros deben cumplir con la necesidad siempre cambiante de medidas de seguridad adicionales (por ejemplo, el uso de software de seguridad). Viasat utiliza los estándares inalámbricos 802.11 para el acceso a Internet en este vuelo. Las computadoras portátiles que tienen firewall y protección contra malware pueden proteger a los usuarios contra amenazas en línea. Sin embargo, el servicio de Wi-Fi provisto por Viasat opera en una oferta de red pública y ningún Wi-Fi público es completamente seguro; por lo tanto, le recomendamos que siga buenas prácticas de seguridad mientras está en Internet para reducir los riesgos potenciales.</p>"
    },
    {
      "title": "¿Es seguro utilizar el servicio Wi-Fi de Viasat?",
      "isOpen": false,
      "content":
        "<p>Proteger su seguridad es de suma importancia para nosotros. Antes de instalar Wi-Fi en el avión, el sistema está rigurosamente probado y certificado por la Administración Federal de Aviación (FAA). Para su seguridad, recuerde desactivar la red celular de su dispositivo a bordo del avión. Debe tomar precauciones al acceder, compartir o enviar archivos privados en una red pública, o abrir enlaces web o páginas web de fuentes desconocidas.</p>"
    },
    {
      "title": "¿Qué sucede si el portal de Wi-Fi no aparece cuando inicio mi navegador?",
      "isOpen": false,
      "content":
        "<p>Si el portal no aparece cuando inicia su navegador, ingrese una dirección web pública (por ejemplo, https://aeromexicowifi.com) para redirigir su navegador web. Si el dispositivo que está utilizando es propiedad de la empresa con una configuración especial de VPN o firewall, es posible que deba ajustar sus configuraciónes  y volver a intentarlo.</p>"
    },
    {
      "title":
        "Si tengo una pregunta sobre el servicio Wi-Fi en vuelo Viasat, ¿cómo puedo comunicarme con Atención al Cliente?",
      "content":
        "<p>Aunque las llamadas de voz no son compatibles durante el vuelo, puede comunicarse con Atención al Cliente de Viasat a través de chat en vivo o correo electrónico. Haga click en Contáctenos en el portal o vaya a <a href='https://inflight.Viasat.com'>https://inflight.Viasat.com.</a> Despues de aterrizar, no dude en comunicarse con Atención al cliente de Viasat al 1-800-681-8216. Contactanos a nuestro Centro de Atencion 1-800-681-8216</p>"
    },
    {
      "title":
        "Si ya tengo un vale de Wi-Fi o código promocional del servicio de Wi-Fi de Gogo o Panasonic que se ofrece en otros vuelos de Aeroméxico, ¿lo puedo usar para acceder al servicio de Internet en este vuelo?",
      "isOpen": false,
      "content": "<p>No, en este vuelo pueden usarse exclusivamente vales de Wi-Fi de Viasat</p>"
    },
    {
      "title": "¿Cómo hago válida una sesión de cortesía de Wi-Fi usando un código de vale?",
      "isOpen": false,
      "content":
        "<p>Para hacer válida una sesión de cortesía de Wi-Fi, seleccione \"Tengo un vale\" en la página principal o página \"Seleccione plan\" e introduzca su código de vale de Viasat.</p>"
    },
    {
      "title": "Tengo problemas al usar un código de vale. ¿Qué hago?",
      "isOpen": false,
      "content":
        "<p>Si tiene usted problemas para recibir el servicio con un vale, contestemos algunas preguntas para así poder ayudarle. ¿Ya se usó antes el código de vale? De ser así, el código ya no se puede volver a usar. Nuestros códigos de vale son de uso único. ¿El código de vale está vencido? Los códigos de vale tienen fecha de vencimiento. Favor de confirmar que no haya pasado la fecha de vencimiento. Si aún tiene dificultades para usar el código de vale contacte a un agente de Atención al Cliente de Viasat seleccionando \"Obtener Ayuda\" en la página principal del portal.</p>"
    },
    {
      "title": "¿Qué tipos de tarjetas de crédito acepta Viasat como proveedor de servicio de Internet en este vuelo?",
      "isOpen": false,
      "content": "<p>Viasat acepta MasterCard, VISA, Amex, Discover, JCB y Diners Club.</p>"
    },
    {
      "title": "¿Cómo veo o imprimo una copia de mi recibo?",
      "isOpen": false,
      "content":
        "<p>Se envía un recibo a la dirección de correo electrónico proporcionada al hacer la compra. Además, después de la compra, se le proporciona a usted una confirmación de compra que contiene los detalles de la compra. Usted podrá regresar a esta confirmación de compra durante el vuelo seleccionando \"Ver Recibo\" en la página principal del portal.</p>"
    },
    {
      "title": "¿Y si pierdo la conexión después de comprar una sesión de Wi-Fi y me piden volver a pagar?",
      "isOpen": false,
      "content":
        "<p>Si usted pierde la conexión y todavía le queda tiempo de conectividad, verifique que esté conectado a la señal de Wi-Fi de Aeroméxico y abra su navegador para acceder al portal. Su sesión deberá reanudarse sin problemas. En caso de que el sistema le exigiera volver a comprar una nueva sesión, seleccione \"Necesito Ayuda\" para chatear con un agente.</p>"
    },
    {
      "title": " Pagué pero estoy teniendo problemas de acceso a sitios web o de baja velocidad. ¿Cómo obtengo ayuda?",
      "isOpen": false,
      "content":
        "<p>¿Ve el mensaje \"Está Conectado\" que se indica en la parte inferior del portal a bordo, pero tiene problemas para acceder a sitios web específicos o con la velocidad del servicio? El mensaje “Está Conectado” indica que ha adquirido el servicio con éxito mediante el pago con una tarjeta de crédito o un vale. Vamos a ir revisando algunos detalles paso a paso para que pueda seguir navegando. Desconéctese de la red inalámbrica, vuelva a conectarse a la red inalámbrica de la aeronave, abra un nuevo navegador e intente navegar al sitio web de su elección.   ¿Sigue teniendo problemas? Intente vaciar el caché y el historial de su navegador, y luego vuelva a intentarlo. ¿Sigue teniendo problemas? Si tiene un segundo dispositivo, conéctelo a la red inalámbrica del avión. La página del portal de a bordo debería aparecer automáticamente. Seleccione “Cambio de dispositivo” e introduzca la dirección de correo electrónico que utilizó para comprar la sesión en su primer dispositivo y siga las instrucciones. ¿Puede navegar en Internet en el nuevo dispositivo? Este proceso se puede repetir para volver a su dispositivo original. Si sigue teniendo problemas y desea obtener asistencia en tiempo real, utilice el enlace \"Necesito Ayuda\" en el portal de a bordo.</p>"
    },
    {
      "title": "¿Puedo usar el servicio de Wi-Fi en más de un dispositivo?",
      "isOpen": false,
      "content":
        "<p>Sí, puede usar su servicio de Wi-Fi en más de un dispositivo, pero no al mismo tiempo. Seleccione la opción \"Cambio de dispositivo\" en el menú del portal y siga las instrucciones.</p>"
    },
    {
      "title":
        "¿Puedo usar la misma dirección de correo electrónico para comprar más de una sesión simultánea en el mismo vuelo?",
      "isOpen": false,
      "content":
        "<p>Necesitará usar una dirección de correo electrónico diferente para comprar una segunda sesión en el mismo vuelo para garantizar que reciba su recibo después de la compra.</p>"
    },
    {
      "title": "¿Puedo acceder a CUALQUIER sitio web mientras estoy en el vuelo?",
      "isOpen": false,
      "content":
        "<p>Se puede acceder a la mayoría de los sitios web mediante el Servicio de Internet en Vuelo de Viasat; sin embargo, los sitios web de contenido inapropiado están bloqueados a propósito. Animamos a todos a ejercer el buen juicio al decidir qué es y qué no apropiado mirar en vuelo.</p>"
    }
  ]
}
