{
  "transactions": [
    {
      "retailCost": 10.0,
      "id": 11,
      "flightNumber": "AA143",
      "timeOfPurchase": 1539630298,
      "flightDate": 1539561863,
      "externalId": "IbpzzydrthBAF6KSBR",
      "promoDiscount": 0.0,
      "cardSaved": null,
      "serviceName": "Aa PED MH Premium Plan (1-hour)",
      "totalCost": 10.0,
      "serviceDescription": "1-Hour Pass",
      "paymentMethod": "American Express"
    }
  ]
}
