<?xml version="1.0" encoding="UTF-8"?>
<svg width="11px" height="16px" viewBox="0 0 11 16" version="1.1" xmlns="http://www.w3.org/2000/svg" xmlns:xlink="http://www.w3.org/1999/xlink">
    <!-- Generator: sketchtool 52.6 (67491) - http://www.bohemiancoding.com/sketch -->
    <title>99FB6779-3CE9-42B2-9004-553AAC9FAC89</title>
    <desc>Created with sketchtool.</desc>
    <g id="SSOCP-Baseline" stroke="none" stroke-width="1" fill="none" fill-rule="evenodd">
        <g id="SP_VPS" transform="translate(-811.000000, -609.000000)" fill="#FFFFFF" fill-rule="nonzero">
            <g id="Group-10" transform="translate(679.000000, 608.000000)">
                <g id="lock-icon" transform="translate(132.000000, 1.000000)">
                    <path d="M9.469,6.26 L9.469,4.175 C9.469,1.869 7.652,0 5.41,0 C3.169,0 1.353,1.869 1.353,4.174 L1.353,6.26 C0.606,6.26 0,6.884 0,7.65 L0,14.608 C0,15.377 0.606,16 1.353,16 L9.469,16 C10.216,16 10.821,15.377 10.821,14.609 L10.821,7.652 C10.821,6.884 10.216,6.261 9.469,6.261 L9.469,6.26 Z M2.705,4.175 C2.705,2.638 3.917,1.392 5.411,1.392 C6.905,1.392 8.116,2.638 8.116,4.175 L8.116,6.26 L2.706,6.26 L2.706,4.174 L2.705,4.175 Z M9.47,14.609 L1.353,14.609 L1.353,7.652 L9.469,7.652 L9.469,14.609 L9.47,14.609 Z M4.735,11.633 L4.735,12.522 C4.735,12.906 5.038,13.217 5.412,13.217 C5.79025303,13.210969 6.09245333,12.9002749 6.088,12.522 L6.088,11.633 C6.49,11.392 6.764,10.948 6.764,10.435 C6.764,9.666 6.159,9.043 5.412,9.043 C4.665,9.043 4.059,9.666 4.059,10.435 C4.059,10.948 4.333,11.392 4.735,11.633 Z" id="Shape"></path>
                </g>
            </g>
        </g>
    </g>
</svg>