<?xml version="1.0" encoding="UTF-8"?>
<svg width="161px" height="42px" viewBox="0 0 161 42" version="1.1" xmlns="http://www.w3.org/2000/svg" xmlns:xlink="http://www.w3.org/1999/xlink">
    <!-- Generator: sketchtool 52 (66869) - http://www.bohemiancoding.com/sketch -->
    <title>EAC5C594-F9A1-4E38-8324-95BDAAC23EDD</title>
    <desc>Created with sketchtool.</desc>
    <defs>
        <linearGradient x1="50.0012954%" y1="-2.63116507%" x2="50.0012954%" y2="151.366862%" id="linearGradient-1">
            <stop stop-color="#EC2027" offset="0%"></stop>
            <stop stop-color="#E71F26" offset="12.7%"></stop>
            <stop stop-color="#DA1E24" offset="27.2%"></stop>
            <stop stop-color="#C31B20" offset="42.5%"></stop>
            <stop stop-color="#A3171B" offset="58.4%"></stop>
            <stop stop-color="#7A1214" offset="74.7%"></stop>
            <stop stop-color="#781214" offset="75.5%"></stop>
        </linearGradient>
        <linearGradient x1="0.00475760027%" y1="50.0025753%" x2="100%" y2="50.0025753%" id="linearGradient-2">
            <stop stop-color="#69231D" offset="0%"></stop>
            <stop stop-color="#8D2921" offset="26.5%"></stop>
            <stop stop-color="#B23025" offset="58.1%"></stop>
            <stop stop-color="#C93428" offset="83.8%"></stop>
            <stop stop-color="#D13529" offset="100%"></stop>
        </linearGradient>
        <linearGradient x1="19.4621986%" y1="53.9437635%" x2="79.1041736%" y2="3.21196828%" id="linearGradient-3">
            <stop stop-color="#F0F2F4" offset="10%"></stop>
            <stop stop-color="#DEE3E6" offset="32.9%"></stop>
            <stop stop-color="#AEBBC2" offset="78.9%"></stop>
            <stop stop-color="#96A7B0" offset="100%"></stop>
        </linearGradient>
        <linearGradient x1="50%" y1="113.02136%" x2="50%" y2="1.19168072%" id="linearGradient-4">
            <stop stop-color="#283271" offset="0%"></stop>
            <stop stop-color="#224583" offset="10.8%"></stop>
            <stop stop-color="#1571AD" offset="39.1%"></stop>
            <stop stop-color="#0C91CB" offset="64.4%"></stop>
            <stop stop-color="#06A5DD" offset="85.5%"></stop>
            <stop stop-color="#04ACE4" offset="100%"></stop>
        </linearGradient>
    </defs>
    <g id="SSOCP" stroke="none" stroke-width="1" fill="none" fill-rule="evenodd">
        <g id="AASSOCP_LandingPage_Laptop" transform="translate(-191.000000, -21.000000)" fill-rule="nonzero">
            <g id="Group-5" transform="translate(191.000000, 21.000000)">
                <g id="American_Logo_001">
                    <path d="M158.478115,39.8509317 L158.478115,40.1072653 L158.036433,40.1072653 L158.036433,41.8414912 L157.819519,41.8414912 L157.819519,40.1072653 L157.377463,40.1072653 L157.377463,39.8509317 L158.478115,39.8509317 Z M159.183834,39.8509317 L159.517433,41.4405974 L159.523417,41.4405974 L159.863,39.8509317 L160.146858,39.8509317 L160.365642,41.8434783 L160.141248,41.8434783 L159.984172,40.2170516 L159.979685,40.2170516 L159.62963,41.8434783 L159.386537,41.8434783 L159.049946,40.2249999 L159.043962,40.2249999 L158.88913,41.8434783 L158.672964,41.8434783 L158.891748,39.8509317 L159.183834,39.8509317 Z" id="Shape" fill="#FFFFFF"></path>
                    <g id="Group" transform="translate(111.558708, 0.000000)">
                        <path d="M23.6435169,37.856594 C25.1662943,40.3805207 27.9824736,41.8619386 30.9544666,41.7024328 L43.3845578,41.7024328 L28.7193082,24.131463 C21.9547623,24.4079121 18.373364,28.691932 19.1079365,30.4860299 L23.6435169,37.856594 Z" id="Shape" fill="url(#linearGradient-1)"></path>
                        <path d="M19.1079365,30.4860299 C18.8476214,29.8543767 18.7113407,29.1796437 18.7063512,28.4977595 C18.7063512,24.4864274 22.30871,22.187857 26.4041185,21.3580397 L28.7193082,24.1319332 C21.9547623,24.4074419 18.373364,28.6895812 19.1079365,30.4860299 Z" id="Shape" fill="url(#linearGradient-2)"></path>
                        <path d="M24.7649071,17.4426185 C18.5824933,17.4426185 13.9654526,18.4478022 13.9654526,20.8357014 C13.9654526,21.7134742 14.2441328,22.4765299 14.9996659,23.8188123 L19.1084129,30.4846194 C18.8480978,29.8529662 18.7118171,29.1782332 18.7068276,28.496349 C18.7068276,24.4850169 22.3091864,22.1864465 26.4045949,21.3566292 C27.5896093,21.1179364 28.7960826,20.9983772 30.0055247,20.9997843 C30.9060033,20.9585246 31.8072347,21.0635121 32.6732329,21.3105544 C32.2478287,19.7764502 31.1173873,17.4426185 24.7649071,17.4426185 Z" id="Shape" fill="url(#linearGradient-3)"></path>
                        <path d="M8.49950896,13.2860096 C10.1996966,16.0363955 10.8294663,16.7228166 14.8762844,16.7279883 L22.6083508,16.7279883 L11.9494273,3.44150855 C9.59565121,0.57076385 8.24131291,0.0446643869 6.08094563,0 L0.304404564,0 L8.49950896,13.2860096 Z" id="Shape" fill="url(#linearGradient-4)"></path>
                    </g>
                    <path d="M101.689171,32.8770186 L101.689171,24.0535604 C101.689171,22.3692117 100.973167,21.3421792 99.6264322,21.3421792 C97.8475763,21.3421792 96.6616723,23.3704142 96.6616723,26.1118661 L96.6616723,32.8770186 L93.7706716,32.8770186 L93.7706716,22.841477 C93.7706716,21.7361834 93.6746047,20.1262406 93.6296296,19.2152504 L95.9521448,19.2152504 C96.2183975,19.2152504 96.2943155,19.3309072 96.2943155,19.5857377 C96.3011517,19.8744942 96.3234594,21.2905191 96.3234594,21.2905191 L96.3860648,21.2905191 C96.7397491,20.6482383 97.6277379,18.9291925 100.294942,18.9291925 C103.051378,18.9291925 104.586288,20.9454763 104.586288,23.2050249 L104.586288,32.8770186 L101.689171,32.8770186 Z M77.3909935,29.6766911 C77.4697732,29.6766911 77.581409,29.7296829 77.6067977,29.965118 C77.6646691,30.6029124 77.6904312,31.6479869 77.6926714,31.9776717 C76.610695,32.5434202 75.4155032,32.8510322 74.1983598,32.8770186 C70.1895529,32.8770186 67.7320725,30.5196396 67.7320725,25.9048089 C67.7320725,21.5833258 69.9169973,18.9291925 74.1983598,18.9291925 C75.415768,18.9562342 76.6109742,19.2650151 77.6926714,19.8319461 C77.6926714,20.3088725 77.6463743,21.3891486 77.6067977,21.8456353 C77.5903697,22.0348918 77.4977755,22.1268705 77.3909935,22.1268705 C77.3093726,22.1282468 77.2289771,22.1066259 77.1587612,22.0644158 C76.3261493,21.6224258 75.4051541,21.3785487 74.4656883,21.3512973 C71.91188,21.3512973 70.8645946,23.0447646 70.8645946,25.9048089 C70.8645946,28.4563651 71.7027963,30.4560494 74.4656883,30.4560494 C75.3738928,30.4289402 76.2650112,30.1990169 77.0755011,29.7826747 C77.2379143,29.7073506 77.2659166,29.6766911 77.3909935,29.6766911 Z M88.1965607,32.6234837 C88.0774861,32.6422127 87.9566722,32.6038416 87.8678045,32.5190693 C87.7789367,32.4342969 87.7315213,32.3121913 87.7387788,32.1867982 C87.711573,31.7493559 87.6531714,30.9002031 87.6531714,30.9002031 L87.6161716,30.9002031 C87.4402411,31.147305 86.3799427,32.8770186 83.7090644,32.8770186 C81.1488228,32.8770186 79.6847912,30.8214938 79.6847912,28.563141 C79.6847912,25.4344444 82.5968937,23.8613927 86.9168026,23.8613927 L87.4942898,23.8613927 L87.4942898,23.3694593 C87.4942898,21.9659354 86.537736,21.2125204 84.7468727,21.2125204 C83.5429639,21.2260477 82.3573476,21.5215457 81.2775966,22.077188 C81.2125897,22.1191089 81.1392663,22.1449939 81.0632154,22.1528701 C80.9257357,22.1528701 80.8455695,22.0631868 80.8401283,21.9034977 C80.8154618,21.3998335 80.7675797,20.4303463 80.7566974,19.8161863 C82.095724,19.2673131 83.5164956,18.9671208 84.9547246,18.9291925 C88.7715087,18.9291925 90.4114708,20.7799974 90.4114708,23.7350036 L90.4114708,28.9650127 C90.4083336,30.1884127 90.4851716,31.410612 90.64145,32.6231053 L88.1965607,32.6234837 Z M87.6529005,25.9031056 L87.1499404,25.9031056 C83.4128729,25.9031056 82.6750748,27.2734099 82.6750748,28.6659481 C82.6491842,29.2629174 82.8631949,29.8437204 83.2644962,30.2655769 C83.6657974,30.6874334 84.2171702,30.9112179 84.7830693,30.8819171 C86.6388442,30.8819171 87.6532703,28.9924339 87.6532703,27.0030937 L87.6529005,25.9031056 Z M49.6286736,29.6758782 C49.7949969,29.6758782 49.8473792,29.8242755 49.8607616,29.9760798 C49.9142909,30.5480906 49.9639967,31.8439164 49.9559673,32.1717532 C48.6042508,32.6340369 47.1847557,32.8723259 45.754679,32.8770186 C41.4402144,32.8770186 38.8463357,30.6665812 38.8463357,25.911434 C38.8463357,21.833917 41.0563326,18.9291925 45.0377683,18.9291925 C48.9377628,18.9291925 50.7990544,21.5128945 50.7990544,24.7238775 C50.7990544,25.1024419 50.7562309,25.7395658 50.6874075,26.5837643 L42.0038019,26.5837643 C42.0038019,28.8767288 43.4777704,30.5208339 46.1982078,30.5208339 C47.3004223,30.5063157 48.3851519,30.2459719 49.3717328,29.7591624 C49.44886,29.7081262 49.5386684,29.6790541 49.6313501,29.6751211 L49.6286736,29.6758782 Z M41.8345154,23.910559 L47.8025586,23.910559 C47.9228094,21.9980901 46.7283189,20.9217391 44.9085246,20.9217391 C43.0109683,20.9217391 41.9243026,22.0735823 41.8345154,23.910559 Z M33.8746488,32.8770186 L33.8746488,24.1368929 C33.8746488,22.5629533 33.2356413,21.3417334 31.6903241,21.3417334 C29.9502687,21.3417334 28.9506625,23.3219754 28.9506625,26.0967041 L28.9506625,32.8770186 L25.9755381,32.8770186 L25.9755381,24.1106799 C25.9755381,22.6782136 25.4024305,21.3417334 23.8049116,21.3417334 C22.0426428,21.3417334 21.0559945,23.316964 21.0559945,26.1934611 L21.0559945,32.8770186 L18.074206,32.8770186 L18.074206,22.9276231 C18.074206,21.6439545 17.9631387,19.8256167 17.929078,19.2169342 L20.3125836,19.2169342 C20.5809964,19.2169342 20.6702205,19.3090653 20.6754036,19.5966379 C20.6816974,19.9597658 20.7035407,21.2927767 20.7035407,21.2927767 L20.7701811,21.2927767 C20.9519614,20.9030502 21.9312053,18.9316745 24.6664241,18.9316745 C26.2949214,18.8728848 27.7904515,19.8630095 28.4301268,21.4234564 C29.1727797,19.8757862 30.7008456,18.9074605 32.3622816,18.9316745 C35.0319707,18.9316745 36.8542159,20.4250475 36.8542159,23.4214308 L36.8542159,32.8770186 L33.8746488,32.8770186 Z M55.9299118,26.2127574 L55.9299118,32.8770186 L52.9378788,32.8770186 L52.9378788,22.7240655 C52.9378788,21.7457511 52.830543,19.8886117 52.7911742,19.2122366 L55.2053021,19.2122366 C55.4652851,19.2122366 55.5436514,19.3279222 55.5447656,19.592071 C55.5518223,19.9973562 55.5759635,21.288793 55.5759635,21.288793 L55.6431877,21.288793 C55.8797723,20.6987965 56.7262026,18.9291925 59.2086689,18.9291925 C59.7407702,18.9303621 60.2675634,19.0390719 60.7596533,19.249256 C60.7596533,19.8353963 60.6983716,21.1291469 60.669402,21.470805 C60.6497176,21.6925357 60.5538953,21.7646464 60.4465595,21.7646464 C60.3757219,21.76648 60.3054335,21.7513036 60.2411729,21.7203002 C59.8514962,21.5671539 59.4373357,21.4923011 59.0207384,21.4997264 C57.4277854,21.4985695 55.9299118,22.6951442 55.9299118,26.213143 L55.9299118,26.2127574 Z M62.751773,32.8770186 L62.751773,18.9291925 L65.7399527,18.9291925 L65.7399527,32.8770186 L62.751773,32.8770186 Z M62.751773,16.936646 L62.751773,13.9478261 L65.7399527,13.9478261 L65.7399527,16.936646 L62.751773,16.936646 Z M13.538787,32.8770186 L12.1303718,28.8490114 L4.61462881,28.8490114 L3.20773909,32.8770186 L0,32.8770186 L6.7324002,14.9440994 L10.3051145,14.9440994 L16.9330181,32.8770186 L13.538787,32.8770186 Z M7.9975516,17.9329193 L7.93901376,17.9329193 L4.98029945,25.9031056 L10.9566588,25.9031056 L7.9975516,17.9329193 Z" id="Shape" fill="#FFFFFF"></path>
                </g>
            </g>
        </g>
    </g>
</svg>