<?xml version="1.0" encoding="UTF-8"?>
<svg width="22px" height="21px" viewBox="0 0 22 21" version="1.1" xmlns="http://www.w3.org/2000/svg" xmlns:xlink="http://www.w3.org/1999/xlink">
    <!-- Generator: Sketch 52.1 (67048) - http://www.bohemiancoding.com/sketch -->
    <title>Chat</title>
    <desc>Created with Sketch.</desc>
    <g id="Paid" stroke="none" stroke-width="1" fill="none" fill-rule="evenodd" stroke-linecap="round" stroke-linejoin="round">
        <g id="Aeromexico_Menu_Tablet" transform="translate(-19.000000, -227.000000)" stroke="#FFFFFF">
            <g id="Chat" transform="translate(20.000000, 228.000000)">
                <path d="M5.61333333,14.3666667 C3.18666667,13.8 0.333333333,10.92 0.333333333,7.33333333 C0.333333333,3.52666667 3.52,0.333333333 6.90666667,0.333333333 L13.1066667,0.333333333 C16.4933333,0.333333333 19.5533333,3.56666667 19.5533333,7.33333333 C19.5533333,11.1 16.4933333,14.3466667 13.1066667,14.3466667 L11.1533333,14.3466667 L5.61333333,19.12 L5.61333333,14.3666667 Z" id="Path"></path>
                <path d="M6.26666667,4.97333333 L13.6,4.97333333" id="Path"></path>
                <path d="M6.26666667,7.64 L13.6,7.64" id="Path"></path>
                <path d="M6.26666667,10.3066667 L10.28,10.3066667" id="Path"></path>
            </g>
        </g>
    </g>
</svg>