<?xml version="1.0" encoding="UTF-8"?>
<svg width="44px" height="35px" viewBox="0 0 44 35" version="1.1" xmlns="http://www.w3.org/2000/svg" xmlns:xlink="http://www.w3.org/1999/xlink">
    <!-- Generator: Sketch 52.4 (67378) - http://www.bohemiancoding.com/sketch -->
    <title>Group</title>
    <desc>Created with Sketch.</desc>
    <g id="Symbols" stroke="none" stroke-width="1" fill="none" fill-rule="evenodd">
        <g id="Mobile-Alt-Header" transform="translate(-20.000000, -20.000000)" fill="#FEFEFE">
            <g id="Group" transform="translate(20.000000, 20.000000)">
                <g id="Group-4">
                    <g id="Page-1">
                        <g id="Group-55">
                            <path d="M29.8391159,10.6422823 C30.5143102,10.6494642 30.9786809,10.8541496 31.3512157,11.0309052 C32.1346168,11.3999772 33.0477861,11.8257068 34.1961355,12.3751254 C34.1961355,12.3811104 36.0468307,11.0636229 36.1458538,10.9961924 C36.7731337,10.5668719 37.3800499,10.8940492 37.577697,11.2639193 C38.2680642,12.5618559 39.5393939,15.2638623 40.2121925,17.7340515 C40.2932478,18.0309052 40.1974189,18.4945394 39.7322496,18.6309964 C39.4683209,18.7091997 39.0043494,18.7754332 38.5236078,18.8364797 C37.8520071,18.919471 37.8667807,19.4613087 37.8667807,19.7896831 C37.8667807,20.1942658 37.8715722,22.923803 37.8715722,23.8530666 C37.887943,24.429218 37.4499251,26.298917 35.2869875,26.294927 C35.1400499,26.294927 30.3286417,26.294927 30.3506025,26.294528 C28.4859323,26.303705 26.9842139,24.7288646 26.9758289,23.049886 C26.9722353,21.9442658 26.9722353,14.2687642 26.977426,13.4073301 C26.9842139,11.7447104 28.4791444,10.6243274 29.8391159,10.6422823" id="Fill-23"></path>
                            <path d="M22.0327358,26.294927 L5.98978396,26.294927 L5.98978396,28.0768468 L24.8161654,28.0768468 C24.8161654,28.0768468 25.4961512,26.5020064 25.4961512,24.7591883 C25.4961512,24.6670201 25.5013419,12.67158 25.5013419,12.67158 C25.5013419,11.7171797 25.8890496,10.1092225 27.8519444,9.68030096 C27.9046503,9.66873005 27.9589533,9.65835613 28.0136556,9.64718422 C33.5729283,8.33528272 39.2999016,9.52987916 42.5277376,10.922777 C43.1106966,11.2024738 43.2432599,10.7384405 43.2248927,10.5409371 C43.2951672,7.82416781 41.2268606,4.72835157 37.4240513,4.54122207 C34.3375629,4.47059964 32.625021,5.57901277 31.9937483,5.88863429 C31.9470317,5.91137711 31.8691708,5.90140219 31.7992955,5.82000684 C31.2299123,5.25821933 30.0136841,4.41952804 28.6469248,4.0253192 C28.4416913,3.98422253 28.4225255,3.68258094 28.6581048,3.65704514 C31.5824827,3.34343365 34.1395166,3.67420201 35.2068107,3.84736662 C35.4511743,3.88846329 35.6360442,3.74522344 35.5374203,3.51979024 C35.465948,3.34622663 35.4024613,3.26523028 35.2790816,2.9998974 C35.0183472,2.44249886 34.3303758,1.84759462 33.4543401,1.60540356 C31.1584399,0.967008664 27.2458267,0.415595075 23.7616485,0.393251254 C19.837456,0.369710442 15.7020406,1.15493616 14.6571066,1.38555632 C14.4067537,1.44141587 14.0549818,1.52879617 13.9922938,1.54236206 C13.7080014,1.6002166 13.6397234,1.87033744 13.7639016,2.00280438 C13.8389676,2.09138167 14.0549818,2.27212722 14.1583971,2.3994072 C14.2873668,2.55900593 14.3496556,2.79002508 14.1012991,3.02942316 L6.84705312,9.54304606 L11.8105897,9.54304606 L11.8668891,9.53825809 C12.1911102,9.53267214 12.4961654,9.8247378 12.4973633,10.1950068 C12.4993597,10.5277702 12.2302403,10.8445736 11.8932421,10.8445736 L11.8513169,10.8473666 L5.40203351,10.8473666 L3.42955579,12.6396603 L11.8720799,12.6396603 L11.9183971,12.6352713 C12.2502046,12.6396603 12.5077447,12.9819995 12.5033526,13.2924191 C12.4993597,13.5836867 12.2557947,13.9360009 11.9183971,13.9360009 L11.8660906,13.9375969 L1.98253975,13.9375969 L0.00527058824,15.7239056 L17.0588178,15.7239056 L17.1115237,15.7270976 C17.4485219,15.7270976 17.708857,16.0718308 17.7132492,16.3698814 C17.7176414,16.7229936 17.4696841,17.0378021 17.1254988,17.0370041 L17.0795807,17.0330141 L0.00287486631,17.0330141 L0.00287486631,18.8137369 L17.0408499,18.8137369 L17.0947537,18.8157319 C17.484857,18.8197218 17.711652,19.172435 17.708857,19.4980164 C17.7080585,19.7912791 17.4237661,20.1100775 17.0851708,20.1100775 L17.0384542,20.1108755 L0.00527058824,20.1108755 L7.98573975e-05,21.9079571 L22.2475522,21.9079571 L22.3026538,21.9051642 C22.6699979,21.9179321 22.9075736,22.2335385 22.8967929,22.5778728 C22.8880086,22.8799134 22.636857,23.2042978 22.3026538,23.2042978 L22.2559373,23.2023028 L5.99138111,23.2023028 L5.99138111,24.9914045 L22.0327358,24.9914045 L22.3701333,24.9902075 C22.6727929,24.9902075 22.9307323,25.3644665 22.9307323,25.6665071 C22.9307323,25.9689466 22.6664043,26.294927 22.3633455,26.294927 L22.0327358,26.294927 Z" id="Fill-25"></path>
                            <path d="M11.9793683,32.4528842 L11.976174,34.2751026 C11.976174,34.2751026 14.388666,34.2818855 15.7626125,34.2751026 C19.1521597,34.2547538 21.3729939,32.4528842 21.3729939,32.4528842 L11.9793683,32.4528842 Z" id="Fill-27"></path>
                            <path d="M11.9793683,29.3836411 L11.976174,31.1695508 L22.8671258,31.1695508 C23.3706267,30.6616279 24.0166731,29.7283744 24.1855715,29.3848381 L11.9793683,29.3836411 Z" id="Fill-29"></path>
                        </g>
                    </g>
                </g>
            </g>
        </g>
    </g>
</svg>