<?xml version="1.0" encoding="UTF-8"?>
<svg width="22px" height="22px" viewBox="0 0 22 22" version="1.1" xmlns="http://www.w3.org/2000/svg" xmlns:xlink="http://www.w3.org/1999/xlink">
    <!-- Generator: Sketch 52.1 (67048) - http://www.bohemiancoding.com/sketch -->
    <title>Question</title>
    <desc>Created with Sketch.</desc>
    <g id="Paid" stroke="none" stroke-width="1" fill="none" fill-rule="evenodd" stroke-linecap="round" stroke-linejoin="round">
        <g id="Aeromexico_Menu_Tablet" transform="translate(-19.000000, -292.000000)" stroke="#FFFFFF">
            <g id="Question" transform="translate(20.000000, 293.000000)">
                <path d="M9.96666667,0.333333333 C4.64632358,0.333333333 0.333333333,4.64632358 0.333333333,9.96666667 C0.333333333,15.2870098 4.64632358,19.6 9.96666667,19.6 C15.2870098,19.6 19.6,15.2870098 19.6,9.96666667 C19.596323,4.6478474 15.2854859,0.337010361 9.96666667,0.333333333 Z" id="Path"></path>
                <path d="M9.58666667,15.34 L9.58666667,15.04" id="Path"></path>
                <path d="M9.58666667,12.8733333 L9.58666667,11.0466667 C9.58592683,10.7600561 9.76845886,10.5050481 10.04,10.4133333 C11.6933333,9.82666667 13.0666667,8.93333333 13.0666667,7.41333333 C13.0666667,5.76 11.54,4.41333333 9.65333333,4.41333333 C8.46470814,4.38195829 7.34086883,4.95391223 6.66666667,5.93333333" id="Path"></path>
            </g>
        </g>
    </g>
</svg>