<?xml version="1.0" encoding="UTF-8"?>
<svg width="54px" height="44px" viewBox="0 0 54 44" version="1.1" xmlns="http://www.w3.org/2000/svg" xmlns:xlink="http://www.w3.org/1999/xlink">
    <!-- Generator: sketchtool 52.6 (67491) - http://www.bohemiancoding.com/sketch -->
    <title>F4B63B45-0D67-451C-8359-A68AFFB55AE0</title>
    <desc>Created with sketchtool.</desc>
    <g id="SSOCP-Baseline" stroke="none" stroke-width="1" fill="none" fill-rule="evenodd">
        <g id="login_cookies" transform="translate(-1083.000000, -34.000000)">
            <g id="btn-close" transform="translate(1083.000000, 35.000000)">
                <path d="M14,0 L40,21 M14,21 L40,0" id="Shape" stroke="#979797" stroke-width="2"></path>
                <path d="M9.82027158,31.6 C9.4296561,31.4308962 9.02471289,31.2970307 8.61027158,31.2 C8.32290892,31.1305841 8.03262746,31.0738624 7.74027158,31.03 C7.42915126,30.9830004 7.11492164,30.9596003 6.80027158,30.96 C6.23883351,30.9577545 5.68215347,31.0629806 5.16027158,31.27 C4.64027158,31.477 4.18727158,31.787 3.80027158,32.2 C3.41327158,32.613 3.10327158,33.133 2.87027158,33.76 C2.63727158,34.387 2.52027158,35.12 2.52027158,35.96 C2.52027158,36.48 2.59027158,37.03 2.73027158,37.61 C2.87027158,38.19 3.10327158,38.73 3.43027158,39.23 C3.75727158,39.73 4.19727158,40.143 4.75027158,40.47 C5.30327158,40.797 5.98727158,40.96 6.80027158,40.96 C7.16027158,40.96 7.50727158,40.93 7.84027158,40.87 C8.17327158,40.81 8.47727158,40.743 8.75027158,40.67 C9.02327158,40.597 9.25327158,40.523 9.44027158,40.45 L9.82027158,40.3 L10.1002716,42.32 C9.72236751,42.4452957 9.33857843,42.5520892 8.95027158,42.64 C8.66327158,42.707 8.35027158,42.767 8.01027158,42.82 C7.67027158,42.873 7.32727158,42.9 6.98027158,42.9 C5.72727158,42.9 4.66027158,42.723 3.78027158,42.37 C2.90027158,42.017 2.18027158,41.527 1.62027158,40.9 C1.05389121,40.2619323 0.63406357,39.5076078 0.390271582,38.69 C0.124648998,37.8045866 -0.00681033803,36.8843712 0.000271582119,35.96 C0.000271582119,35.067 0.117271582,34.203 0.350271582,33.37 C0.574528178,32.553855 0.973772535,31.7963145 1.52027158,31.15 C2.06727158,30.503 2.78327158,29.987 3.67027158,29.6 C4.55727158,29.213 5.66027158,29.02 6.98027158,29.02 C7.36727158,29.02 7.73027158,29.043 8.07027158,29.09 C8.41027158,29.137 8.71327158,29.19 8.98027158,29.25 C9.24727158,29.31 9.47727158,29.37 9.67027158,29.43 C9.86327158,29.49 10.0072716,29.54 10.1002716,29.58 L9.82027158,31.6 Z M14.6802716,40.86 L19.5802716,40.86 L19.5802716,42.7 L12.3002716,42.7 L12.3002716,29.22 L14.6802716,29.22 L14.6802716,40.86 Z M27.2602716,29.02 C28.2872716,29.02 29.2032716,29.19 30.0102716,29.53 C30.8172716,29.87 31.4932716,30.343 32.0402716,30.95 C32.5872716,31.557 33.0032716,32.287 33.2902716,33.14 C33.5772716,33.993 33.7202716,34.933 33.7202716,35.96 C33.7202716,36.987 33.5772716,37.927 33.2902716,38.78 C33.0032716,39.633 32.5872716,40.363 32.0402716,40.97 C31.477363,41.5881091 30.7839284,42.0731717 30.0102716,42.39 C29.2032716,42.73 28.2872716,42.9 27.2602716,42.9 C26.2872716,42.9 25.4002716,42.743 24.6002716,42.43 C23.8251135,42.1331833 23.1251001,41.6687842 22.5502716,41.07 C21.9832716,40.477 21.5472716,39.75 21.2402716,38.89 C20.9332716,38.03 20.7802716,37.053 20.7802716,35.96 C20.7802716,34.88 20.9332716,33.913 21.2402716,33.06 C21.5472716,32.207 21.9802716,31.48 22.5402716,30.88 C23.1002716,30.28 23.7802716,29.82 24.5802716,29.5 C25.3802716,29.18 26.2732716,29.02 27.2602716,29.02 Z M23.3002716,35.96 C23.3002716,36.733 23.3932716,37.43 23.5802716,38.05 C23.7672716,38.67 24.0302716,39.193 24.3702716,39.62 C24.7102716,40.047 25.1272716,40.377 25.6202716,40.61 C26.1132716,40.843 26.6602716,40.96 27.2602716,40.96 C27.8602716,40.96 28.4032716,40.843 28.8902716,40.61 C29.3757568,40.3776482 29.800342,40.0352408 30.1302716,39.61 C30.4702716,39.177 30.7332716,38.653 30.9202716,38.04 C31.1072716,37.427 31.2002716,36.733 31.2002716,35.96 C31.2002716,35.173 31.1032716,34.47 30.9102716,33.85 C30.7172716,33.23 30.4472716,32.707 30.1002716,32.28 C29.766568,31.863562 29.3425472,31.5284488 28.8602716,31.3 C28.3589826,31.0687194 27.8122914,30.9525476 27.2602716,30.96 C26.6732716,30.96 26.1372716,31.07 25.6502716,31.29 C25.1632716,31.51 24.7472716,31.833 24.4002716,32.26 C24.0532716,32.687 23.7832716,33.21 23.5902716,33.83 C23.3972716,34.45 23.3002716,35.16 23.3002716,35.96 Z M42.7402716,31.28 C42.5802716,31.213 42.2832716,31.14 41.8502716,31.06 C41.3649096,30.9756212 40.8728925,30.9354565 40.3802716,30.94 C39.9002716,30.94 39.4932716,30.99 39.1602716,31.09 C38.8272716,31.19 38.5572716,31.32 38.3502716,31.48 C38.1432716,31.64 37.9932716,31.827 37.9002716,32.04 C37.8080864,32.2478286 37.7603984,32.4726438 37.7602716,32.7 C37.7602716,33.167 37.9072716,33.533 38.2002716,33.8 C38.4932716,34.067 38.8672716,34.293 39.3202716,34.48 L40.6602716,35.04 C41.0472716,35.2 41.4272716,35.383 41.8002716,35.59 C42.1732716,35.797 42.5072716,36.05 42.8002716,36.35 C43.0932716,36.65 43.3302716,37 43.5102716,37.4 C43.6902716,37.8 43.7802716,38.267 43.7802716,38.8 C43.7802716,39.427 43.6602716,39.993 43.4202716,40.5 C43.1821174,41.004366 42.8294083,41.4461085 42.3902716,41.79 C41.9432716,42.143 41.4032716,42.417 40.7702716,42.61 C40.0851791,42.8106179 39.3740849,42.9083512 38.6602716,42.9 C37.9402716,42.9 37.3332716,42.863 36.8402716,42.79 C36.4762496,42.7425591 36.1155471,42.6724225 35.7602716,42.58 L35.8802716,40.48 C36.0672716,40.547 36.3632716,40.643 36.7702716,40.77 C37.1772716,40.897 37.7602716,40.96 38.5202716,40.96 C39.4802716,40.96 40.1932716,40.793 40.6602716,40.46 C41.1272716,40.127 41.3602716,39.667 41.3602716,39.08 C41.3602716,38.587 41.1802716,38.19 40.8202716,37.89 C40.4602716,37.59 39.9932716,37.327 39.4202716,37.1 L38.1402716,36.56 C37.7675894,36.4136635 37.4093709,36.2328803 37.0702716,36.02 C36.7336341,35.8095386 36.4302926,35.5500131 36.1702716,35.25 C35.9022302,34.9363362 35.6922766,34.5773831 35.5502716,34.19 C35.3972716,33.783 35.3202716,33.313 35.3202716,32.78 C35.3202716,32.233 35.4332716,31.73 35.6602716,31.27 C35.8872716,30.81 36.2172716,30.413 36.6502716,30.08 C37.0832716,29.747 37.6202716,29.483 38.2602716,29.29 C38.9002716,29.097 39.6402716,29 40.4802716,29 C41.0002716,29 41.4872716,29.027 41.9402716,29.08 C42.3932716,29.133 42.7002716,29.187 42.8602716,29.24 L42.7402716,31.28 Z M46.1802716,29.22 L53.4602716,29.22 L53.4602716,31.06 L48.5602716,31.06 L48.5602716,34.86 L53.2002716,34.86 L53.2002716,36.7 L48.5602716,36.7 L48.5602716,40.86 L53.5002716,40.86 L53.5002716,42.7 L46.1802716,42.7 L46.1802716,29.22 Z" id="Shape" fill="#979797" fill-rule="nonzero"></path>
            </g>
        </g>
    </g>
</svg>