<?xml version="1.0" encoding="UTF-8"?>
<svg width="30px" height="25px" viewBox="0 0 30 25" version="1.1" xmlns="http://www.w3.org/2000/svg" xmlns:xlink="http://www.w3.org/1999/xlink">
    <!-- Generator: sketchtool 49.3 (51167) - http://www.bohemiancoding.com/sketch -->
    <title>52A9861F-89BD-417A-960E-769ECAE4C9F4</title>
    <desc>Created with sketchtool.</desc>
    <defs></defs>
    <g id="Welcome" stroke="none" stroke-width="1" fill="none" fill-rule="evenodd">
        <g id="Menu_Mobile" transform="translate(-20.000000, -238.000000)" fill="#6DACE3">
            <g id="Group-3" transform="translate(20.000000, 237.000000)">
                <path d="M23.5714567,10.1428418 C23.5714567,14.8805707 18.2980129,18.7142806 11.7857283,18.7142806 C10.7645218,18.7142806 9.77679737,18.6138341 8.83929625,18.4464231 C7.44978567,19.4341475 5.87612308,20.1540145 4.18527285,20.5892828 C3.73326338,20.7064705 3.24777173,20.7901759 2.74553899,20.8571403 L2.69531571,20.8571403 C2.44419934,20.8571403 2.20982406,20.6562472 2.15960079,20.3716487 C2.09263642,20.0535679 2.31027061,19.8526748 2.49442262,19.6350406 C3.14732518,18.8984326 3.8839332,18.24553 4.45313031,16.8560195 C1.7410735,15.2823569 0,12.8548986 0,10.1428418 C0,5.40511295 5.27344379,1.57140303 11.7857283,1.57140303 C18.2980129,1.57140303 23.5714567,5.40511295 23.5714567,10.1428418 Z M30.0000358,14.4285612 C30.0000358,17.1573591 28.2589623,19.5680763 25.5469055,21.1417389 C26.1161026,22.5312494 26.8527106,23.184152 27.5056131,23.92076 C27.6897652,24.1383942 27.9073993,24.3392873 27.840435,24.657368 C27.7734706,24.9587077 27.5223542,25.1763419 27.2544968,25.1428597 C26.752264,25.0758953 26.2667724,24.9921899 25.8147629,24.8750022 C24.1239127,24.4397339 22.5502501,23.7198669 21.1607395,22.7321425 C20.2232384,22.8995535 19.235514,23 18.2143074,23 C15.1841699,23 12.4051487,22.1629454 10.3125123,20.7901759 C10.7980039,20.8236581 11.3002367,20.8571403 11.7857283,20.8571403 C15.385063,20.8571403 18.7835045,19.8191926 21.3783737,17.9441904 C24.174136,15.9017773 25.7143164,13.1394972 25.7143164,10.1428418 C25.7143164,9.27230506 25.5803876,8.4185094 25.3292713,7.59819593 C28.1585157,9.15511742 30.0000358,11.6327989 30.0000358,14.4285612 Z" id="comments---FontAwesome"></path>
            </g>
        </g>
    </g>
</svg>