<?xml version="1.0" encoding="utf-8"?>
<!-- Generator: Adobe Illustrator 22.1.0, SVG Export Plug-In . SVG Version: 6.00 Build 0)  -->
<svg version="1.1" id="Layer_1" xmlns="http://www.w3.org/2000/svg" xmlns:xlink="http://www.w3.org/1999/xlink" x="0px" y="0px"
	 viewBox="0 0 1440 150" style="enable-background:new 0 0 1440 150;" xml:space="preserve">
<style type="text/css">
	.st0{fill:#E5F5FD;}
	.st1{fill:#FFFFFF;}
</style>
<title>bottomCloudsReconnecting</title>
<path class="st0" d="M1440,124.4V53.1c-0.3,0.3-0.6,0.5-0.9,0.8c-1.9-13.1-14.1-22.2-27.2-20.3c-10.5,1.5-18.7,9.8-20.3,20.3
	c-9.9-6.5-23.2-3.7-29.7,6.2c-1.4,2.1-2.3,4.4-2.9,6.8c-2.2-11.1-12.9-18.3-24-16.1c-3.8,0.8-7.4,2.6-10.2,5.3
	c-5.2-8.5-16.2-11.2-24.7-6c-4.1,2.5-7.1,6.6-8.2,11.3c-4.4-6.3-13.2-7.9-19.5-3.4c-2.4,1.7-4.2,4.1-5.2,6.8
	c-11.9-11.5-30.9-11.1-42.4,0.8c-0.9,0.9-1.7,1.9-2.5,3c-0.7-3.5-4.2-5.8-7.7-5c-2.8,0.6-4.9,2.9-5.1,5.7c-2.6-2.5-6.6-2.5-9.1,0.1
	c-0.1,0.1-0.1,0.1-0.2,0.2c-1.8-10.6-11.9-17.7-22.5-15.9c-7.9,1.4-14.1,7.4-15.8,15.3c-3.6-6.9-12-9.5-18.9-5.9
	c-2.9,1.5-5.3,4.1-6.5,7.2c-0.4-0.4-0.8-0.9-1.2-1.3l0,0l0,0c-0.3-0.4-0.7-0.8-1.1-1.1l-0.3-0.3c-0.3-0.3-0.7-0.7-1-1l-0.4-0.4
	c-0.3-0.3-0.7-0.6-1-0.9l-0.5-0.4c-0.3-0.3-0.7-0.5-1-0.8l-0.6-0.4l-1-0.7l-0.6-0.4c-0.3-0.2-0.7-0.4-1.1-0.7s-0.4-0.3-0.7-0.4
	s-0.7-0.4-1.1-0.6l-0.7-0.4l-1.1-0.5l-0.8-0.3l-1.1-0.5c-0.3-0.1-0.5-0.2-0.8-0.3s-0.7-0.3-1.1-0.4s-0.6-0.2-0.8-0.3l-1.1-0.3
	c-0.3-0.1-0.6-0.2-0.9-0.2s-0.7-0.2-1.1-0.3l-1-0.2c-0.4-0.1-0.7-0.2-1.1-0.2s-0.7-0.1-1-0.2l-1-0.1l-1.2-0.1l-0.9-0.1
	c-0.6,0-1.3,0-2-0.1h-0.4c-0.7,0-1.3,0-2,0.1l-0.9,0.1l-1.2,0.1l-1,0.1c-0.3,0-0.7,0.1-1,0.2s-0.7,0.1-1.1,0.2l-1,0.2
	c-0.4,0.1-0.7,0.2-1.1,0.3s-0.6,0.1-0.9,0.2l-1.1,0.3c-0.3,0.1-0.6,0.2-0.8,0.3s-0.7,0.3-1.1,0.4s-0.5,0.2-0.8,0.3l-1.1,0.5L1091,60
	l-1.1,0.5l-0.7,0.4c-0.4,0.2-0.7,0.4-1.1,0.6s-0.4,0.2-0.7,0.4s-0.7,0.4-1.1,0.7l-0.6,0.4l-1,0.7L1084,64c-0.3,0.3-0.7,0.5-1,0.8
	l-0.5,0.4c-0.3,0.3-0.7,0.6-1,0.9l-0.4,0.4c-0.3,0.3-0.7,0.6-1,1l-0.3,0.3c-0.4,0.4-0.7,0.7-1.1,1.1l0,0l0,0
	c-0.4,0.4-0.8,0.8-1.2,1.3c-2.8-7.2-10.9-10.7-18.1-7.9c-3.2,1.3-5.8,3.6-7.4,6.7c-2.2-10.5-12.5-17.3-23-15.1
	c-7.8,1.6-13.9,7.9-15.3,15.8c-2.4-2.7-6.5-2.9-9.1-0.5c-0.1,0.1-0.1,0.1-0.2,0.2c-0.4-3.6-3.6-6.2-7.1-5.8
	c-2.8,0.3-5.1,2.4-5.7,5.1c-9.8-13.3-28.6-16.1-42-6.3c-1,0.8-2,1.6-3,2.5c-2.6-7.3-10.5-11.1-17.8-8.6c-2.8,1-5.1,2.8-6.8,5.2
	c-2.2-9.7-11.9-15.8-21.6-13.5c-4.8,1.1-8.9,4-11.4,8.2c-8.2-7.8-21.1-7.5-28.9,0.6c-2.7,2.8-4.5,6.4-5.3,10.2
	c-2.7-11.5-14.3-18.7-25.9-15.9c-2.4,0.6-4.7,1.6-6.8,2.9c-1.9-13.1-14.1-22.2-27.2-20.3c-10.5,1.5-18.7,9.8-20.3,20.3
	c-1.7-1.8-3.8-3.1-6.1-3.9l0,0c-0.3-0.1-0.7-0.2-1.1-0.3l-0.3-0.1c-0.3-0.1-0.7-0.1-1-0.2h-0.4c-0.4,0-0.9-0.1-1.3-0.1h-0.5
	c-3.7,0-7.2,1.5-9.9,4.1c-1.9-11.6-11.9-20.1-23.7-20.1h-0.5c-11.8,0-21.9,8.6-23.7,20.2c-3.4-2.1-7.3-3.3-11.3-3.2h-0.5
	c-9.9,0-18.5,6.8-20.9,16.4c-2.2-11.1-12.9-18.3-24-16.1c-3.8,0.8-7.4,2.6-10.2,5.3c-5.2-8.5-16.2-11.2-24.7-6
	c-4.1,2.5-7.1,6.6-8.2,11.3c-4.4-6.3-13.2-7.9-19.5-3.4c-2.4,1.7-4.2,4.1-5.2,6.8c-11.9-11.5-30.9-11.1-42.4,0.8
	c-0.9,0.9-1.7,1.9-2.5,3c-0.7-3.5-4.2-5.8-7.7-5c-2.8,0.6-4.9,2.9-5.1,5.7c-2.6-2.5-6.6-2.5-9.1,0.1c-0.1,0.1-0.1,0.1-0.2,0.2
	c-1.9-10.5-12-17.6-22.6-15.8c-7.9,1.4-14.1,7.4-15.8,15.3c-3.6-6.9-12-9.5-18.9-5.9c-2.9,1.5-5.3,4.1-6.5,7.2
	c-0.4-0.4-0.8-0.9-1.1-1.3l0,0l0,0c-0.3-0.4-0.7-0.8-1.1-1.1l-0.3-0.3c-0.3-0.3-0.7-0.7-1-1l-0.4-0.4c-0.3-0.3-0.7-0.6-1-0.9
	l-0.5-0.4c-0.3-0.3-0.7-0.5-1-0.8l-0.6-0.4l-1-0.7l-0.6-0.4c-0.4-0.2-0.7-0.4-1.1-0.7s-0.4-0.3-0.7-0.4s-0.7-0.4-1.1-0.6l-0.7-0.4
	l-1.3-0.5l-0.8-0.3l-1.1-0.5c-0.3-0.1-0.5-0.2-0.8-0.3s-0.7-0.3-1.1-0.4l-0.8-0.3c-0.4-0.1-0.7-0.2-1.1-0.3s-0.6-0.2-0.9-0.2
	s-0.7-0.2-1.1-0.3l-1-0.2c-0.4-0.1-0.7-0.2-1.1-0.2s-0.7-0.1-1-0.2l-1-0.1l-1.2-0.1l-0.9-0.1c-0.6,0-1.3,0-2-0.1H421
	c-0.7,0-1.3,0-2,0.1l-0.9,0.1l-1.2,0.1l-1,0.1c-0.3,0-0.7,0.1-1,0.2s-0.7,0.1-1.1,0.2l-1,0.2c-0.4,0.1-0.7,0.2-1.1,0.3
	s-0.6,0.1-0.9,0.2l-1.1,0.3c-0.3,0.1-0.6,0.2-0.8,0.3s-0.7,0.3-1.1,0.4s-0.5,0.2-0.8,0.3l-1.1,0.5l-0.8,0.3l-1.1,0.5l-0.7,0.4
	c-0.4,0.2-0.7,0.4-1.1,0.6s-0.5,0.2-0.7,0.4s-0.7,0.4-1.1,0.7l-0.6,0.4l-1.2,0.7l-0.6,0.4c-0.4,0.3-0.7,0.5-1,0.8l-0.5,0.4
	c-0.4,0.3-0.7,0.6-1,0.9l-0.4,0.4c-0.4,0.3-0.7,0.6-1,1l-0.3,0.3c-0.4,0.4-0.7,0.7-1.1,1.1l0,0l0,0c-0.4,0.4-0.8,0.8-1.1,1.3
	c-2.8-7.2-11-10.7-18.1-7.9c-3.2,1.3-5.8,3.6-7.4,6.7c-2.2-10.5-12.5-17.3-23-15.1c-7.8,1.6-13.9,7.9-15.3,15.8
	c-2.4-2.7-6.5-2.9-9.1-0.5c-0.1,0.1-0.1,0.1-0.2,0.2c-0.4-3.6-3.5-6.2-7.1-5.8c-2.8,0.3-5.1,2.4-5.7,5.1c-9.8-13.3-28.6-16.1-42-6.3
	c-1,0.8-2,1.6-3,2.5c-2.6-7.3-10.5-11.1-17.8-8.6c-2.8,1-5.1,2.8-6.8,5.2c-2.2-9.7-11.9-15.7-21.6-13.5c-4.7,1.1-8.8,4-11.3,8.2
	c-8.2-7.8-21.1-7.5-28.9,0.7c-2.7,2.8-4.5,6.4-5.3,10.2c-2.7-11.5-14.3-18.7-25.9-15.9c-2.4,0.6-4.7,1.6-6.8,2.9
	c-1.9-13.1-14.1-22.2-27.2-20.3c-10.2,1.4-18.4,9.6-20,20.1c-1.7-1.8-3.8-3.2-6.1-3.9l0,0c-0.3-0.1-0.7-0.2-1.1-0.3l-0.3-0.1
	c-0.3-0.1-0.7-0.1-1-0.2h-0.4c-0.4,0-0.9-0.1-1.3-0.1h-0.1c-0.4,0-0.9,0-1.3,0.1h-0.4c-0.3,0-0.7,0.1-1,0.2l-0.3,0.1
	c-0.4,0.1-0.7,0.2-1.1,0.3l0,0c-2.4,0.7-4.5,2.1-6.1,3.9c-1.9-13.1-14.1-22.2-27.2-20.3C30.9,35.2,22.7,43.5,21.1,54
	C14.8,49.8,6.8,49.3,0,52.6v71.8H1440z"/>
<path class="st1" d="M1440,150l0-43.1v-0.3c-0.5-0.1-1.1-0.2-1.6-0.2c-2.3,0-4.5,0.9-6.2,2.4c-0.9-4.9-5.5-8.2-10.4-7.3
	c-2.9,0.5-5.3,2.4-6.6,5c-13.2-17-37.7-20.2-54.7-7c-1,0.7-1.9,1.5-2.8,2.4c-2.5-9.1-11.8-14.4-20.9-11.9c-4.6,1.3-8.4,4.4-10.6,8.6
	c-1.3-12.9-12.7-22.4-25.7-21.1c-7.3,0.7-13.9,4.8-17.7,11.1c-9.3-10.2-25.1-11-35.3-1.7c-3.7,3.4-6.3,7.8-7.5,12.7
	c-5.7-2.9-12.6-0.6-15.4,5.1c-0.3,0.5-0.5,1.1-0.7,1.6c-4.8-5-12.7-5.2-17.7-0.4c-1.6,1.5-2.7,3.4-3.3,5.4
	c-3.1-2.4-7.5-2.5-10.7-0.2c-1.3-8.2-9-13.7-17.2-12.4c-5.7,0.9-10.4,5.1-12,10.6c-3.4-3.6-9.1-3.8-12.7-0.5c0,0,0,0-0.1,0.1
	c-1.8-16.2-15.5-28.5-31.8-28.5h-0.4c-16.4-0.1-30.2,12.2-32.1,28.5c-3.7-3.5-9.5-3.3-12.9,0.4l0,0c-2.4-8-10.8-12.6-18.9-10.2
	c-5.6,1.6-9.7,6.3-10.7,12c-3.3-2.3-7.7-2.2-10.8,0.2c-2.1-6.7-9.2-10.4-15.9-8.3c-2.1,0.6-3.9,1.8-5.4,3.3
	c-2.1-6.1-8.7-9.4-14.7-7.3c-0.5,0.2-1,0.4-1.5,0.6C991.7,86,978,77.7,964.4,81.1c-4.8,1.2-9.2,3.8-12.5,7.4
	c-7-11.1-21.7-14.5-32.8-7.5c-6.2,3.9-10.2,10.3-11,17.6c-4.4-8.4-14.8-11.7-23.2-7.3c-4.2,2.2-7.3,6-8.6,10.6
	c-2.7-2.5-5.7-4.6-9-6.3l-0.9-0.4l-0.7-0.3c-0.5-0.2-0.9-0.4-1.4-0.6l-0.2-0.1c-3.4-1.4-7-2.2-10.6-2.6H853
	c-0.5-0.1-1.1-0.1-1.6-0.1h-1.1h-0.8h-0.2h-0.9h-1c-9.2,0.4-17.9,4-24.7,10.1c-2.7-9-12.1-14.1-21.1-11.5c-4.4,1.3-8.1,4.4-10.3,8.5
	c-1.3-12.9-12.7-22.4-25.7-21.1c-7.3,0.7-13.9,4.8-17.7,11c-9.3-10.2-25.1-10.9-35.3-1.6c-1.8,1.6-3.3,3.5-4.6,5.6
	c-12.8-3.1-26.3,0.5-35.9,9.4c-2.5-9.1-11.8-14.4-20.9-11.9c-4.6,1.3-8.4,4.4-10.6,8.6c-1.3-12.9-12.7-22.4-25.7-21.1
	c-7.3,0.7-13.9,4.8-17.7,11.1c-9.3-10.2-25.1-11-35.3-1.7c-3.7,3.4-6.3,7.8-7.5,12.7c-5.7-2.9-12.6-0.6-15.4,5.1
	c-0.3,0.5-0.5,1.1-0.7,1.6c-4.7-5-12.6-5.2-17.7-0.5c-1.6,1.5-2.8,3.4-3.4,5.5c-3.1-2.4-7.5-2.5-10.7-0.2c-1.3-8.2-9-13.7-17.2-12.4
	c-5.7,0.9-10.4,5.1-12,10.6c-3.4-3.6-9.1-3.8-12.7-0.5c0,0,0,0-0.1,0.1c-1.8-16.2-15.5-28.5-31.8-28.5h-0.4
	c-16.4-0.1-30.2,12.2-32.1,28.5c-3.7-3.5-9.5-3.3-12.9,0.4l0,0c-2.4-8-10.9-12.6-18.9-10.1c-5.5,1.7-9.5,6.2-10.5,11.9
	c-3.3-2.3-7.7-2.2-10.8,0.2c-2.1-6.7-9.2-10.4-15.9-8.3c-2.1,0.6-3.9,1.8-5.4,3.3c-2.1-6.1-8.7-9.4-14.7-7.3c-0.5,0.2-1,0.4-1.5,0.6
	c-3.4-13.6-17.1-21.9-30.7-18.5c-4.8,1.2-9.2,3.8-12.5,7.4c-7-11.1-21.7-14.5-32.8-7.5c-6.2,3.9-10.2,10.4-11,17.6
	c-4.4-8.4-14.8-11.7-23.2-7.3c-4.2,2.2-7.4,6.1-8.7,10.7c-2.7-2.5-5.8-4.6-9.1-6.3l-0.9-0.4l-0.7-0.4c-0.4-0.2-0.9-0.4-1.4-0.6
	l-0.2-0.1c-3.4-1.4-7-2.2-10.6-2.6h-0.3c-0.5-0.1-1.1-0.1-1.6-0.1h-1.1H164h-0.2h-0.9h-1c-9.2,0.4-17.9,4-24.7,10.1
	c-2.7-9-12.1-14.1-21.1-11.5c-4.4,1.3-8.1,4.4-10.3,8.5c-1.3-12.9-12.7-22.4-25.7-21.1c-7.3,0.7-13.9,4.8-17.7,11.1
	C53.2,78.4,37.3,77.7,27.1,87c-3.7,3.4-6.3,7.8-7.5,12.7c-1.6-0.8-3.4-1.2-5.2-1.2c-5,0-9.4,3.2-10.9,7.9c-1-1.1-2.2-2-3.5-2.6V150
	H1440z"/>
</svg>
