<?xml version="1.0" encoding="UTF-8"?>
<svg width="22px" height="19px" viewBox="0 0 22 19" version="1.1" xmlns="http://www.w3.org/2000/svg" xmlns:xlink="http://www.w3.org/1999/xlink">
    <!-- Generator: Sketch 51.1 (57501) - http://www.bohemiancoding.com/sketch -->
    <title>Shape</title>
    <desc>Created with Sketch.</desc>
    <defs></defs>
    <g id="Menu" stroke="none" stroke-width="1" fill="none" fill-rule="evenodd">
        <g id="Viasat_NC_Menu_Paid_Mobile" transform="translate(-21.000000, -162.000000)" fill="#A9A9A9">
            <path d="M32.83,162.44 C32.64,162.16 32.32,162.02 32,162.02 C31.68,162.02 31.36,162.16 31.17,162.45 L26.79,169 L22,169 C21.45,169 21,169.45 21,170 C21,170.09 21.01,170.18 21.04,170.27 L23.58,179.54 C23.81,180.38 24.58,181 25.5,181 L38.5,181 C39.42,181 40.19,180.38 40.43,179.54 L42.97,170.27 L43,170 C43,169.45 42.55,169 42,169 L37.21,169 L32.83,162.44 Z M29,169 L32,164.6 L35,169 L29,169 L29,169 Z M32,177 C30.9,177 30,176.1 30,175 C30,173.9 30.9,173 32,173 C33.1,173 34,173.9 34,175 C34,176.1 33.1,177 32,177 L32,177 Z" id="Shape"></path>
        </g>
    </g>
</svg>