<?xml version="1.0" encoding="UTF-8"?>
<svg width="20px" height="20px" viewBox="0 0 20 20" version="1.1" xmlns="http://www.w3.org/2000/svg" xmlns:xlink="http://www.w3.org/1999/xlink">
    <!-- Generator: Sketch 51.1 (57501) - http://www.bohemiancoding.com/sketch -->
    <title>Shape</title>
    <desc>Created with Sketch.</desc>
    <defs></defs>
    <g id="Menu" stroke="none" stroke-width="1" fill="none" fill-rule="evenodd">
        <g id="Viasat_NC_Menu_Paid_Mobile" transform="translate(-22.000000, -357.000000)" fill="#A9A9A9">
            <path d="M41,361 L39,361 L39,370 L26,370 L26,372 C26,372.55 26.45,373 27,373 L38,373 L42,377 L42,362 C42,361.45 41.55,361 41,361 L41,361 Z M37,367 L37,358 C37,357.45 36.55,357 36,357 L23,357 C22.45,357 22,357.45 22,358 L22,372 L26,368 L36,368 C36.55,368 37,367.55 37,367 L37,367 Z" id="Shape"></path>
        </g>
    </g>
</svg>