<svg xmlns="http://www.w3.org/2000/svg" width="53" height="33" viewBox="0 0 53 33">
    <path fill="#BEBEBE" fill-rule="nonzero" d="M3.789 29.78c0-1.008 1.125-1.249 2.266-1.5.211-.044.414-.095.628-.14-.145 1.81-.875 2.337-1.61 2.41-.097 0-.194.02-.277.02-.676.003-1.007-.32-1.007-.79zm22.25 0c0-1.008 1.128-1.249 2.271-1.5.207-.044.414-.095.626-.14-.152 1.81-.874 2.337-1.61 2.41-.1 0-.196.02-.28.02-.673.003-1.006-.32-1.006-.79zM3.325 21.61c0-1.051.51-1.863 1.889-1.863a2.274 2.274 0 0 1 1.497.459v2.789c-.427.33-.957.5-1.497.476-1.378 0-1.889-.809-1.889-1.86zm11.042 0c0-1.033.46-1.863 1.84-1.863 1.38 0 1.84.83 1.84 1.863 0 1.034-.476 1.861-1.84 1.861s-1.838-.809-1.838-1.86h-.002zm11.207 0c0-1.051.51-1.863 1.886-1.863a2.276 2.276 0 0 1 1.498.459v2.789c-.427.33-.958.5-1.498.476-1.373 0-1.884-.809-1.884-1.86h-.002zm10.954 0c0-1.033.474-1.863 1.84-1.863 1.367 0 1.84.83 1.84 1.863 0 1.034-.473 1.861-1.84 1.861-1.366 0-1.837-.809-1.837-1.86h-.003zm-3.326 0a5.32 5.32 0 0 0 .338 1.806c-.39.332-.812.624-1.26.871v-6.859h-2.961l.046.67c-.57-.498-1.343-.83-2.498-.83-1.282 0-2.3.316-3.05.87a12.658 12.658 0 0 1-4.01.078c-.842-.602-2.029-.948-3.593-.948-3.547 0-5.171 1.753-5.171 4.342-.008.598.095 1.191.303 1.751a7.16 7.16 0 0 1-1.32.917v-6.85h-2.95l.038.676c-.495-.497-1.38-.83-2.499-.83C1.583 17.269 0 19.022 0 21.61c0 2.59 1.583 4.34 4.614 4.34.718 0 1.43-.139 2.094-.41v.37c-.376.134-.76.243-1.15.325-1.454.337-4.705.807-4.705 3.619C.853 31.815 2.76 33 5.061 33c2.3 0 4.97-1.322 4.97-5.702v-.414a11.738 11.738 0 0 0 2.782-1.754c.826.52 1.953.82 3.402.82 3.545 0 5.178-1.752 5.178-4.34a5.615 5.615 0 0 0-.092-.992c.352.02.705.015 1.056-.014-.06.332-.091.669-.092 1.006 0 2.588 1.573 4.34 4.6 4.34a7.616 7.616 0 0 0 2.094-.41v.37a5.88 5.88 0 0 1-1.15.325c-1.459.337-4.714.809-4.714 3.619C23.095 31.815 25 33 27.301 33c2.3 0 4.975-1.322 4.975-5.702v-.414a11.846 11.846 0 0 0 2.744-1.724c.822.509 1.928.79 3.345.79 3.557 0 5.171-1.752 5.171-4.34 0-2.768-1.674-4.354-5.17-4.354-3.536.012-5.16 1.765-5.16 4.354H33.2zM31.678 0a6.187 6.187 0 0 0-5.631 3.612c-2.728.35-4.53 2.291-4.53 4.613 0 2.628 2.335 4.764 5.344 4.764a4.862 4.862 0 0 0 2.121-.458c1.258.825 3.057 1.276 4.83 1.276 1.841 0 3.714-.481 5.098-1.32.54.364 1.178.556 1.83.553.993 0 1.94-.422 2.603-1.16a3.658 3.658 0 0 0 .872-2.466 3.159 3.159 0 0 0-.916-2.253 3.183 3.183 0 0 0-2.25-.941 3.716 3.716 0 0 0-2.504.916l.977 1.387a2.06 2.06 0 0 1 1.438-.582 1.45 1.45 0 0 1 1.074.42c.284.283.437.67.424 1.07a1.687 1.687 0 0 1-1.588 1.709 2.26 2.26 0 0 1-1.84-.866c-1.332 1.16-3.506 1.643-5.215 1.643-2.34 0-3.89-.83-4.667-1.398a4.87 4.87 0 0 1-2.3.584c-1.965 0-3.451-1.292-3.451-2.878 0-1.483 1.495-2.904 3.841-2.904h.049a4.597 4.597 0 0 1 4.37-3.437c2.055 0 3.058 1.042 3.837 2.145a2.093 2.093 0 0 1 1.5-.55c.404-.007.801.096 1.15.298a2.177 2.177 0 0 1 1.084 2.032 4.242 4.242 0 0 1 1.755-.343 3.77 3.77 0 0 1 2.213.639c1.263.917 1.61 1.85 1.739 3.09h4.992l-1.877 1.72h2.107l2.562-2.665-2.553-2.677h-2.11l1.891 1.735h-3.52c-.749-2.457-3.22-3.699-5.175-3.7a4.003 4.003 0 0 0-.95.11c-.527-1.307-1.87-1.96-3.13-1.96a3.36 3.36 0 0 0-1.063.167C35.24.815 33.355 0 31.679 0z"/>
</svg>
