<?xml version="1.0" encoding="UTF-8"?>
<svg width="24px" height="14px" viewBox="0 0 24 14" version="1.1" xmlns="http://www.w3.org/2000/svg" xmlns:xlink="http://www.w3.org/1999/xlink">
    <!-- Generator: Sketch 51.1 (57501) - http://www.bohemiancoding.com/sketch -->
    <title>Line + Line Copy + Line Copy</title>
    <desc>Created with Sketch.</desc>
    <defs></defs>
    <g id="Symbols" stroke="none" stroke-width="1" fill="none" fill-rule="evenodd">
        <g id="Header_Mobile" transform="translate(-326.000000, -31.000000)" stroke="#003A7D" stroke-width="2">
            <g id="Header">
                <g id="Line-+-Line-Copy-+-Line-Copy" transform="translate(326.000000, 31.000000)">
                    <path d="M0,1 L24,1" id="Line"></path>
                    <path d="M0,7 L14,7" id="Line-Copy"></path>
                    <path d="M0,13 L19,13" id="Line-Copy"></path>
                </g>
            </g>
        </g>
    </g>
</svg>