<?xml version="1.0" encoding="UTF-8"?>
<svg width="126px" height="40px" viewBox="0 0 126 40" version="1.1" xmlns="http://www.w3.org/2000/svg" xmlns:xlink="http://www.w3.org/1999/xlink">
    <!-- Generator: sketchtool 50.2 (55047) - http://www.bohemiancoding.com/sketch -->
    <title>1066A6E0-60DD-44F2-BB4C-6763CAFB1398</title>
    <desc>Created with sketchtool.</desc>
    <defs>
        <polygon id="path-1" points="0.21854359 0.168815465 84.644 0.168815465 84.644 39.8461538 0.21854359 39.8461538"></polygon>
        <polygon id="path-3" points="0 0.0427179487 16.1355026 0.0427179487 16.1355026 10.0548718 0 10.0548718"></polygon>
    </defs>
    <g id="Page-1" stroke="none" stroke-width="1" fill="none" fill-rule="evenodd">
        <g id="Artboard-Copy-3" transform="translate(-40.000000, -17.000000)">
            <g id="Group">
                <g id="Header">
                    <g id="Neos-Logo" transform="translate(40.000000, 17.000000)">
                        <g>
                            <g id="Group-3" transform="translate(41.282051, 0.190256)">
                                <mask id="mask-2" fill="white">
                                    <use xlink:href="#path-1"></use>
                                </mask>
                                <g id="Clip-2"></g>
                                <path d="M0.219261538,4.69664103 C17.5386974,0.372076923 57.6982359,-6.37305128 67.5965949,15.0465897 C70.0638256,20.3856154 74.1493128,14.2374615 84.6442872,20.9201282 C77.0211077,23.2574103 75.5809026,29.7311538 66.4299282,34.9158205 C49.7824923,44.3478718 23.5141846,36.9587436 0.21854359,39.0314615 L0.21854359,38.6760769 C10.1036205,37.6792051 17.3168513,37.7484872 18.2376205,35.2830513 C18.902441,33.5032564 13.4761846,32.5810513 8.1522359,32.4640256 L8.15367179,32.276641 C24.8470564,32.4080256 38.2274667,30.876641 47.8871077,26.1292051 C54.9301846,22.6679744 53.5653641,18.6327436 40.3838256,13.293 C36.8306974,7.95541026 31.1535179,4.4324359 0.21854359,5.18269231 L0.219261538,4.69664103 Z" id="Fill-1" fill="#E21B19" mask="url(#mask-2)"></path>
                            </g>
                            <path d="M33.2662974,19.3191385 L22.2777333,19.3191385 C22.3168615,20.837959 23.3984513,21.5975487 25.5228615,21.5975487 C27.0625026,21.5975487 28.1146564,21.2202667 28.6804,20.4646256 L32.5099385,21.4905744 C31.5572205,23.0133436 29.3305026,23.7743692 25.8305026,23.7743692 C23.2638359,23.7743692 21.2216308,23.2965744 19.7056821,22.3409846 C18.2468103,21.4248821 17.5177333,20.2241128 17.5177333,18.7383179 C17.5177333,17.267241 18.2672718,16.0338051 19.7674256,15.0394462 C21.2675795,14.0450872 23.1956308,13.5475487 25.5526564,13.5475487 C27.9089641,13.5475487 29.7842462,14.0465231 31.1767077,15.0441128 C32.5691692,16.0417026 33.2662974,17.4151385 33.2662974,19.1633436 L33.2662974,19.3191385 Z M28.2528615,17.3953949 C28.1753231,16.861959 27.8637333,16.4333436 27.3195282,16.1091897 C26.7749641,15.7853949 26.1234256,15.6231385 25.3645538,15.6231385 C23.6917333,15.6231385 22.7088615,16.2143692 22.4180923,17.3953949 L28.2528615,17.3953949 Z" id="Fill-4" fill="#E21B19"></path>
                            <path d="M50.5776923,18.660959 C50.5776923,20.0817795 49.798359,21.2890103 48.2396923,22.2833692 C46.6810256,23.2777282 44.772,23.7745487 42.5118974,23.7745487 C40.2320513,23.7745487 38.3226667,23.2777282 36.7837436,22.2833692 C35.2441026,21.2890103 34.4751795,20.0817795 34.4751795,18.660959 C34.4751795,17.2408564 35.2487692,16.0339846 36.7981026,15.0392667 C38.3474359,14.0452667 40.2514359,13.5473692 42.5118974,13.5473692 C44.772,13.5473692 46.6810256,14.0452667 48.2396923,15.0392667 C49.798359,16.0339846 50.5776923,17.2408564 50.5776923,18.660959 M45.514,18.6706513 C45.514,17.9656256 45.2454872,17.4081385 44.7091795,16.9981897 C44.1728718,16.588241 43.4369744,16.3825487 42.5011282,16.3825487 C41.5645641,16.3825487 40.8286667,16.588241 40.292359,16.9981897 C39.7556923,17.4081385 39.4878974,17.9656256 39.4878974,18.6706513 C39.4878974,19.3760359 39.7556923,19.9306513 40.292359,20.3341385 C40.8286667,20.7376256 41.5645641,20.9393692 42.5011282,20.9393692 C43.4369744,20.9393692 44.1728718,20.7376256 44.7091795,20.3341385 C45.2454872,19.9306513 45.514,19.3760359 45.514,18.6706513" id="Fill-6" fill="#E21B19"></path>
                            <path d="M51.2809231,22.6122974 L52.3334359,20.0373744 C53.8526154,20.9089641 55.566359,21.3444 57.4761026,21.3444 C58.7809744,21.3444 59.4335897,21.0809128 59.4335897,20.5532205 C59.4335897,20.2060923 59.1596923,19.9616308 58.6129744,19.8198359 C57.8505128,19.6916821 57.0988205,19.5628103 56.3568205,19.4339385 C53.4448205,18.9324513 51.9898974,17.9861949 51.9898974,16.5969641 C51.9898974,15.6966564 52.5057436,14.9632718 53.5381538,14.3971692 C54.5698462,13.8307077 56.0021538,13.5474769 57.8329231,13.5474769 C59.6827179,13.5474769 61.6014359,13.8371692 63.5890769,14.4158359 L62.5390769,16.7322974 C61.1782051,16.1281436 59.7975897,15.8258872 58.3979487,15.8258872 C57.231641,15.8258872 56.6483077,16.0581436 56.6483077,16.5219385 C56.6483077,16.8058872 56.9498462,17.0184 57.5547179,17.1601949 C58.3527179,17.3156308 59.1510769,17.4696308 59.9501538,17.6247077 C61.3533846,17.9079385 62.3761026,18.2622462 63.0186667,18.6876308 C63.7007179,19.1521436 64.0417436,19.7580923 64.0417436,20.5058359 C64.0417436,21.4729128 63.4813846,22.2597846 62.3628205,22.8653744 C61.2431795,23.4716821 59.7390769,23.7742974 57.8512308,23.7742974 C55.3786154,23.7742974 53.1885128,23.3876821 51.2809231,22.6122974" id="Fill-8" fill="#E21B19"></path>
                            <g id="Group-12" transform="translate(0.000000, 13.472308)">
                                <mask id="mask-4" fill="white">
                                    <use xlink:href="#path-3"></use>
                                </mask>
                                <g id="Clip-11"></g>
                                <path d="M11.0915538,5.00230769 C11.0527846,4.37374359 10.7523231,3.87117949 10.2580154,3.49317949 C9.72170769,3.08358974 8.98581026,2.87789744 8.04960513,2.87789744 C7.11304103,2.87789744 6.37714359,3.08358974 5.8408359,3.49317949 C5.34652821,3.87082051 4.94950256,4.42974359 4.91073333,5.05794872 L4.91898974,10.0548718 C3.54914359,10.0548718 2.03319487,10.0545128 0.000682051282,10.0545128 C0.000682051282,8.32174359 -3.58974359e-05,6.57676923 -3.58974359e-05,5.15630769 C-3.58974359e-05,3.73620513 0.797246154,2.52897436 2.34657949,1.53461538 C3.89591282,0.54025641 5.80027179,0.0427179487 8.06073333,0.0427179487 C10.3204769,0.0427179487 12.2295026,0.54025641 13.7881692,1.53461538 C15.3468359,2.52897436 16.1355026,3.73620513 16.1355026,5.15630769 L16.1355026,10.0548718 L11.0915538,10.0548718 C11.0915538,10.0548718 11.0947846,5.0554359 11.0915538,5.00230769" id="Fill-10" fill="#E21B19" mask="url(#mask-4)"></path>
                            </g>
                        </g>
                    </g>
                </g>
            </g>
        </g>
    </g>
</svg>