<?xml version="1.0" encoding="UTF-8"?>
<svg width="35px" height="35px" viewBox="0 0 35 35" version="1.1" xmlns="http://www.w3.org/2000/svg" xmlns:xlink="http://www.w3.org/1999/xlink">
    <!-- Generator: sketchtool 51 (57462) - http://www.bohemiancoding.com/sketch -->
    <title>B4B895FA-53B9-4322-8973-01315D7CA73B</title>
    <desc>Created with sketchtool.</desc>
    <defs></defs>
    <g id="Page-1" stroke="none" stroke-width="1" fill="none" fill-rule="evenodd">
        <g id="Neos_Connected_Tablet" transform="translate(-670.000000, -634.000000)">
            <rect fill="#FFFFFF" x="0" y="0" width="1440" height="960"></rect>
            <path d="M697.857176,634 C701.406287,634 704.285755,636.879468 704.285755,640.428579 L704.285755,661.857176 C704.285755,665.406287 701.406287,668.285755 697.857176,668.285755 L681.674121,668.285755 C682.410729,667.236647 683.616088,665.428609 684.084838,663.59825 C684.084838,663.59825 684.285731,662.83932 685.267875,658.933065 C685.870555,660.07146 687.589307,661.053604 689.419666,661.053604 C694.866101,661.053604 698.571463,656.075919 698.571463,649.424126 C698.571463,644.401798 694.308065,639.714293 687.834843,639.714293 C679.776797,639.714293 675.714293,645.495549 675.714293,650.316984 C675.714293,653.218773 676.830365,655.808062 679.19644,656.790206 C679.575904,656.946456 679.933048,656.790206 680.044655,656.366098 C680.111619,656.075919 680.290191,655.31699 680.379477,655.004489 C680.491084,654.580382 680.446441,654.424131 680.133941,654.066988 C679.464297,653.241094 679.017868,652.214307 679.017868,650.71877 C679.017868,646.433051 682.232157,642.616082 687.366092,642.616082 C691.919669,642.616082 694.419672,645.383942 694.419672,649.111625 C694.419672,654.000024 692.254491,658.129493 689.040201,658.129493 C687.276806,658.129493 685.937519,656.656277 686.361627,654.848239 C686.87502,652.705379 687.857164,650.383948 687.857164,648.843768 C687.857164,647.459837 687.120556,646.299122 685.580376,646.299122 C683.772338,646.299122 682.321443,648.174124 682.321443,650.674127 C682.321443,650.674127 682.321443,652.281272 682.857158,653.375023 C681.004477,661.232175 680.669656,662.616106 680.669656,662.616106 C680.178584,664.669679 680.379477,667.058075 680.513405,668.285755 L676.428579,668.285755 C672.879468,668.285755 670,665.406287 670,661.857176 L670,640.428579 C670,636.879468 672.879468,634 676.428579,634 L697.857176,634 Z" id="pinterest-square---FontAwesome" fill="#BD081C"></path>
        </g>
    </g>
</svg>