<?xml version="1.0" encoding="UTF-8"?>
<svg width="25px" height="17px" viewBox="0 0 25 17" version="1.1" xmlns="http://www.w3.org/2000/svg" xmlns:xlink="http://www.w3.org/1999/xlink">
    <!-- Generator: sketchtool 52 (66869) - http://www.bohemiancoding.com/sketch -->
    <title>39C97DA0-7512-4AEA-BFF2-BFF9C533FE07</title>
    <desc>Created with sketchtool.</desc>
    <defs>
        <polygon id="path-1" points="0.000125 0.1675 23.1447083 0.1675 23.1447083 6.47183333 0.000125 6.47183333"></polygon>
        <polygon id="path-3" points="0.05275 0.204583333 10.2733333 0.204583333 10.2733333 8.69791667 0.05275 8.69791667"></polygon>
    </defs>
    <g id="SSOCP" stroke="none" stroke-width="1" fill="none" fill-rule="evenodd">
        <g id="AASSOCP_LandingPage_Disconnected_Laptop" transform="translate(-1017.000000, -109.000000)">
            <g id="Group-13" transform="translate(1017.000000, 109.000000)">
                <path d="M14.6772917,10.8176667 L16.128125,9.66891667 C14.9589583,9.13808333 13.6827083,8.85183333 12.3602083,8.85933333 C9.95270833,8.87183333 7.694375,9.82225 6.00104167,11.5339167 L7.13895833,12.6589167 C8.53145833,11.251 10.3885417,10.4705833 12.3689583,10.4601667 C13.1652083,10.4555833 13.940625,10.5818333 14.6772917,10.8176667" id="Fill-1" fill="#C30019"></path>
                <path d="M18.3790833,7.88633333 L19.7095,6.833 C17.5424167,5.393 14.99825,4.62633333 12.3378333,4.6405 C8.80283333,4.65925 5.48741667,6.053 3.00158333,8.5655 L4.13991667,9.69133333 C6.3245,7.48258333 9.23866667,6.25758333 12.3465833,6.24133333 C14.5045,6.22966667 16.5753333,6.80341667 18.3790833,7.88633333" id="Fill-3" fill="#C30019"></path>
                <g id="Group-7" transform="translate(0.000000, 0.249042)">
                    <mask id="mask-2" fill="white">
                        <use xlink:href="#path-1"></use>
                    </mask>
                    <g id="Clip-6"></g>
                    <path d="M21.8522083,4.88725 L23.1447083,3.8635 C20.063875,1.44933333 16.288875,0.146833333 12.3155417,0.167666667 C7.652625,0.192666667 3.27929167,2.03141667 0.000125,5.34683333 L1.13720833,6.47183333 C4.11595833,3.46183333 8.08845833,1.791 12.323875,1.7685 C15.8009583,1.75016667 19.1117917,2.84641667 21.8522083,4.88725" id="Fill-5" fill="#C30019" mask="url(#mask-2)"></path>
                </g>
                <path d="M12.9776667,15.4738333 C12.6685,15.7863333 12.1255833,15.78925 11.81225,15.4800833 C11.656,15.3246667 11.5685,15.118 11.56725,14.8984167 C11.5664167,14.678 11.6514167,14.4709167 11.806,14.3146667 C11.9614167,14.1575833 12.1676667,14.0709167 12.3880833,14.0700833 C12.6080833,14.0688333 12.8151667,14.153 12.9714167,14.3084167 C13.1285,14.463 13.2151667,14.66925 13.216,14.8900833 C13.21725,15.1096667 13.1330833,15.31675 12.9776667,15.4738333 M12.3818333,12.8721667 C11.8414167,12.8750833 11.33475,13.0871667 10.9543333,13.4709167 C10.57475,13.8555 10.3664167,14.3646667 10.36975,14.9050833 C10.3726667,15.4446667 10.586,15.95175 10.96975,16.33175 C11.3543333,16.7113333 11.8630833,16.9184167 12.4035,16.9155 C12.9430833,16.9125833 13.44975,16.7000833 13.8293333,16.3163333 C14.2089167,15.933 14.41725,15.423 14.4139167,14.8834167 C14.411,14.343 14.1976667,13.8363333 13.8139167,13.4575833 C13.4301667,13.0763333 12.9214167,12.86925 12.3818333,12.8721667" id="Fill-8" fill="#C30019"></path>
                <g id="Group-12" transform="translate(14.583333, 4.832375)">
                    <mask id="mask-4" fill="white">
                        <use xlink:href="#path-3"></use>
                    </mask>
                    <g id="Clip-11"></g>
                    <polygon id="Fill-10" fill="#C30019" mask="url(#mask-4)" points="9.95358333 0.78125 9.49441667 0.204583333 8.30858333 1.14875 6.219 2.81166667 4.93316667 3.83541667 2.8065 5.52791667 1.47108333 6.59083333 0.05275 7.71958333 0.8315 8.69791667 2.549 7.33083333 3.8165 6.32166667 5.89525 4.66791667 6.89858333 3.86916667 10.2735833 1.18291667"></polygon>
                </g>
            </g>
        </g>
    </g>
</svg>