<?xml version="1.0" encoding="UTF-8"?>
<svg width="33px" height="30px" viewBox="0 0 33 30" version="1.1" xmlns="http://www.w3.org/2000/svg" xmlns:xlink="http://www.w3.org/1999/xlink">
    <!-- Generator: sketchtool 51.3 (57544) - http://www.bohemiancoding.com/sketch -->
    <title>30EFA939-E3BD-40B2-97F0-D82C131252F6</title>
    <desc>Created with sketchtool.</desc>
    <defs>
        <radialGradient cx="70.7086629%" cy="69.302081%" fx="70.7086629%" fy="69.302081%" r="58.6852048%" gradientTransform="translate(0.707087,0.693021),scale(0.918793,1.000000),rotate(-123.332612),scale(1.000000,1.327925),translate(-0.707087,-0.693021)" id="radialGradient-1">
            <stop stop-color="#FFFFFF" offset="0%"></stop>
            <stop stop-color="#FFFFFF" offset="97.5417234%"></stop>
            <stop stop-color="#000000" offset="100%"></stop>
        </radialGradient>
    </defs>
    <g id="Page-1" stroke="none" stroke-width="1" fill="none" fill-rule="evenodd">
        <g id="AASSOCP_LandingPage_Laptop" transform="translate(-811.000000, -560.000000)" fill-rule="nonzero">
            <g id="Group-27" transform="translate(775.000000, 560.000000)">
                <g id="Group-2" transform="translate(3.000000, 0.000000)">
                    <g id="American_Logo_001" transform="translate(33.000000, 0.000000)">
                        <path d="M31.2709447,27.7308378 L31.2709447,27.8827965 L31.0341758,27.8827965 L31.0341758,28.9108734 L30.9178964,28.9108734 L30.9178964,27.8827965 L30.6809269,27.8827965 L30.6809269,27.7308378 L31.2709447,27.7308378 Z M31.6270934,27.7308378 L31.8596589,28.6722774 L31.8638305,28.6722774 L32.1005677,27.7308378 L32.298457,27.7308378 L32.4509804,28.9108734 L32.2945461,28.9108734 L32.1850422,27.9476631 L32.1819135,27.9476631 L31.9378761,28.9108734 L31.7684056,28.9108734 L31.5337543,27.9523703 L31.5295827,27.9523703 L31.4216431,28.9108734 L31.2709447,28.9108734 L31.4234681,27.7308378 L31.6270934,27.7308378 Z" id="Shape" fill="#FFFFFF"></path>
                        <g id="Group">
                            <path d="M16.8699949,27.2238202 C17.9565188,29.0388521 19.9659039,30.1041845 22.0864643,29.9894791 L30.9555161,29.9894791 L20.4916461,17.3536639 C15.6650438,17.5524668 13.1096638,20.6332349 13.633792,21.9234249 L16.8699949,27.2238202 Z" id="Shape" fill="#FFFFFF"></path>
                            <path d="M13.633792,21.9234249 C13.4480534,21.469184 13.3508151,20.9839631 13.347255,20.4935996 C13.347255,17.6089295 15.9175907,15.9559581 18.8397245,15.3592114 L20.4916461,17.354002 C15.6650438,17.5521287 13.1096638,20.6315444 13.633792,21.9234249 Z" id="Shape" fill="url(#radialGradient-1)"></path>
                            <path d="M17.6701232,12.5435138 C13.2588806,12.5435138 9.96455452,13.2663718 9.96455452,14.9835822 C9.96455452,15.6148151 10.1633969,16.1635516 10.7024808,17.1288274 L13.6341319,21.9224106 C13.4483933,21.4681697 13.351155,20.9829488 13.3475949,20.4925853 C13.3475949,17.6079152 15.9179306,15.9549438 18.8400644,15.3581971 C19.6855895,15.1865459 20.5464258,15.1005673 21.4093804,15.1015792 C22.0518851,15.0719081 22.6949269,15.1474077 23.3128292,15.3250633 C23.0092971,14.2218427 22.2027107,12.5435138 17.6701232,12.5435138 Z" id="Shape" fill="#FFFFFF"></path>
                            <path d="M6.06452387,9.55437079 C7.27763259,11.5322564 7.72698247,12.0258825 10.6144463,12.0296016 L16.1313888,12.0296016 L8.52609106,2.47489275 C6.84663739,0.410453524 5.88029722,0.0321195097 4.33884358,0 L0.217197105,0 L6.06452387,9.55437079 Z" id="Shape" fill="#FFFFFF"></path>
                        </g>
                    </g>
                </g>
            </g>
        </g>
    </g>
</svg>