<?xml version="1.0" encoding="utf-8"?>
<!-- Generator: Adobe Illustrator 22.0.1, SVG Export Plug-In . SVG Version: 6.00 Build 0)  -->
<svg version="1.1" id="icons" xmlns="http://www.w3.org/2000/svg" xmlns:xlink="http://www.w3.org/1999/xlink" x="0px" y="0px"
	 viewBox="0 0 50 50" style="enable-background:new 0 0 50 50;" xml:space="preserve">
<style type="text/css">
	.st0{fill:#0061A0;}
	.st1{fill:#F9C900;}
	.st2{fill:#C8C8C8;}
</style>
<g>
	<g>
		<path class="st0" d="M25.8,35.8c0,0.4,0.3,0.6,0.6,0.6c0.4,0,0.6-0.3,0.6-0.6V30c0-0.4-0.3-0.6-0.6-0.6c-0.4,0-0.6,0.3-0.6,0.6
			V35.8z"/>
	</g>
	<g>
		<path class="st1" d="M9.1,21.3c-1.6-0.5-2.9-1.5-3.7-3c-0.1-0.1,0-0.3,0.2-0.3c4.4-0.3,8-3.8,8.2-8.3c0-0.1,0.1-0.3,0.3-0.2
			c1.1,0.6,1.9,1.4,2.5,2.4c0.1,0.2,0.1,0.4-0.1,0.5c-0.1,0.1-0.2,0.2-0.3,0.3c0.5-0.4,1.1-0.9,1.8-1.3c-0.2,0-0.3-0.1-0.4-0.2
			c-0.9-1.6-2.4-2.8-4.3-3.4H13c-0.3-0.1-0.6,0.1-0.6,0.4v0.3c0,0.2,0,0.5,0,0.7c0,4.1-3.4,7.5-7.5,7.5c-0.2,0-0.5,0-0.7,0H3.9
			c-0.3,0-0.5,0.3-0.4,0.6l0.1,0.3c0.7,2.1,2.1,3.7,4,4.6c0.1,0.1,0.1,0.1,0.1,0.2c0.4-0.3,1-0.7,1.7-1C9.3,21.4,9.2,21.3,9.1,21.3z
			"/>
		<path class="st2" d="M29.6,31.7h3.5c4.1,0,7.4-3.3,7.4-7.4c0.1-3.2-2.2-6-5.3-6.9c-0.1,0-0.2,0-0.2-0.1c-0.1,0-0.3-0.1-0.4-0.1
			c-0.2,0-0.5-0.1-0.7-0.1c-0.2,0-0.4-0.1-0.5-0.3c-1.7-4.1-5.6-6.8-10.1-6.8c-0.5,0-0.9,0-1.4,0.1c0,0-0.1,0-0.1,0
			c-1.3,0.2-2.5,0.6-3.6,1.2c0,0-0.1,0-0.1,0c-0.7,0.4-1.3,0.9-1.8,1.3c-2.2,2.1-3.8,4.9-3.8,8.1c0,0.2-0.2,0.3-0.4,0.3
			s-0.4,0-0.6,0c-0.6,0-1.1,0.1-1.6,0.2c-0.1,0.1-0.3,0.1-0.4,0.1c-0.6,0.3-1.2,0.7-1.7,1c0,0,0,0.1,0,0.1c-1.1,1-1.8,2.4-1.8,4
			c0,1.5,0.6,2.8,1.5,3.8c1,0.9,2.3,1.5,3.8,1.5h4.2c0.4,0,0.6-0.3,0.6-0.6c0-0.2-0.1-0.3-0.1-0.4c-0.1-0.1-0.2-0.1-0.4-0.1h-4.2
			c-1.2,0-2.2-0.5-3-1.3c-0.8-0.8-1.3-1.8-1.3-3c0-2.3,1.9-4.2,4.2-4.2c0.5,0,1,0.1,1.4,0.3l0.4,0.1c0.3,0.1,0.6-0.1,0.5-0.4v-0.4
			c0-0.3,0-0.5,0-0.8c0,0,0-0.1,0-0.1c0-5.3,4.3-9.6,9.6-9.6c4.1,0,7.7,2.6,9.1,6.4c0.1,0.4,0.5,0.6,0.9,0.6c3.4,0,6.1,2.7,6.1,6.1
			c0,0,0,0,0,0c0,0,0,0,0,0c0,3.4-2.7,6.1-6.1,6.1h-3.5c-0.4,0-0.6,0.3-0.6,0.5C29,31.5,29.3,31.7,29.6,31.7z"/>
	</g>
	<g>
		<path class="st0" d="M23.3,27.4c0-0.3-0.3-0.6-0.6-0.6c-0.4,0-0.6,0.3-0.6,0.6v8.5c0,0.4,0.3,0.6,0.6,0.6l0,0
			c0.4,0,0.6-0.3,0.6-0.6V27.4z"/>
		<path class="st0" d="M22,45.1c0,0.4,0.3,0.6,0.6,0.6c0.4,0,0.6-0.3,0.6-0.6v-2.8c0-0.3-0.4-0.5-0.6-0.2L22.1,43
			C22,43.1,22,43.3,22,43.4V45.1z"/>
		<path class="st1" d="M23.6,37.4h-0.3H22h-1.8c-0.2,0-0.3-0.1-0.3-0.3l0.8-6.1c0-0.2-0.2-0.2-0.3-0.1l-7.3,10.4
			c-0.2,0.2,0,0.5,0.3,0.5h4.1c0.2,0,0.3,0.1,0.3,0.3L17,48.2c0,0.2,0.2,0.2,0.3,0.1l4.8-7.5l1.3-2l0.6-0.9
			C24,37.7,23.8,37.4,23.6,37.4z M21.7,38.9L19,43c0,0.1-0.1,0-0.1,0l0.2-1.8c0-0.3-0.2-0.6-0.6-0.6h-3.1c-0.1,0-0.2-0.2-0.1-0.3
			l3.3-4.7c0-0.1,0.2,0,0.1,0.1L18.5,38c0,0.3,0.2,0.6,0.6,0.6h2.5C21.7,38.7,21.8,38.8,21.7,38.9z"/>
	</g>
	<g>
		<path class="st2" d="M38.8,18c-0.4,0-0.7-0.3-0.8-0.6c-0.1-0.3,0.1-0.6,0.4-0.6h5c1.6,0,2.9-1.3,2.9-2.9S45,11,43.4,11
			c-0.3,0-0.5,0-0.8,0.1l-0.3,0.1c-0.3,0.1-0.6-0.1-0.5-0.4v-0.3c0-0.3,0-0.5,0-0.8c0-3.9-3.2-7-7-7c-3.1,0-5.8,2-6.7,4.9
			C28,8,27.6,8.2,27.3,8.2c-0.7,0-1.3,0.3-1.9,0.6C25,9,24.6,9.2,24.2,9.3c-0.3,0.1-0.5,0.1-0.8,0.2c-0.2,0.1-0.4-0.2-0.3-0.4
			C23.9,8,25.2,7.2,26.6,7c0.2,0,0.3-0.2,0.4-0.3c1.2-3.1,4.3-5.3,7.7-5.3c4.5,0,8.2,3.6,8.3,8c0,0.2,0.2,0.3,0.3,0.3
			c2.3,0,4.2,1.9,4.2,4.2s-1.9,4.2-4.2,4.2L38.8,18L38.8,18z"/>
	</g>
</g>
</svg>
