<?xml version="1.0" encoding="utf-8"?>
<!-- Generator: Adobe Illustrator 22.0.1, SVG Export Plug-In . SVG Version: 6.00 Build 0)  -->
<svg version="1.1" id="icons" xmlns="http://www.w3.org/2000/svg" xmlns:xlink="http://www.w3.org/1999/xlink" x="0px" y="0px"
	 viewBox="0 0 50 50" style="enable-background:new 0 0 50 50;" xml:space="preserve">
<style type="text/css">
	.st0{fill:#7C7C7C;}
	.st1{fill:#F9C900;}
	.st2{fill:#6F5E68;}
	.st3{fill:#C8C8C8;}
	.st4{fill:#FFFFFF;}
	.st5{fill:#0061A0;}
	.st6{fill:none;}
	.st7{fill:#009FE3;}
</style>
<g>
	<g>
		<path class="st3" d="M5.8,28.8c0,0.4,0.3,0.7,0.7,0.7h36.6c0.4,0,0.7-0.2,0.8-0.6c0.2-0.7,0.3-1.5,0.3-2.3c0-4.2-3.3-7.7-7.5-8
			c-0.2,0-0.4-0.2-0.4-0.3c-1.8-4.4-6.1-7.4-11-7.4c-6.4,0-11.6,5.1-11.8,11.4c0,0.2-0.2,0.3-0.3,0.2c-0.4-0.1-0.9-0.1-1.3-0.1
			c-3.4,0-6.1,2.7-6.1,6.1C5.8,28.6,5.8,28.7,5.8,28.8z M11.9,23.7c0.7,0,1.4,0.2,2,0.4l0.4,0.2c0.3,0.1,0.6-0.1,0.5-0.4l0-0.4
			c0-0.3,0-0.5,0-0.8c0-5.8,4.7-10.6,10.6-10.6c4.5,0,8.5,2.8,10,7.1c0.1,0.4,0.4,0.6,0.8,0.6c0,0,0.1,0,0.1,0c3.7,0,6.7,3,6.7,6.7
			c0,0.4,0,0.9-0.1,1.3c0,0.2-0.2,0.3-0.4,0.3h-35c-0.2,0-0.3-0.2-0.3-0.3C7.4,25.5,9.5,23.7,11.9,23.7z"/>
	</g>
	<g>
		<path class="st3" d="M10.9,32c0,0.4,0.3,0.6,0.6,0.6h32c0.4,0,0.6-0.3,0.6-0.6c0-0.4-0.3-0.6-0.6-0.6h-32
			C11.2,31.4,10.9,31.7,10.9,32z"/>
	</g>
	<g>
		<path class="st3" d="M10.9,38.5c0,0.4,0.3,0.6,0.6,0.6h32c0.4,0,0.6-0.3,0.6-0.6c0-0.4-0.3-0.6-0.6-0.6h-32
			C11.2,37.8,10.9,38.1,10.9,38.5z"/>
	</g>
	<g>
		<path class="st3" d="M39.1,35.2c0-0.4-0.3-0.6-0.6-0.6h-32c-0.4,0-0.6,0.3-0.6,0.6c0,0.4,0.3,0.6,0.6,0.6h32
			C38.8,35.9,39.1,35.6,39.1,35.2z"/>
	</g>
</g>
</svg>
