<?xml version="1.0" encoding="utf-8"?>
<!-- Generator: Adobe Illustrator 22.0.1, SVG Export Plug-In . SVG Version: 6.00 Build 0)  -->
<svg version="1.1" id="icons" xmlns="http://www.w3.org/2000/svg" xmlns:xlink="http://www.w3.org/1999/xlink" x="0px" y="0px"
	 viewBox="0 0 50 50" style="enable-background:new 0 0 50 50;" xml:space="preserve">
<style type="text/css">
	.st0{fill:#009FE3;}
	.st1{fill:#F9C900;}
	.st2{fill:#C8C8C8;}
</style>
<g>
	<g>
		<path class="st0" d="M22.4,36.6c0.3-0.3,0.3-0.7,0-0.9c-0.3-0.3-0.7-0.3-0.9,0l-1.1,1.1c-0.1,0.1-0.2,0-0.2-0.1v-1.3
			c0-0.4-0.3-0.6-0.6-0.6c-0.4,0-0.6,0.3-0.6,0.6v1.3c0,0.1-0.1,0.2-0.2,0.1l-1.1-1.1c-0.3-0.3-0.7-0.3-0.9,0
			c-0.3,0.3-0.3,0.7,0,0.9l1.1,1.1c0.1,0.1,0,0.2-0.1,0.2h-1.3c-0.4,0-0.6,0.3-0.6,0.6c0,0.4,0.3,0.6,0.6,0.6h1.3
			c0.1,0,0.2,0.1,0.1,0.2l-1.1,1.1c-0.3,0.3-0.3,0.7,0,0.9c0.3,0.3,0.7,0.3,0.9,0l1.1-1.1c0.1-0.1,0.2,0,0.2,0.1v1.3
			c0,0.4,0.3,0.6,0.6,0.6c0.4,0,0.6-0.3,0.6-0.6v-1.3c0-0.1,0.1-0.2,0.2-0.1l1.1,1.1c0.3,0.3,0.7,0.3,0.9,0c0.3-0.3,0.3-0.7,0-0.9
			l-1.1-1.1c-0.1-0.1,0-0.2,0.1-0.2h1.3c0.4,0,0.6-0.3,0.6-0.6c0-0.4-0.3-0.6-0.6-0.6h-1.3c-0.1,0-0.2-0.1-0.1-0.2L22.4,36.6z"/>
	</g>
	<g>
		<path class="st0" d="M29.5,30.2c0.3-0.3,0.3-0.7,0-0.9c-0.3-0.3-0.7-0.3-0.9,0l-1.1,1.1c-0.1,0.1-0.2,0-0.2-0.1V29
			c0-0.4-0.3-0.6-0.6-0.6c-0.4,0-0.6,0.3-0.6,0.6v1.3c0,0.1-0.1,0.2-0.2,0.1l-1.1-1.1c-0.3-0.3-0.7-0.3-0.9,0
			c-0.3,0.3-0.3,0.7,0,0.9l1.1,1.1c0.1,0.1,0,0.2-0.1,0.2h-1.3c-0.4,0-0.6,0.3-0.6,0.6c0,0.4,0.3,0.6,0.6,0.6h1.3
			c0.1,0,0.2,0.1,0.1,0.2L23.9,34c-0.3,0.3-0.3,0.7,0,0.9c0.3,0.3,0.7,0.3,0.9,0l1.1-1.1c0.1-0.1,0.2,0,0.2,0.1v1.3
			c0,0.4,0.3,0.6,0.6,0.6c0.4,0,0.6-0.3,0.6-0.6v-1.3c0-0.1,0.1-0.2,0.2-0.1l1.1,1.1c0.3,0.3,0.7,0.3,0.9,0c0.3-0.3,0.3-0.7,0-0.9
			l-1.1-1.1c-0.1-0.1,0-0.2,0.1-0.2h1.3c0.4,0,0.6-0.3,0.6-0.6c0-0.4-0.3-0.6-0.6-0.6h-1.3c-0.1,0-0.2-0.1-0.1-0.2L29.5,30.2z"/>
	</g>
	<g>
		<path class="st0" d="M29.5,43c0.3-0.3,0.3-0.7,0-0.9c-0.3-0.3-0.7-0.3-0.9,0l-1.1,1.1c-0.1,0.1-0.2,0-0.2-0.1v-1.3
			c0-0.4-0.3-0.6-0.6-0.6c-0.4,0-0.6,0.3-0.6,0.6v1.3c0,0.1-0.1,0.2-0.2,0.1l-1.1-1.1c-0.3-0.3-0.7-0.3-0.9,0
			c-0.3,0.3-0.3,0.7,0,0.9l1.1,1.1c0.1,0.1,0,0.2-0.1,0.2h-1.3c-0.4,0-0.6,0.3-0.6,0.6s0.3,0.6,0.6,0.6h1.3c0.1,0,0.2,0.1,0.1,0.2
			L23.7,47c-0.3,0.3-0.3,0.7,0,0.9c0.3,0.3,0.7,0.3,0.9,0l1.1-1.1c0.1-0.1,0.2,0,0.2,0.1v1.3c0,0.4,0.3,0.6,0.6,0.6
			c0.4,0,0.6-0.3,0.6-0.6v-1.3c0-0.1,0.1-0.2,0.2-0.1l1.1,1.1c0.3,0.3,0.7,0.3,0.9,0c0.3-0.3,0.3-0.7,0-0.9l-1.1-1.1
			c-0.1-0.1,0-0.2,0.1-0.2h1.3c0.4,0,0.6-0.3,0.6-0.6s-0.3-0.6-0.6-0.6h-1.3c-0.1,0-0.2-0.1-0.1-0.2L29.5,43z"/>
	</g>
	<g>
		<path class="st1" d="M11.4,32.2c-3,0-5.4-2.4-5.4-5.4c0-1.3,0.5-2.5,1.2-3.4c0.2-0.2,1.1-1.2,2.3-1.7c0.1,0,0.2-0.1,0.3-0.1
			c-0.1,0-0.3,0.1-0.4,0.1c-0.2,0.1-0.4,0.1-0.6,0.1c-2-0.3-3.7-1.5-4.7-3.2c-0.1-0.1,0-0.3,0.2-0.3c4.4-0.3,8-3.8,8.2-8.3
			c0-0.2,0.2-0.2,0.3-0.2c1.3,0.7,2.3,1.9,2.9,3.3c0.1,0.2,0,0.3-0.1,0.5c-1.8,1.9-3,4.5-3.1,7.4c0,0.1,0,0.2-0.1,0.2
			c0.1-0.1,0.1-0.1,0.1-0.2c0.1-2.9,1.3-5.5,3.2-7.4c0.3-0.4,0.8-0.8,1.3-1.2c-0.1,0-0.1-0.1-0.2-0.1c-0.9-1.9-2.5-3.4-4.7-4.1
			l-0.3-0.1c-0.3-0.1-0.6,0.1-0.6,0.4v0.3c0,0.2,0,0.5,0,0.7c0,4.1-3.4,7.5-7.5,7.5c-0.2,0-0.5,0-0.7,0H2.7c-0.3,0-0.6,0.3-0.5,0.6
			l0.1,0.2c0.8,2.4,2.6,4.2,4.9,5c0.1,0,0.3,0.2,0.2,0.3c-0.9,1-1.4,2.3-1.4,3.7C6,29.8,8.4,32.2,11.4,32.2l3.5,0
			c0.2,0,0.4-0.1,0.5-0.2c-0.1,0.1-0.2,0.2-0.4,0.2H11.4z"/>
		<path class="st2" d="M32.9,31.6c0,0.3,0.2,0.5,0.5,0.5h0.5c0,0,0,0,0.1,0c3.7-0.4,6.6-3.5,6.6-7.3c0-3.7-3-6.9-6.7-7.2
			c-0.2,0-0.4-0.1-0.5-0.3c-1.7-4.1-5.6-6.8-10.1-6.8c-2,0-3.9,0.6-5.5,1.5c-0.2,0.1-0.4,0.3-0.6,0.4c-0.1,0.1-0.1,0-0.2,0
			c-0.5,0.4-1,0.8-1.3,1.2c-1.9,1.9-3.1,4.5-3.2,7.4c0,0.1-0.1,0.2-0.1,0.2c-0.1,0.1-0.2,0.1-0.3,0.1c-0.2,0-0.4,0-0.6,0
			c-0.6,0-1.2,0.1-1.7,0.3c-0.1,0-0.2,0.1-0.3,0.1c-1.2,0.5-2.1,1.5-2.3,1.7C6.5,24.3,6,25.5,6,26.8c0,3,2.4,5.4,5.4,5.4h3.5
			c0.2,0,0.3-0.1,0.4-0.2c0.1-0.1,0.1-0.3,0.1-0.4c0-0.4-0.3-0.6-0.6-0.6h-3.5c-2.3,0-4.2-1.9-4.2-4.2c0-1.2,0.5-2.2,1.2-3
			c0.8-0.8,1.8-1.2,3-1.2c0.5,0,1,0.1,1.4,0.3l0.4,0.1c0.1,0,0.3,0,0.4,0c0.1-0.1,0.1-0.2,0.1-0.3v-0.4c0-0.3-0.1-0.6-0.1-0.9
			c0-2.7,1.1-5.1,2.8-6.8c1.7-1.7,4.1-2.8,6.8-2.8c4.1,0,7.7,2.6,9.1,6.4c0.1,0.4,0.5,0.6,0.9,0.6c3.4,0,6.1,2.7,6.1,6.1
			c0,1.7-0.7,3.1-1.7,4.2c-1.1,1.1-2.5,1.8-4.1,1.9c-0.1,0-0.3,0.1-0.4,0.2C33,31.2,32.9,31.3,32.9,31.6L32.9,31.6z"/>
	</g>
	<g>
		<path class="st2" d="M38.8,17.8c-0.4,0-0.7-0.3-0.8-0.6c-0.1-0.3,0.1-0.6,0.4-0.6h5c1.6,0,2.9-1.3,2.9-2.9s-1.3-2.9-2.9-2.9
			c-0.3,0-0.5,0-0.8,0.1L42.3,11c-0.3,0.1-0.6-0.1-0.5-0.4v-0.3c0-0.3,0-0.5,0-0.8c0-3.9-3.2-7-7-7c-3.1,0-5.8,2-6.7,4.9
			C27.9,7.7,27.6,8,27.2,8c-0.7,0-1.3,0.3-1.9,0.6C25,8.8,24.6,9,24.1,9.1c-0.3,0.1-0.5,0.1-0.8,0.2c-0.2,0.1-0.4-0.2-0.3-0.4
			c0.8-1.1,2.1-1.9,3.5-2.1c0.2,0,0.3-0.2,0.4-0.3c1.2-3.1,4.3-5.3,7.7-5.3c4.5,0,8.2,3.6,8.3,8c0,0.2,0.2,0.3,0.3,0.3
			c2.3,0,4.2,1.9,4.2,4.2s-1.9,4.2-4.2,4.2h-4.4V17.8z"/>
	</g>
</g>
</svg>
