<?xml version="1.0" encoding="utf-8"?>
<!-- Generator: Adobe Illustrator 22.0.1, SVG Export Plug-In . SVG Version: 6.00 Build 0)  -->
<svg version="1.1" id="icons" xmlns="http://www.w3.org/2000/svg" xmlns:xlink="http://www.w3.org/1999/xlink" x="0px" y="0px"
	 viewBox="0 0 50 50" style="enable-background:new 0 0 50 50;" xml:space="preserve">
<style type="text/css">
	.st0{fill:#F9C900;}
	.st1{fill:#C8C8C8;}
</style>
<g>
	<g>
		<path class="st0" d="M14.6,16.7c0-0.4-0.3-0.6-0.6-0.6c-0.4,0-0.6,0.3-0.6,0.6v2.6c0,0.4,0.3,0.6,0.6,0.6c0.4,0,0.6-0.3,0.6-0.6
			V16.7z"/>
	</g>
	<g>
		<path class="st0" d="M6.2,27.6c0-0.4-0.3-0.6-0.6-0.6H3c-0.4,0-0.6,0.3-0.6,0.6c0,0.4,0.3,0.6,0.6,0.6h2.6
			C5.9,28.2,6.2,27.9,6.2,27.6z"/>
	</g>
	<g>
		<path class="st0" d="M8.5,22.1c0.3-0.3,0.3-0.7,0-0.9l-1.8-1.8c-0.3-0.3-0.7-0.3-0.9,0c-0.3,0.3-0.3,0.7,0,0.9l1.8,1.8
			C7.8,22.4,8.2,22.4,8.5,22.1z"/>
	</g>
	<g>
		<path class="st0" d="M9.2,29.8c-0.3-0.7-0.5-1.4-0.5-2.1c0.1-2.9,2.4-5.2,5.2-5.2c0.3,0,0.6,0,0.9,0.1c0.1,0,0.1,0.1,0.1,0.1
			c0.3-0.4,0.7-0.9,1.3-1.3l0.1-0.1c-0.2,0.1-0.3,0.2-0.5,0.2c-0.6-0.2-1.3-0.3-1.9-0.3c-3.5,0-6.4,2.9-6.4,6.4c0,1,0.2,2,0.7,2.8
			c0.1,0.1,0,0.2,0,0.3c0.3-0.3,0.7-0.5,1.2-0.7C9.3,30,9.3,29.9,9.2,29.8z"/>
		<path class="st1" d="M34.1,25.7c-0.2,0-0.4-0.1-0.5-0.3c-1.7-4.1-5.6-6.8-10.1-6.8c-2.7,0-5.2,1-7.2,2.7l-0.1,0.1
			c-0.5,0.4-1,0.9-1.3,1.3c0,0.1,0,0.1,0,0.2c-1.4,1.8-2.2,4-2.3,6.4c0,0.2-0.2,0.3-0.4,0.3c0,0-0.1,0-0.1,0c-0.2,0-0.3,0-0.5,0
			c-0.7,0-1.4,0.1-2,0.4c-0.1,0-0.2,0-0.2,0c-0.5,0.2-0.9,0.5-1.2,0.7c0,0.1-0.1,0.1-0.1,0.2c-1.1,1-1.8,2.5-1.8,4.1
			c0,3,2.4,5.4,5.4,5.4h21.8c2,0,3.9-0.8,5.2-2.1c1.3-1.3,2.1-3.2,2.1-5.2C40.8,29.2,37.9,26,34.1,25.7z M33.5,39.1H11.7
			c-2.3,0-4.2-1.9-4.2-4.2c0-2.3,1.9-4.2,4.2-4.2c0.5,0,1,0.1,1.4,0.3l0.4,0.1c0.3,0.1,0.6-0.1,0.5-0.4v-0.4c0-0.3-0.1-0.6-0.1-0.9
			c0-5.3,4.3-9.6,9.6-9.6c0,0,0,0,0.1,0c0,0,0,0,0,0c4.1,0,7.7,2.6,9.1,6.4c0.1,0.4,0.5,0.6,0.9,0.6c3.4,0,6.1,2.7,6.1,6.1
			C39.5,36.4,36.8,39.1,33.5,39.1z"/>
	</g>
	<g>
		<path class="st1" d="M38.9,26.3c-0.4,0-0.7-0.3-0.8-0.6c-0.1-0.3,0.1-0.6,0.4-0.6h5c1.6,0,2.9-1.3,2.9-2.9s-1.3-2.9-2.9-2.9
			c-0.3,0-0.5,0-0.8,0.1l-0.3,0.1c-0.3,0.1-0.6-0.1-0.5-0.4v-0.3c0-0.3,0-0.5,0-0.8c0-3.9-3.2-7-7-7c-3.1,0-5.8,2-6.7,4.9
			c-0.1,0.4-0.5,0.6-0.8,0.6c-0.7,0-1.3,0.3-1.9,0.6c-0.4,0.2-0.8,0.4-1.2,0.5c-0.3,0.1-0.5,0.1-0.8,0.2c-0.2,0.1-0.4-0.2-0.3-0.4
			c0.8-1.1,2.1-1.9,3.5-2.1c0.2,0,0.3-0.2,0.4-0.3c1.2-3.1,4.3-5.3,7.7-5.3c4.5,0,8.2,3.6,8.3,8c0,0.2,0.2,0.3,0.3,0.3
			c2.3,0,4.2,1.9,4.2,4.2s-1.9,4.2-4.2,4.2h-4.5V26.3z"/>
	</g>
</g>
</svg>
