<?xml version="1.0" encoding="UTF-8"?>
<svg width="17px" height="15px" viewBox="0 0 17 15" version="1.1" xmlns="http://www.w3.org/2000/svg" xmlns:xlink="http://www.w3.org/1999/xlink">
    <!-- Generator: sketchtool 52 (66869) - http://www.bohemiancoding.com/sketch -->
    <title>7DB2683E-1398-4F8E-A8D2-E8E368EADB7F</title>
    <desc>Created with sketchtool.</desc>
    <g id="Page-1" stroke="none" stroke-width="1" fill="none" fill-rule="evenodd">
        <g id="AASSOCP_Weather_Dashboard1_Laptop" transform="translate(-219.000000, -189.000000)" fill="#FFFFFF">
            <polygon id="Triangle-Copy-2" transform="translate(227.500000, 196.500000) rotate(180.000000) translate(-227.500000, -196.500000) " points="227.5 204 219 189 236 189"></polygon>
        </g>
    </g>
</svg>