<?xml version="1.0" encoding="utf-8"?>
<!-- Generator: Adobe Illustrator 22.0.1, SVG Export Plug-In . SVG Version: 6.00 Build 0)  -->
<svg version="1.1" id="icons" xmlns="http://www.w3.org/2000/svg" xmlns:xlink="http://www.w3.org/1999/xlink" x="0px" y="0px"
	 viewBox="0 0 50 50" style="enable-background:new 0 0 50 50;" xml:space="preserve">
<style type="text/css">
	.st0{fill:#7C7C7C;}
	.st1{fill:#F9C900;}
	.st2{fill:#6F5E68;}
	.st3{fill:#C8C8C8;}
	.st4{fill:#FFFFFF;}
	.st5{fill:#0061A0;}
	.st6{fill:none;}
	.st7{fill:#009FE3;}
</style>
<g>
	<path class="st6" d="M15.2,22.4c0.1-0.1,0.2-0.2,0.3-0.3c-0.1,0.1-0.1,0.1-0.1,0.1L15.2,22.4z"/>
	<path class="st6" d="M33.4,26.9c-0.4,0-0.7-0.2-0.9-0.6c-1.3-3.9-5-6.4-9.1-6.4c-5.3,0-9.6,4.3-9.6,9.6c0,0.3,0,0.5,0.1,0.9l0,0.4
		c0,0.3-0.3,0.5-0.5,0.4L13.1,31c-0.5-0.2-1-0.3-1.4-0.3c-2.3,0-4.2,1.9-4.2,4.2c0,2.3,1.9,4.2,4.2,4.2h21.8c3.4,0,6.1-2.7,6.1-6.1
		C39.5,29.7,36.8,26.9,33.4,26.9z"/>
	<path class="st3" d="M34.1,25.7c-0.2,0-0.4-0.1-0.5-0.3c-1.7-4.1-5.6-6.8-10.1-6.8c-2.4,0-4.6,0.8-6.4,2.1c0,0,0,0,0,0
		c-0.6,0.5-1.3,1.1-1.6,1.4c-0.1,0.1-0.2,0.2-0.3,0.3l-0.4,0.4c-1.4,1.8-2.2,4-2.3,6.4c0,0.2-0.2,0.3-0.4,0.3c-0.2,0-0.4,0-0.6,0
		c-1.1,0-2.1,0.3-2.9,0.9c-0.8,0.6-1.4,1.3-1.7,1.8c-0.5,0.8-0.8,1.8-0.8,2.8c0,3,2.4,5.4,5.4,5.4h21.8c4.1,0,7.4-3.3,7.4-7.4
		C40.8,29.2,37.8,26,34.1,25.7z M33.4,39.1H11.6c-2.3,0-4.2-1.9-4.2-4.2c0-2.3,1.9-4.2,4.2-4.2c0.5,0,1,0.1,1.4,0.3l0.4,0.1
		c0.3,0.1,0.6-0.1,0.5-0.4l0-0.4c0-0.3-0.1-0.6-0.1-0.9c0-5.3,4.3-9.6,9.6-9.6c4.1,0,7.7,2.6,9.1,6.4c0.1,0.4,0.5,0.6,0.9,0.6
		c3.4,0,6.1,2.7,6.1,6.1C39.5,36.4,36.8,39.1,33.4,39.1z"/>
	<path class="st2" d="M15.2,22.4c-0.1,0.1-0.2,0.3-0.4,0.4L15.2,22.4z"/>
	<path class="st1" d="M8.7,30.4c-0.2,0.1-0.4,0.1-0.6,0.1c-1.6-0.5-3-1.5-3.8-3c-0.1-0.1,0-0.3,0.2-0.3c4.4-0.3,8-3.8,8.2-8.3
		c0-0.1,0.1-0.3,0.3-0.2c1.2,0.6,2.1,1.6,2.7,2.8c0.1,0.1,0,0.3-0.1,0.4c0,0-0.1,0.1-0.1,0.1c0.3-0.3,0.9-0.9,1.6-1.4
		c-0.1,0.1-0.3,0-0.4-0.1c-0.9-1.7-2.5-3-4.4-3.6L12,16.9c-0.3-0.1-0.6,0.1-0.6,0.4l0,0.3c0,0.2,0,0.5,0,0.7c0,4.1-3.4,7.5-7.5,7.5
		c-0.2,0-0.5,0-0.7,0l-0.3,0c-0.3,0-0.5,0.3-0.4,0.6l0.1,0.3c0.7,2.2,2.4,4,4.4,4.8c0.2,0.1,0.2,0.3,0.1,0.4C7.1,31.9,7.1,32,7,32.1
		C7.3,31.7,7.9,30.9,8.7,30.4z"/>
	<g>
		<path class="st3" d="M38.8,26.3c-0.4,0-0.7-0.3-0.8-0.6c-0.1-0.3,0.1-0.6,0.4-0.6h5c1.6,0,2.9-1.3,2.9-2.9c0-1.6-1.3-2.9-2.9-2.9
			c-0.3,0-0.5,0-0.8,0.1l-0.3,0.1c-0.3,0.1-0.6-0.1-0.5-0.4l0-0.3c0-0.3,0-0.5,0-0.8c0-3.9-3.2-7-7-7c-3.1,0-5.8,2-6.7,4.9
			c-0.1,0.4-0.5,0.6-0.8,0.6c-0.7,0-1.3,0.3-1.9,0.6c-0.4,0.2-0.8,0.4-1.2,0.5c-0.3,0.1-0.5,0.1-0.8,0.2c-0.2,0.1-0.4-0.2-0.3-0.4
			c0.8-1.1,2.1-1.9,3.5-2.1c0.2,0,0.3-0.2,0.4-0.3c1.2-3.1,4.3-5.3,7.7-5.3c4.5,0,8.2,3.6,8.3,8c0,0.2,0.2,0.3,0.3,0.3
			c2.3,0,4.2,1.9,4.2,4.2c0,2.3-1.9,4.2-4.2,4.2H38.8z"/>
	</g>
</g>
</svg>
