<?xml version="1.0" encoding="utf-8"?>
<!-- Generator: Adobe Illustrator 22.0.1, SVG Export Plug-In . SVG Version: 6.00 Build 0)  -->
<svg version="1.1" id="icons" xmlns="http://www.w3.org/2000/svg" xmlns:xlink="http://www.w3.org/1999/xlink" x="0px" y="0px"
	 viewBox="0 0 50 50" style="enable-background:new 0 0 50 50;" xml:space="preserve">
<style type="text/css">
	.st0{fill:#7C7C7C;}
	.st1{fill:#F9C900;}
	.st2{fill:#6F5E68;}
	.st3{fill:#C8C8C8;}
	.st4{fill:#FFFFFF;}
	.st5{fill:#0061A0;}
	.st6{fill:none;}
	.st7{fill:#009FE3;}
</style>
<g>
	<g>
		<path class="st3" d="M38.9,24.7c0-3.9-3-7-6.7-7.3c-0.2,0-0.4-0.1-0.5-0.3C30,13,26,10.3,21.6,10.3c-5.9,0-10.7,4.7-10.9,10.6
			c0,0.2-0.2,0.3-0.4,0.3c-0.2,0-0.4,0-0.6,0c-3,0-5.4,2.4-5.4,5.4s2.4,5.4,5.4,5.4h3.5c0.4,0,0.6-0.3,0.6-0.6
			c0-0.4-0.3-0.6-0.6-0.6H9.7c-2.3,0-4.2-1.9-4.2-4.2s1.9-4.2,4.2-4.2c0.5,0,1,0.1,1.4,0.3l0.4,0.1c0.3,0.1,0.6-0.1,0.5-0.4l0-0.4
			c0-0.3-0.1-0.6-0.1-0.9c0-5.3,4.3-9.6,9.6-9.6c4.1,0,7.7,2.6,9.1,6.4c0.1,0.4,0.5,0.6,0.9,0.6c3.4,0,6.1,2.7,6.1,6.1
			c0,3.3-2.6,5.9-5.8,6.1c-0.3,0-0.6,0.3-0.6,0.6v0.1c0,0.3,0.2,0.5,0.5,0.5h0.5c0,0,0,0,0,0c0,0,0,0,0.1,0
			C36,31.6,38.9,28.5,38.9,24.7z"/>
	</g>
	<g>
		<path class="st7" d="M20.6,36.5c0.3-0.3,0.3-0.7,0-0.9c-0.3-0.3-0.7-0.3-0.9,0l-1.1,1.1c-0.1,0.1-0.2,0-0.2-0.1v-1.3
			c0-0.4-0.3-0.6-0.6-0.6c-0.4,0-0.6,0.3-0.6,0.6v1.3c0,0.1-0.1,0.2-0.2,0.1l-1.1-1.1c-0.3-0.3-0.7-0.3-0.9,0
			c-0.3,0.3-0.3,0.7,0,0.9l1.1,1.1c0.1,0.1,0,0.2-0.1,0.2h-1.3c-0.4,0-0.6,0.3-0.6,0.6s0.3,0.6,0.6,0.6h1.3c0.1,0,0.2,0.1,0.1,0.2
			l-1.1,1.1c-0.3,0.3-0.3,0.7,0,0.9c0.3,0.3,0.7,0.3,0.9,0l1.1-1.1c0.1-0.1,0.2,0,0.2,0.1v1.3c0,0.4,0.3,0.6,0.6,0.6
			c0.4,0,0.6-0.3,0.6-0.6v-1.3c0-0.1,0.1-0.2,0.2-0.1l1.1,1.1c0.3,0.3,0.7,0.3,0.9,0c0.3-0.3,0.3-0.7,0-0.9l-1.1-1.1
			c-0.1-0.1,0-0.2,0.1-0.2h1.3c0.4,0,0.6-0.3,0.6-0.6s-0.3-0.6-0.6-0.6h-1.3c-0.1,0-0.2-0.1-0.1-0.2L20.6,36.5z"/>
	</g>
	<g>
		<path class="st7" d="M27.7,30.1c0.3-0.3,0.3-0.7,0-0.9c-0.3-0.3-0.7-0.3-0.9,0l-1.1,1.1c-0.1,0.1-0.2,0-0.2-0.1v-1.3
			c0-0.4-0.3-0.6-0.6-0.6c-0.4,0-0.6,0.3-0.6,0.6v1.3c0,0.1-0.1,0.2-0.2,0.1l-1.1-1.1c-0.3-0.3-0.7-0.3-0.9,0
			c-0.3,0.3-0.3,0.7,0,0.9l1.1,1.1c0.1,0.1,0,0.2-0.1,0.2h-1.3c-0.4,0-0.6,0.3-0.6,0.6c0,0.4,0.3,0.6,0.6,0.6h1.3
			c0.1,0,0.2,0.1,0.1,0.2l-1.1,1.1c-0.3,0.3-0.3,0.7,0,0.9c0.3,0.3,0.7,0.3,0.9,0l1.1-1.1c0.1-0.1,0.2,0,0.2,0.1v1.3
			c0,0.4,0.3,0.6,0.6,0.6c0.4,0,0.6-0.3,0.6-0.6V34c0-0.1,0.1-0.2,0.2-0.1l1.1,1.1c0.3,0.3,0.7,0.3,0.9,0c0.3-0.3,0.3-0.7,0-0.9
			L26.5,33c-0.1-0.1,0-0.2,0.1-0.2H28c0.4,0,0.6-0.3,0.6-0.6c0-0.4-0.3-0.6-0.6-0.6h-1.3c-0.1,0-0.2-0.1-0.1-0.2L27.7,30.1z"/>
	</g>
	<g>
		<path class="st7" d="M27.7,42.9c0.3-0.3,0.3-0.7,0-0.9c-0.3-0.3-0.7-0.3-0.9,0l-1.1,1.1c-0.1,0.1-0.2,0-0.2-0.1v-1.3
			c0-0.4-0.3-0.6-0.6-0.6c-0.4,0-0.6,0.3-0.6,0.6V43c0,0.1-0.1,0.2-0.2,0.1L22.8,42c-0.3-0.3-0.7-0.3-0.9,0c-0.3,0.3-0.3,0.7,0,0.9
			L23,44c0.1,0.1,0,0.2-0.1,0.2h-1.3c-0.4,0-0.6,0.3-0.6,0.6c0,0.4,0.3,0.6,0.6,0.6h1.3c0.1,0,0.2,0.1,0.1,0.2l-1.1,1.1
			c-0.3,0.3-0.3,0.7,0,0.9c0.3,0.3,0.7,0.3,0.9,0l1.1-1.1c0.1-0.1,0.2,0,0.2,0.1v1.3c0,0.4,0.3,0.6,0.6,0.6c0.4,0,0.6-0.3,0.6-0.6
			v-1.3c0-0.1,0.1-0.2,0.2-0.1l1.1,1.1c0.3,0.3,0.7,0.3,0.9,0c0.3-0.3,0.3-0.7,0-0.9l-1.1-1.1c-0.1-0.1,0-0.2,0.1-0.2H28
			c0.4,0,0.6-0.3,0.6-0.6c0-0.4-0.3-0.6-0.6-0.6h-1.3c-0.1,0-0.2-0.1-0.1-0.2L27.7,42.9z"/>
	</g>
	<g>
		<path class="st3" d="M37,17.9c-0.4,0-0.7-0.3-0.8-0.6c-0.1-0.3,0.1-0.6,0.4-0.6h5c1.6,0,2.9-1.3,2.9-2.9s-1.3-2.9-2.9-2.9
			c-0.3,0-0.5,0-0.8,0.1l-0.3,0.1c-0.3,0.1-0.6-0.1-0.5-0.4l0-0.3c0-0.3,0-0.5,0-0.8c0-3.9-3.2-7-7-7c-3.1,0-5.8,2-6.7,4.9
			c-0.1,0.4-0.5,0.6-0.8,0.6c-0.7,0-1.3,0.3-1.9,0.6c-0.4,0.2-0.8,0.4-1.2,0.5c-0.3,0.1-0.5,0.1-0.8,0.2c-0.2,0.1-0.4-0.2-0.3-0.4
			c0.8-1.1,2.1-1.9,3.5-2.1c0.2,0,0.3-0.2,0.4-0.3c1.2-3.1,4.3-5.3,7.7-5.3c4.5,0,8.2,3.6,8.3,8c0,0.2,0.2,0.3,0.3,0.3
			c2.3,0,4.2,1.9,4.2,4.2c0,2.3-1.9,4.2-4.2,4.2H37z"/>
	</g>
</g>
</svg>
