<?xml version="1.0" encoding="utf-8"?>
<!-- Generator: Adobe Illustrator 22.0.1, SVG Export Plug-In . SVG Version: 6.00 Build 0)  -->
<svg version="1.1" id="icons" xmlns="http://www.w3.org/2000/svg" xmlns:xlink="http://www.w3.org/1999/xlink" x="0px" y="0px"
	 viewBox="0 0 50 50" style="enable-background:new 0 0 50 50;" xml:space="preserve">
<style type="text/css">
	.st0{fill:#7C7C7C;}
	.st1{fill:#F9C900;}
	.st2{fill:#6F5E68;}
	.st3{fill:#C8C8C8;}
	.st4{fill:#FFFFFF;}
	.st5{fill:#0061A0;}
	.st6{fill:none;}
	.st7{fill:#009FE3;}
</style>
<g>
	<path class="st1" d="M21.4,33.7c-3.9-0.9-6.9-4.5-6.9-8.7c0-4.9,4-9,9-9c4.5,0,8.3,3.4,8.9,7.8c0.4-0.1,0.8-0.1,1.3-0.1
		c-0.6-5.1-4.9-9-10.2-9c-5.7,0-10.2,4.6-10.2,10.2c0,4.9,3.4,8.9,8,10c0,0,0,0,0,0C21.2,34.5,21.3,34.1,21.4,33.7z"/>
	<path class="st1" d="M23.5,13.5c0.4,0,0.6-0.3,0.6-0.6V6.4c0-0.4-0.3-0.6-0.6-0.6c-0.4,0-0.6,0.3-0.6,0.6v6.4
		C22.9,13.2,23.2,13.5,23.5,13.5z"/>
	<path class="st1" d="M22.9,43.6c0,0.4,0.3,0.6,0.6,0.6c0.4,0,0.6-0.3,0.6-0.6v-4.8c-0.5-0.1-0.9-0.3-1.3-0.6V43.6z"/>
	<path class="st1" d="M42.1,25.6c0.4,0,0.6-0.3,0.6-0.6c0-0.4-0.3-0.6-0.6-0.6h-5.4c0.7,0.3,1.4,0.8,2,1.3H42.1z"/>
	<path class="st1" d="M12,25c0-0.4-0.3-0.6-0.6-0.6H4.9c-0.4,0-0.6,0.3-0.6,0.6c0,0.4,0.3,0.6,0.6,0.6h6.4C11.7,25.6,12,25.4,12,25z
		"/>
	<path class="st1" d="M14.4,33.2l-4.5,4.5c-0.3,0.3-0.3,0.7,0,0.9c0.3,0.3,0.7,0.3,0.9,0l4.5-4.5c0.3-0.3,0.3-0.7,0-0.9
		C15.1,32.9,14.7,32.9,14.4,33.2z"/>
	<path class="st1" d="M14.4,16.8c0.3,0.3,0.7,0.3,0.9,0c0.3-0.3,0.3-0.7,0-0.9l-4.5-4.5c-0.3-0.3-0.7-0.3-0.9,0
		c-0.3,0.3-0.3,0.7,0,0.9L14.4,16.8z"/>
	<path class="st1" d="M32.6,16.8l4.5-4.5c0.3-0.3,0.3-0.7,0-0.9c-0.3-0.3-0.7-0.3-0.9,0l-4.5,4.5c-0.3,0.3-0.3,0.7,0,0.9
		C31.9,17.1,32.3,17.1,32.6,16.8z"/>
	<path class="st3" d="M40.9,28.6c-0.1,0-0.1-0.1-0.1-0.1c-0.5-1.1-1.1-2.1-2-2.8c-0.6-0.5-1.3-1-2-1.3c-0.9-0.4-2-0.6-3.1-0.6
		c0,0,0,0,0,0c-0.4,0-0.9,0-1.3,0.1c-3.5,0.6-6.2,3.6-6.3,7.2C25.8,31,25.5,31,25.2,31c-1.8,0-3.3,1.1-3.8,2.7
		c-0.1,0.4-0.2,0.8-0.2,1.3c0,0,0,0,0,0c0,1.3,0.7,2.5,1.6,3.2c0.4,0.3,0.8,0.5,1.3,0.6c0.3,0.1,0.7,0.1,1.1,0.1h15.3
		c2.9,0,5.2-2.3,5.2-5.2C45.7,31,43.6,28.7,40.9,28.6z M40.5,37.8h-3.3h-1.8H25.2c-0.4,0-0.7-0.1-1.1-0.2c-0.4-0.2-0.8-0.5-1.1-0.8
		c-0.4-0.4-0.6-1-0.6-1.6c0-0.1,0-0.1,0-0.2c0-0.4,0.1-0.7,0.2-1.1c0.4-1.1,1.5-1.8,2.7-1.8c0.4,0,0.8,0.1,1.2,0.3l0.3,0.1
		c0.1,0.1,0.3,0,0.4,0c0.1-0.1,0.2-0.2,0.2-0.4l0-0.3c0-0.2,0-0.3,0-0.5c0-3.2,2.3-5.8,5.3-6.4c0.4-0.1,0.8-0.1,1.2-0.1
		c0,0,0,0,0.1,0c0.4,0,0.9,0.1,1.3,0.1c0.6,0.1,1.2,0.4,1.7,0.6c1.4,0.8,2.5,2,3,3.5c0.1,0.3,0.4,0.5,0.7,0.5l0,0
		c2.2,0,4.1,1.8,4.1,4.1S42.8,37.8,40.5,37.8z"/>
</g>
</svg>
