<?xml version="1.0" encoding="utf-8"?>
<!-- Generator: Adobe Illustrator 22.0.1, SVG Export Plug-In . SVG Version: 6.00 Build 0)  -->
<svg version="1.1" id="icons" xmlns="http://www.w3.org/2000/svg" xmlns:xlink="http://www.w3.org/1999/xlink" x="0px" y="0px"
	 viewBox="0 0 50 50" style="enable-background:new 0 0 50 50;" xml:space="preserve">
<style type="text/css">
	.st0{fill:#7C7C7C;}
	.st1{fill:#F9C900;}
	.st2{fill:#6F5E68;}
	.st3{fill:#C8C8C8;}
	.st4{fill:#FFFFFF;}
	.st5{fill:#0061A0;}
	.st6{fill:none;}
	.st7{fill:#009FE3;}
</style>
<g>
	<g>
		<path class="st3" d="M38.5,25.6H14.1c-0.4,0-0.6,0.3-0.6,0.6s0.3,0.6,0.6,0.6h24.3c1.8,0,3.2,1.4,3.2,3.2c0,1.8-1.4,3.2-3.2,3.2
			c-1.5,0-2.8-1.1-3.1-2.6c-0.1-0.4-0.3-0.6-0.7-0.6c-0.4,0-0.6,0.3-0.6,0.7c0.3,2.2,2.2,3.8,4.4,3.8c2.5,0,4.5-2,4.5-4.5
			S40.9,25.6,38.5,25.6z"/>
	</g>
	<g>
		<path class="st3" d="M39.8,19.2c0-2.1-1.7-3.8-3.8-3.8c-1.9,0-3.5,1.4-3.8,3.3c-0.1,0.3,0.3,0.6,0.6,0.6c0.4,0,0.6-0.3,0.7-0.6
			c0.3-1.1,1.3-1.9,2.5-1.9c1.4,0,2.6,1.1,2.6,2.6c0,1.4-1.1,2.6-2.6,2.6H7.7c-0.4,0-0.6,0.3-0.6,0.6c0,0.4,0.3,0.6,0.6,0.6h28.2
			C38,23.1,39.8,21.4,39.8,19.2z"/>
	</g>
</g>
</svg>
