<?xml version="1.0" encoding="utf-8"?>
<!-- Generator: Adobe Illustrator 22.0.1, SVG Export Plug-In . SVG Version: 6.00 Build 0)  -->
<svg version="1.1" id="icons" xmlns="http://www.w3.org/2000/svg" xmlns:xlink="http://www.w3.org/1999/xlink" x="0px" y="0px"
	 viewBox="0 0 50 50" style="enable-background:new 0 0 50 50;" xml:space="preserve">
<style type="text/css">
	.st0{fill:#7C7C7C;}
	.st1{fill:#F9C900;}
	.st2{fill:#6F5E68;}
	.st3{fill:#C8C8C8;}
	.st4{fill:#FFFFFF;}
	.st5{fill:#0061A0;}
	.st6{fill:none;}
	.st7{fill:#009FE3;}
</style>
<g>
	<path class="st6" d="M18.6,18.8c0.1-0.1,0.2-0.2,0.3-0.3c-0.1,0.1-0.1,0.1-0.1,0.1L18.6,18.8z"/>
	<path class="st6" d="M36.8,23.3c-0.4,0-0.7-0.2-0.9-0.6c-1.3-3.9-5-6.4-9.1-6.4c-5.3,0-9.6,4.3-9.6,9.6c0,0.3,0,0.5,0.1,0.9l0,0.4
		c0,0.3-0.3,0.5-0.5,0.4l-0.4-0.1c-0.5-0.2-1-0.3-1.4-0.3c-2.3,0-4.2,1.9-4.2,4.2c0,2.3,1.9,4.2,4.2,4.2h21.8c3.4,0,6.1-2.7,6.1-6.1
		C42.9,26,40.1,23.3,36.8,23.3z"/>
	<path class="st3" d="M37.4,22.1c-0.2,0-0.4-0.1-0.5-0.3c-1.7-4.1-5.6-6.8-10.1-6.8c-2.4,0-4.6,0.8-6.4,2.1c0,0,0,0,0,0
		c-0.6,0.5-1.3,1.1-1.6,1.4c-0.1,0.1-0.2,0.2-0.3,0.3l-0.4,0.4c-1.4,1.8-2.2,4-2.3,6.4c0,0.2-0.2,0.3-0.4,0.3c-0.2,0-0.4,0-0.6,0
		c-1.1,0-2.1,0.3-2.9,0.9c-0.8,0.6-1.4,1.3-1.7,1.8c-0.5,0.8-0.8,1.8-0.8,2.8c0,3,2.4,5.4,5.4,5.4h21.8c4.1,0,7.4-3.3,7.4-7.4
		C44.1,25.6,41.2,22.4,37.4,22.1z M36.8,35.5H15c-2.3,0-4.2-1.9-4.2-4.2c0-2.3,1.9-4.2,4.2-4.2c0.5,0,1,0.1,1.4,0.3l0.4,0.1
		c0.3,0.1,0.6-0.1,0.5-0.4l0-0.4c0-0.3-0.1-0.6-0.1-0.9c0-5.3,4.3-9.6,9.6-9.6c4.1,0,7.7,2.6,9.1,6.4c0.1,0.4,0.5,0.6,0.9,0.6
		c3.4,0,6.1,2.7,6.1,6.1C42.9,32.8,40.1,35.5,36.8,35.5z"/>
	<path class="st2" d="M18.6,18.8c-0.1,0.1-0.2,0.3-0.4,0.4L18.6,18.8z"/>
	<path class="st1" d="M12.1,26.7c-0.2,0.1-0.4,0.1-0.6,0.1c-1.6-0.5-3-1.5-3.8-3c-0.1-0.1,0-0.3,0.2-0.3c4.4-0.3,8-3.8,8.2-8.3
		c0-0.1,0.1-0.3,0.3-0.2c1.2,0.6,2.1,1.6,2.7,2.8c0.1,0.1,0,0.3-0.1,0.4c0,0-0.1,0.1-0.1,0.1c0.3-0.3,0.9-0.9,1.6-1.4
		c-0.1,0.1-0.3,0-0.4-0.1c-0.9-1.7-2.5-3-4.4-3.6l-0.3-0.1c-0.3-0.1-0.6,0.1-0.6,0.4l0,0.3c0,0.2,0,0.5,0,0.7c0,4.1-3.4,7.5-7.5,7.5
		c-0.2,0-0.5,0-0.7,0l-0.3,0c-0.3,0-0.5,0.3-0.4,0.6L6,23c0.7,2.2,2.4,4,4.4,4.8c0.2,0.1,0.2,0.3,0.1,0.4c-0.1,0.1-0.1,0.2-0.2,0.3
		C10.6,28.1,11.2,27.3,12.1,26.7z"/>
</g>
</svg>
