<?xml version="1.0" encoding="utf-8"?>
<!-- Generator: Adobe Illustrator 22.0.1, SVG Export Plug-In . SVG Version: 6.00 Build 0)  -->
<svg version="1.1" id="icons" xmlns="http://www.w3.org/2000/svg" xmlns:xlink="http://www.w3.org/1999/xlink" x="0px" y="0px"
	 viewBox="0 0 50 50" style="enable-background:new 0 0 50 50;" xml:space="preserve">
<style type="text/css">
	.st0{fill:#7C7C7C;}
	.st1{fill:#F9C900;}
	.st2{fill:#6F5E68;}
	.st3{fill:#C8C8C8;}
	.st4{fill:#FFFFFF;}
	.st5{fill:#0061A0;}
	.st6{fill:none;}
	.st7{fill:#009FE3;}
</style>
<g>
	<g>
		<path class="st5" d="M23.7,41c0,0.4,0.3,0.6,0.6,0.6c0.4,0,0.6-0.3,0.6-0.6V25.6c0-0.4-0.3-0.6-0.6-0.6c-0.4,0-0.6,0.3-0.6,0.6V41
			z"/>
	</g>
	<g>
		<path class="st5" d="M27.6,34c0,0.4,0.3,0.6,0.6,0.6c0.4,0,0.6-0.3,0.6-0.6v-5.8c0-0.4-0.3-0.6-0.6-0.6c-0.4,0-0.6,0.3-0.6,0.6V34
			z"/>
	</g>
	<g>
		<path class="st3" d="M35.6,15.4c-0.2,0-0.4-0.1-0.5-0.3C33.4,11,29.5,8.3,25,8.3c-5.9,0-10.7,4.7-10.9,10.6c0,0.2-0.2,0.3-0.4,0.3
			c-0.2,0-0.4,0-0.6,0c-3,0-5.4,2.4-5.4,5.4s2.4,5.4,5.4,5.4h4.2c0.4,0,0.6-0.3,0.6-0.6s-0.3-0.6-0.6-0.6h-4.2
			C10.9,28.8,9,27,9,24.7s1.9-4.2,4.2-4.2c0.5,0,1,0.1,1.4,0.3l0.4,0.1c0.3,0.1,0.6-0.1,0.5-0.4l0-0.4c0-0.3-0.1-0.6-0.1-0.9
			c0-5.3,4.3-9.6,9.6-9.6c4.1,0,7.7,2.6,9.1,6.4c0.1,0.4,0.5,0.6,0.9,0.6c3.4,0,6.1,2.7,6.1,6.1s-2.7,6.1-6.1,6.1h-3.5
			c-0.4,0-0.6,0.3-0.6,0.6s0.3,0.6,0.6,0.6h3.5c4.1,0,7.4-3.3,7.4-7.4C42.3,18.9,39.3,15.7,35.6,15.4z"/>
	</g>
	<g>
		<path class="st7" d="M29.2,36.2c-1.4,0-2.6,1.1-2.6,2.6c0,1.4,1.1,2.6,2.6,2.6c1.4,0,2.6-1.1,2.6-2.6
			C31.7,37.3,30.6,36.2,29.2,36.2z M29.2,40c-0.7,0-1.3-0.6-1.3-1.3c0-0.7,0.6-1.3,1.3-1.3c0.7,0,1.3,0.6,1.3,1.3
			C30.5,39.4,29.9,40,29.2,40z"/>
	</g>
	<g>
		<path class="st7" d="M19.9,32.8c-1.4,0-2.6,1.1-2.6,2.6c0,1.4,1.1,2.6,2.6,2.6c1.4,0,2.6-1.1,2.6-2.6C22.4,34,21.3,32.8,19.9,32.8
			z M19.9,36.7c-0.7,0-1.3-0.6-1.3-1.3c0-0.7,0.6-1.3,1.3-1.3c0.7,0,1.3,0.6,1.3,1.3C21.2,36.1,20.6,36.7,19.9,36.7z"/>
	</g>
</g>
</svg>
