<?xml version="1.0" encoding="UTF-8"?>
<svg width="768px" height="692px" viewBox="0 0 768 692" version="1.1" xmlns="http://www.w3.org/2000/svg" xmlns:xlink="http://www.w3.org/1999/xlink">
    <!-- Generator: sketchtool 54.1 (76490) - https://sketchapp.com -->
    <title>81F511B6-66D0-4013-AA43-68032FDE6CD2</title>
    <desc>Created with sketchtool.</desc>
    <defs>
        <linearGradient x1="0%" y1="13.8196847%" x2="34.4110422%" y2="112.803836%" id="linearGradient-1">
            <stop stop-color="#00BBB5" offset="0%"></stop>
            <stop stop-color="#0061A0" offset="100%"></stop>
        </linearGradient>
    </defs>
    <g id="Page-1" stroke="none" stroke-width="1" fill="none" fill-rule="evenodd">
        <g id="Tablet-CNA-IOS" transform="translate(0.000000, -336.000000)" fill="url(#linearGradient-1)">
            <polygon id="Background-Gradient" points="1.13686838e-13 360.674406 768 336 768 1028 1.13686838e-13 1028"></polygon>
        </g>
    </g>
</svg>