<?xml version="1.0" encoding="UTF-8"?>
<svg width="165px" height="40px" viewBox="0 0 165 40" version="1.1" xmlns="http://www.w3.org/2000/svg" xmlns:xlink="http://www.w3.org/1999/xlink">
    <!-- Generator: sketchtool 54.1 (76490) - https://sketchapp.com -->
    <title>23797C1F-956E-4203-9268-6C5D27F5CE55</title>
    <desc>Created with sketchtool.</desc>
    <defs>
        <linearGradient x1="0.475594759%" y1="67.0157906%" x2="92.2893421%" y2="47.2163266%" id="linearGradient-1">
            <stop stop-color="#24343C" offset="0%"></stop>
            <stop stop-color="#223842" offset="4%"></stop>
            <stop stop-color="#1D4252" offset="10%"></stop>
            <stop stop-color="#15526D" offset="16%"></stop>
            <stop stop-color="#0A6993" offset="23%"></stop>
            <stop stop-color="#007EB5" offset="28%"></stop>
            <stop stop-color="#0084BD" offset="34%"></stop>
            <stop stop-color="#0094D3" offset="43%"></stop>
            <stop stop-color="#009FE3" offset="48%"></stop>
            <stop stop-color="#08A1DA" offset="49%"></stop>
            <stop stop-color="#36AEA7" offset="54%"></stop>
            <stop stop-color="#5FB97B" offset="60%"></stop>
            <stop stop-color="#81C255" offset="65%"></stop>
            <stop stop-color="#9DCA36" offset="71%"></stop>
            <stop stop-color="#B3D01E" offset="78%"></stop>
            <stop stop-color="#C2D40D" offset="84%"></stop>
            <stop stop-color="#CBD603" offset="91%"></stop>
            <stop stop-color="#CED700" offset="100%"></stop>
        </linearGradient>
    </defs>
    <g id="Page-1" stroke="none" stroke-width="1" fill="none" fill-rule="evenodd">
        <g id="Mobile-CNA-Android" transform="translate(-78.000000, -75.000000)" fill-rule="nonzero">
            <g id="Logo" transform="translate(78.000000, 75.000000)">
                <path d="M140.586189,11.0010251 C139.550864,11.296823 138.741576,12.1061104 138.445778,13.1414361 L136.099888,21.2749977 L135.500573,19.2030799 C135.327948,18.3659934 134.701162,17.6960354 133.87741,17.4681172 C133.053659,17.2401991 132.171644,17.4926974 131.593294,18.1220016 C131.014943,18.7513057 130.837638,19.6514547 131.134135,20.4530799 L132.521121,25.2133539 C132.808035,26.1797985 133.696206,26.8426058 134.70434,26.8426058 C135.712475,26.8426058 136.600645,26.1797985 136.887559,25.2133539 L139.18208,17.2167785 L141.305367,24.5969155 C141.697481,25.9201805 142.913242,26.8279375 144.293381,26.8279375 C145.67352,26.8279375 146.889281,25.9201805 147.281395,24.5969155 L151.73345,9.08321688 L155.928655,23.7236278 C156.659103,25.9186506 158.990581,27.1471281 161.214073,26.5085635 C163.437564,25.8699988 164.761904,23.5916065 164.216326,21.3434909 L158.942354,3.14143606 C158.417112,1.28309206 156.721102,-3.55271368e-15 154.789957,-3.55271368e-15 C152.858811,-3.55271368e-15 151.162801,1.28309206 150.637559,3.14143606 L150.637559,3.14143606 L146.099888,18.9462306 L144.387559,13.0558196 C143.878091,11.4609848 142.199547,10.5536637 140.586189,11.0010251 L140.586189,11.0010251 Z" id="Path" fill="url(#linearGradient-1)"></path>
                <path d="M128.514272,24.3743128 L128.514272,24.4770525 C128.514272,25.6585593 128.257422,26.6174635 126.322491,26.6174635 C124.387559,26.6174635 124.13071,25.6585593 124.13071,24.4770525 L124.13071,24.3743128 C124.13071,23.1928059 124.387559,22.2339018 126.322491,22.2339018 C128.257422,22.2339018 128.514272,23.1756826 128.514272,24.3743128 Z M122.760847,39.3400662 C121.561401,39.4010109 120.380723,39.0236808 119.438929,38.2784224 C118.290648,37.0691428 117.733184,35.4155433 117.914957,33.7578744 L117.914957,26.411984 L117.914957,26.411984 L115.740299,26.411984 C114.627285,26.411984 114.353313,26.2065046 114.353313,24.3914361 C114.353313,22.5763676 114.627285,22.3708881 115.740299,22.3708881 L117.88071,22.3708881 L117.88071,22.3708881 L117.88071,19.4599292 C117.88071,18.1243128 118.120436,17.7476004 120.312217,17.7476004 C122.503998,17.7476004 122.743724,18.0729429 122.743724,19.4599292 L122.743724,33.1585593 C122.743724,34.5797922 122.88071,34.8708881 123.360162,35.1962306 C123.839614,35.521573 125.312217,35.3160936 126.459477,35.1962306 C127.349888,35.0592443 127.384135,35.4188333 127.623861,36.7544498 C127.863587,38.0900662 127.82934,38.552395 126.956052,38.7749977 C125.585122,39.1296385 124.176753,39.3193371 122.760847,39.3400662 Z M101.425231,26.5832169 C100.551943,26.7544498 100.48345,26.3948607 100.209477,25.0763676 C99.9355045,23.7578744 99.9868743,23.2612991 100.791669,22.9873265 C102.670668,22.4352046 104.620991,22.1640058 106.57934,22.1825319 C108.925718,21.973333 111.139202,23.301423 112.058792,25.4702032 C112.602927,27.1244754 112.795396,28.8741936 112.623861,30.6071895 L112.623861,36.7544498 C112.666247,37.5172469 112.198187,38.2158439 111.4766,38.4667785 C109.788501,39.1634177 107.977357,39.5128345 106.151258,39.4941758 C102.058792,39.4941758 98.8396141,38.2784224 98.8396141,34.2373265 C98.8396141,30.1962306 101.63071,28.9462306 105.569066,28.9462306 C106.449565,28.9393977 107.329804,28.9794086 108.206052,29.0660936 L108.206052,28.1243128 C108.206052,26.6345867 107.469751,25.7441758 105.500573,25.7441758 C104.118909,25.896006 102.754503,26.1769132 101.425231,26.5832169 L101.425231,26.5832169 Z M106.271121,36.2065046 C106.929887,36.2086376 107.584209,36.0986188 108.206052,35.8811621 C108.227464,35.8440763 108.227464,35.7983848 108.206052,35.7612991 L108.206052,32.5763676 C108.206668,32.5163176 108.16275,32.4650804 108.103313,32.4565046 C107.424207,32.3451307 106.736639,32.2935631 106.048518,32.302395 C104.421806,32.302395 103.325915,32.7133539 103.325915,34.271573 C103.325915,35.8297922 104.404683,36.2065046 106.271121,36.2065046 Z M95.2608469,38.2099292 C93.9785258,39.1409115 92.4273731,39.6279013 90.8430387,39.5969155 C89.0487244,39.55392 87.270987,39.2422387 85.5690661,38.672258 C84.6786552,38.3811621 84.6786552,38.1414361 84.8841346,36.7886963 C85.0896141,35.4359566 85.2266004,34.8708881 86.0485182,35.0763676 C87.5166196,35.4793862 89.0181743,35.748749 90.5348195,35.8811621 C91.4766004,35.8811621 92.2471483,35.5044498 92.3841346,34.4941758 C92.5211209,33.4839018 91.5622168,32.781847 89.7642716,32.3537648 C87.6923538,31.771573 84.969751,30.7784224 84.8670113,27.2167785 C84.8670113,24.4085593 86.9731757,22.1825319 90.5690661,22.1825319 C92.2418994,22.158035 93.9058121,22.4305224 95.4834497,22.9873265 C96.3396141,23.2270525 96.3567374,23.7065046 96.0656415,25.0249977 C95.7745456,26.3434909 95.7231757,26.7373265 94.849888,26.531847 C93.5912598,26.1332924 92.2827111,25.9142402 90.9629017,25.8811621 C90.2437237,25.8811621 89.4389291,26.2749977 89.4389291,27.1311621 C89.4389291,27.9873265 90.5348195,28.3982854 91.6820798,28.8434909 C93.0387334,29.233991 94.3186019,29.8536559 95.4663264,30.6756826 C96.4665266,31.4892053 97.0248911,32.7264904 96.9731757,34.0147237 C97.117935,35.6047092 96.4866974,37.1668628 95.2779702,38.2099292 L95.2608469,38.2099292 Z M70.8772853,26.5832169 C70.0039976,26.7544498 69.9355045,26.3948607 69.6615319,25.0763676 C69.3875593,23.7578744 69.3875593,23.2612991 70.2608469,23.0386963 C72.1279837,22.4841166 74.066538,22.2071803 76.0142716,22.2167785 C78.3606497,22.0075796 80.574133,23.3356696 81.4937237,25.5044498 C82.0378586,27.1587219 82.2303276,28.9084401 82.0587921,30.6414361 L82.0587921,36.7886963 C82.101179,37.5514935 81.633119,38.2500905 80.9115319,38.5010251 C79.2234322,39.1976643 77.4122886,39.547081 75.5861894,39.5284224 C71.4937237,39.5284224 68.2745456,38.3126689 68.2745456,34.271573 C68.2745456,30.2304772 71.0656415,28.9804772 75.0039976,28.9804772 C75.9139853,28.9875832 76.822893,29.0447472 77.7266004,29.15171 L77.7266004,28.1243128 C77.7266004,26.6345867 76.990299,25.7441758 75.0211209,25.7441758 C73.6163506,25.8917515 72.2288152,26.1726987 70.8772853,26.5832169 L70.8772853,26.5832169 Z M75.7231757,36.2065046 C76.3819413,36.2086376 77.0362637,36.0986188 77.6581072,35.8811621 C77.6795187,35.8440763 77.6795187,35.7983848 77.6581072,35.7612991 L77.6581072,32.5763676 C77.6587227,32.5163176 77.6148051,32.4650804 77.5553675,32.4565046 C76.8762622,32.3451307 76.1886937,32.2935631 75.500573,32.302395 C73.8738606,32.302395 72.7779702,32.7133539 72.7779702,34.271573 C72.7779702,35.8297922 73.8396141,36.2065046 75.7060524,36.2065046 L75.7231757,36.2065046 Z M63.0348195,39.3400662 C60.8430387,39.3400662 60.6033127,39.0147237 60.6033127,37.6277374 L60.6033127,24.0832169 C60.6033127,22.7476004 60.8430387,22.3708881 63.0348195,22.3708881 C65.2266004,22.3708881 65.4663264,22.6962306 65.4663264,24.0832169 L65.4663264,37.6791073 C65.4492031,39.0147237 65.2094771,39.3400662 63.0176963,39.3400662 L63.0348195,39.3400662 Z M24.7330199,39.7167785 C22.541239,39.7167785 22.301513,39.3914361 22.301513,38.0044498 L22.301513,24.4599292 C22.301513,23.1243128 22.541239,22.7476004 24.7330199,22.7476004 C26.9248007,22.7476004 27.1645267,23.0729429 27.1645267,24.4599292 L27.1645267,38.0558196 C27.1474034,39.3914361 26.9076774,39.7167785 24.7158966,39.7167785 L24.7330199,39.7167785 Z M56.5279702,17.8503402 C54.490299,17.8503402 54.1820798,18.1756826 53.8567374,19.5626689 L49.9012579,34.3229429 L45.9457784,19.5626689 C45.6033127,18.2270525 45.3122168,17.8503402 43.2745456,17.8503402 C41.2368743,17.8503402 40.8259154,18.1756826 41.1512579,19.5626689 L46.3738606,37.781847 C46.8190661,39.1174635 47.6923538,39.4941758 49.8841346,39.4941758 C52.0759154,39.4941758 52.9492031,39.1688333 53.3944086,37.781847 L58.6170113,19.5626689 C58.8909839,18.1243128 58.5485182,17.8503402 56.5279702,17.8503402 Z" id="Shape" fill="#24343C"></path>
                <path d="M129.798518,39.0832169 L129.798518,37.5249977 L129.199203,37.5249977 L129.199203,37.1996552 L130.808792,37.1996552 L130.808792,37.5249977 L130.192354,37.5249977 L130.192354,39.0832169 L129.798518,39.0832169 Z M131.065641,39.0832169 L131.065641,37.1825319 L131.510847,37.1825319 L131.801943,37.8845867 L131.973176,38.3640388 L131.973176,38.3640388 L132.144409,37.8845867 L132.418381,37.1825319 L132.863587,37.1825319 L132.863587,39.0832169 L132.521121,39.0832169 L132.521121,38.2441758 L132.521121,37.5934909 L132.521121,37.5934909 L132.075915,38.7749977 L131.836189,38.7749977 L131.390984,37.5934909 L131.390984,37.5934909 L131.390984,38.2441758 L131.390984,39.0832169 L131.065641,39.0832169 Z" id="Shape" fill="#24343C"></path>
                <path d="M4.85369676,39.5455456 L0.498696759,39.5455456 C0.0761967589,39.5455456 -0.0863032411,39.2855456 0.0436967589,38.8955456 L7.58369676,16.7630456 C7.71369676,16.4705456 7.90869676,16.3080456 8.20119676,16.3080456 L13.1411968,16.3080456 C13.4336968,16.3080456 13.6611968,16.4705456 13.7586968,16.7630456 L21.2986968,38.8955456 C21.4611968,39.2855456 21.2661968,39.5455456 20.8436968,39.5455456 L16.5211968,39.5455456 C16.1961968,39.5455456 15.9361968,39.3830456 15.8386968,39.0580456 L14.6361968,35.0930456 L6.73869676,35.0930456 L5.50369676,39.0580456 C5.40619676,39.3830456 5.14619676,39.5455456 4.85369676,39.5455456 Z M10.6061968,21.9955456 C9.95619676,24.1730456 8.94869676,27.7155456 8.07119676,30.5755456 L13.3036968,30.5755456 C12.3936968,27.7155456 11.3861968,24.1730456 10.7361968,21.9955456 L10.6061968,21.9955456 Z" id="Combined-Shape" fill="#24343C"></path>
                <path d="M35.3201253,39.5455456 L31.4851253,39.5455456 C31.0951253,39.5455456 30.9001253,39.3505456 30.9001253,38.9605456 L30.9001253,24.2055456 C30.9001253,23.9130456 31.0301253,23.6855456 31.3226253,23.5230456 C33.1101253,22.6455456 35.1901253,22.1905456 37.3026253,22.1905456 C38.2776253,22.1905456 39.2851253,22.3205456 40.4551253,22.5155456 C40.8126253,22.5805456 40.9751253,22.7755456 40.9751253,23.1330456 L40.9751253,26.1230456 C40.9751253,26.5130456 40.7476253,26.7080456 40.3576253,26.6430456 C39.7076253,26.5455456 38.9926253,26.5130456 38.3426253,26.5130456 C37.3676253,26.5130456 36.4901253,26.6755456 35.8726253,26.9355456 L35.8726253,38.9605456 C35.8726253,39.3505456 35.6776253,39.5455456 35.3201253,39.5455456 Z" id="Path" fill="#24343C"></path>
            </g>
        </g>
    </g>
</svg>