{
  "componentTheme": {
    "fontFamily": "theme.appFontFamily",
    "subHeaderTextColor": "theme.secondaryTextColor",
    "backgroundColor": "theme.primaryBackgroundColor",
    "subheadertextAlign": {
      "xs": "left"
    },
    "subheadertextFontSize": "24px",
    "backgroundImage": null,
    "buttonWidth": "theme.bannerButtonWidth",
    "buttonFontWeight": "theme.bannerButtonFontWeight",
    "imageWidth": "100%",
    "imageMargin": {
      "xs": "0"
    }
  },
  "feature": {
    "image": null,
    "actionLink": "#",
    "displayArrowIcon": true,
    "includeButton": true,
    "frictionlessPortal": false
  },
  "childrenProperties": [
    {
      "componentTheme": {
        "fontSize": "48px",
        "fontWeight": "500",
        "zIndex": 1,
        "wordWrap": "break-word",
        "align": {
          "xs": "left"
        }
      }
    }
  ]
}
