[
  {
    "Device Name": "HP Touchpad",
    "Platform": "Android",
    "OS Version": "4.0.3",
    "Portrait Width": "768",
    "Landscape Width": "1024",
    "Release Date": "2011-07"
  },
  {
    "Device Name": "Motorola FlipOut",
    "Platform": "Android",
    "OS Version": "2.1",
    "Portrait Width": "320",
    "Landscape Width": "240",
    "Release Date": "2010-06"
  },
  {
    "Device Name": "Nexus 7 (2013)",
    "Platform": "Android",
    "OS Version": "4.3",
    "Portrait Width": "600",
    "Landscape Width": "960",
    "Release Date": "2013-07"
  },
  {
    "Device Name": "Samsung Galaxy Note 10.1 N8010",
    "Platform": "Android",
    "OS Version": "4.0.4",
    "Portrait Width": "800",
    "Landscape Width": "1280",
    "Release Date": "2012-08"
  },
  {
    "Device Name": "Samsung Galaxy Tab 3 8.0 T310",
    "Platform": "Android",
    "OS Version": "4.2.2",
    "Portrait Width": "602",
    "Landscape Width": "962",
    "Release Date": "2013-07"
  },
  {
    "Device Name": "Samsung Galaxy Y S5360",
    "Platform": "Android",
    "OS Version": "2.3.6",
    "Portrait Width": "320",
    "Landscape Width": "427",
    "Release Date": "2011-10"
  },
  {
    "Device Name": "Sony PlayStation 3",
    "Platform": "PlayStation 3",
    "OS Version": "4.25",
    "Portrait Width": "-",
    "Landscape Width": "1824",
    "Release Date": "2006-11"
  },
  {
    "Device Name": "Sony PlayStation Portable",
    "Platform": "PlayStation Portable",
    "OS Version": "4.2",
    "Portrait Width": "-",
    "Landscape Width": "480",
    "Release Date": "2005-03"
  },
  {
    "Device Name": "XBOX 360",
    "Platform": "XBOX",
    "OS Version": "2.0",
    "Portrait Width": "-",
    "Landscape Width": "1050",
    "Release Date": "2005-11"
  }
]
