{
  "$schema": "http://json-schema.org/draft-06/schema#",
  "definitions": {
    "LegalModel": {
      "id": "#LegalModel",
      "properties": {
        "header": {
          "title": "Header fields",
          "type": "object",
          "properties": {
            "motifText": {
              "title": "Motif Text",
              "type": "string"
            },
            "motifHighlightText": {
              "title": "Motif Highlight Text",
              "type": "string"
            },
            "noticeHeader": {
              "title": "Notice Header",
              "type": "string"
            },
            "headerText": {
              "title": "Header Text",
              "type": "string"
            },
            "noticeText": {
              "title": "Notice Text",
              "type": "string"
            }
          }
        },
        "sections": {
          "title": "Sections",
          "type": "array",
          "items": {
            "properties": {
              "title": {
                "title": "Title",
                "type": "string"
              },
              "isOpen": {
                "title": "Expanded",
                "type": "boolean"
              },
              "content": {
                "title": "Content",
                "type": "html"
              }
            },
            "type": "object"
          }
        },
        "effectiveDate": {
          "title": "Effective Date",
          "type": "object",
          "properties": {
            "effectiveDateText": {
              "title": "Effective Date",
              "type": "string"
            }
          }
        }
      },
      "type": "object"
    },
    "RichTextModel": {
      "id": "#RichTextModel",
      "properties": {
        "html": {
          "title": "Content",
          "type": "string",
          "description": "An HTML string that will propulate a RichText component"
        }
      },
      "type": "object"
    }
  }
}
