{
  "header": {
    "motifText": "VIASAT CONDITIONS D’UTILISATION",
    "noticeHeader":
      "AVIS IMPORTANT : VEUILLEZ LIRE ATTENTIVEMENT LES PRÉSENTES CONDITIONS D’UTILISATION POUR VOUS ASSURER DE BIEN COMPRENDRE CHAQUE DISPOSITION."
  },
  "terms": {
    "termsHeader": "Conditions d’utilisation du Service",
    "termsSections": [
      {
        "title": "Introduction.",
        "isOpen": false,
        "paragraphs": [
          {
            "style": {"color": "#4A4F54"},
            "content":
              "Les présentes Conditions d’utilisation (les \u201C<strong>Conditions d’utilisation </strong>\u201D) sont conclues entre vous et Viasat, Inc. (\u201C<strong>Viasat</strong>,\u201D le \u201C<strong>Fournisseur de services</strong>,\u201D \u201C<strong>nous</strong>,\u201D ou \u201C<strong>notre</strong>\u201D), et régissent votre utilisation des services WiFi et Internet fournis par Viasat  (le \u201C<strong>Service</strong>\u201D) sur l’avion de Dreamjet SAS dba La Compagnie (y compris toute société affiliée et/ou filiale, et toute autre marque applicable de temps à autre) depuis lequel vous êtes connecté au Service (la \u201C<strong>Compagnie aérienne</strong>\u201D). Votre acceptation ci-dessous et votre utilisation continue du Service constituent votre acceptation des conditions énoncées dans les présentes Conditions d’utilisation. Si vous n’êtes pas d’accord avec les modalités énoncées dans les présentes Conditions d’utilisation, cessez immédiatement d’utiliser le Service. Si vous souhaitez contacter le Fournisseur de services, vous pouvez écrire à l’adresse suivante :<br><br>Viasat, Inc.<br>3902 South Traditions Drive<br>College Station, TX 77845<br>États-Unis<br><br>Ou vous pouvez contacter la Compagnie aérienne au:<br><br>Dreamjet SAS La Compagnie<br>Customer Care Department<br>21-37-le baudron<br>21 rue de stalingrad<br>94110 arcueil<br>France<br><br>E-mail. <a href='mailto:contactny@lacompagnie.com'>contactny@lacompagnie.com</a><br>Téléphone. 1-800-218-8187"
          }
        ]
      },
      {
        "title": "1. Utilisation du Service.",
        "isOpen": false,
        "paragraphs": [
          {
            "style": {"color": "#4A4F54"},
            "content":
              "En échange de l’accès au Service et de l’utilisation du Service, vous : (a) acceptez de fournir au Fournisseur de services des informations exactes et complètes, y compris votre adresse électronique, lorsque vous accédez au Service, et d’aviser le Fournisseur de services des changements apportés à vos informations personnelles ; (b) le cas échéant, vous acceptez de protéger le mot de passe, le nom d’utilisateur et les informations de sécurité que vous utilisez pour accéder au Service et informer immédiatement le Fournisseur de services de toute utilisation non autorisée de votre compte dont vous prenez connaissance ; (c) acceptez de respecter les lois et règlements applicables, notamment les lois et droits de propriété intellectuelle ; (d) déclarez avoir plus de 18 ans."
          }
        ]
      },
      {
        "title": "2. Services gratuits.",
        "isOpen": false,
        "paragraphs": [
          {
            "style": {"color": "#4A4F54"},

            "content":
              "Le Service vous est offert gratuitement. Si une version payante du service est rendue disponible, nous vous en aviserons et vous demanderons une confirmation formelle si vous souhaitez faire passer votre Service gratuit à un Service payant. Tous ces Services gratuits sont régis par l’ensemble des modalités des présentes Conditions d’utilisation, le cas échéant."
          }
        ]
      },
      {
        "title": "3. Limites opérationnelles du Service.",
        "isOpen": false,
        "paragraphs": [
          {
            "style": {"color": "#4A4F54"},
            "content":
              "La fourniture du Service est assujettie à la disponibilité et aux limites opérationnelles de l’équipement requis et des installations connexes. Il n’y a aucune garantie de bande passante. Vos vitesses de connexion et de débit de données peuvent ne pas convenir à certaines applications. Vous comprenez et acceptez que des interruptions temporaires du Service peuvent se produire, ce sont des événements normaux dans le cadre de la fourniture du Service. L’accès au réseau privé virtuel ou tout autre accès à des ordinateurs distants (\u201C<strong>VPN</strong>\u201D) peut être intermittent et nécessiter plusieurs connexions, selon les paramètres de sécurité du fournisseur VPN, en raison de brèves pertes de connectivité. Les appels vocaux ou vidéo, les jeux en ligne et les mises à jour logicielles sont expressément interdits par le biais du Service. Vous comprenez et acceptez en outre que le Fournisseur de services n’ait aucun contrôle sur les réseaux de tiers auxquels vous pouvez accéder dans le cadre de votre utilisation du Service, et par conséquent, que les retards et interruptions d’autres transmissions réseau soient hors du contrôle du Fournisseur de services. Le Fournisseur de services ne sera pas tenu responsable en cas de défaut d’exécution si ce défaut est dû à une cause indépendante de sa volonté, y compris les cas de force majeure, les incendies, les explosions, le vandalisme, les catastrophes nucléaires, le terrorisme, les défaillances de composants de satellites, la coupure de câbles, les tempêtes ou autres phénomènes météorologiques ou solaires, toute loi, tout ordre ou réglementation par une autorité gouvernementale, civile ou militaire, les urgences nationales, le insurrections, les émeutes, les guerres, les difficultés professionnelles, les défauts des fournisseurs, les ruptures, violations ou retards, ou autres défauts ou retards causés par vous ou votre équipement. "
          }
        ]
      },
      {
        "title": "4. Avis de non-responsabilité du Contenu de tiers / des Liens vers des Sites de tiers.",
        "isOpen": false,
        "paragraphs": [
          {
            "style": {"color": "#4A4F54"},
            "content":
              "Le contenu fourni par des tiers (\u201C<strong>Contenu de tiers</strong>\u201D) n’a pas été authentifié indépendamment en tout ou en partie par le Fournisseur de services ou la Compagnie aérienne, même si le Fournisseur de services fournit un lien vers ce contenu. Le Fournisseur de services ne fournit, ne vend, n’accorde de licence ou ne loue aucun Contenu de tiers autre que celui spécifiquement identifié comme étant fourni par le Fournisseur de services. Le Fournisseur de services fournit des liens vers le Contenu de tiers uniquement pour des raisons de commodité. Le Fournisseur de services et la Compagnie aérienne ne font aucune garantie ni déclaration, de quelque nature que ce soit, concernant le Contenu de tiers."
          }
        ]
      },
      {
        "title": "5. Politique de confidentialité et Politique d’utilisation acceptable.",
        "isOpen": false,
        "paragraphs": [
          {
            "style": {"color": "#4A4F54"},
            "content":
              "Toute donnée fournie ou recueillie par le Fournisseur de services dans le cadre de l’exécution du Service est soumise à la Politique de confidentialité du Fournisseur de services pour le Service. L’utilisation du Service est également soumise aux termes et conditions de la Politique d’utilisation acceptable du Fournisseur de services pour le Service. La Politique de confidentialité et la Politique d’utilisation acceptable pour le Service du Fournisseur de services sont intégrées aux présentes Conditions d’utilisation et sont acceptées avec les présentes Conditions d’utilisation au moment de l’inscription. Cliquez <a href='https://viasat.com/legal'>ici</a> pour consulter la Politique de confidentialité et cliquez <a href='https://viasat.com/legal'>ici</a> pour consulter la Politique d’utilisation acceptable."
          }
        ]
      },
      {
        "title": "6. Restrictions générales d’utilisation.",
        "isOpen": false,
        "paragraphs": [
          {
            "style": {"color": "#4A4F54"},
            "content":
              "Sous réserve de votre acceptation et de votre respect des présentes Conditions d’utilisation, vous avez par les présentes le droit d’utiliser le Service par le biais d’une licence limitée non exclusive, non transférable et incessible. Le Service est fourni pour votre usage personnel et non commercial uniquement (sauf indication contraire) et vous acceptez de ne pas reproduire, dupliquer, copier, vendre, sous-licencier, transférer, revendre ou exploiter à toute fin votre utilisation du Service ou votre accès au Service. Vous acceptez de ne pas partager votre accès à la connexion Internet fournie via le Service avec une autre partie en reliant votre appareil connecté à l’appareil de l’autre partie. Toutes les informations, tous les documents, produits et logiciels (le \u201C<strong>Matériel</strong>\u201D) fournis avec ce Service ont été fournis par ou au Fournisseur de services par ses fabricants, auteurs, développeurs, licenciés et fournisseurs respectifs (le ou les \u201C<strong>Fournisseurs tiers</strong>\u201D) et sont la propriété du Fournisseur de services et/ou du ou des Fournisseurs tiers. Sauf dans la mesure permise à des fins d’interopérabilité par la loi applicable et tel qu’indiqué dans les présentes, aucun des documents ne peut être copié, reproduit, revendu, distribué, republié, téléchargé, affiché, publié ou transmis sous quelque forme ou par quelque moyen que ce soit, y compris, sans s’y limiter, par voie électronique, mécanique, photocopie, enregistrement ou autre, sans la permission écrite préalable expresse du Fournisseur de services ou du ou des Fournisseurs tiers. Sauf indication expresse dans les présentes, aucun droit de propriété intellectuelle ne vous est accordé sur le Service ou le Matériel par implication, préclusion ou autre théorie juridique, et tous les droits sur le Service ou le Matériel non expressément accordés dans les présentes sont par les présentes réservés et conservés par le Fournisseur de services et/ou le ou les Fournisseurs tiers."
          }
        ]
      },
      {
        "title": "7. Lois sur l’exportation.",
        "isOpen": false,
        "paragraphs": [
          {
            "style": {"color": "#4A4F54"},

            "content":
              "Votre utilisation du Service est assujettie aux lois et règlements de contrôle des exportations des États-Unis ou à toute loi ou règlement local applicable. Vous déclarez que vous n’êtes pas un utilisateur final interdit en vertu des lois, règlements et listes d’exportation américains applicables, y compris, mais sans s’y limiter, la liste des Ressortissants spécialement désignés ou des Personnes bloquées par le ministère du Trésor des États-Unis. Vous n’utiliserez pas le Service d’une manière qui violerait la loi applicable, y compris notamment les lois et règlements de contrôle des exportations applicables."
          }
        ]
      },
      {
        "title": "8. Exonération de garantie et de responsabilité.",
        "isOpen": false,
        "paragraphs": [
          {
            "style": {"color": "#4A4F54"},
            "content":
              "VOUS UTILISEZ UNE CONNEXION INTERNET PUBLIQUE ET DEVEZ PRENDRE TOUTES LES PRÉCAUTIONS NÉCESSAIRES POUR ASSURER LA SÉCURITÉ DE VOTRE APPAREIL ET DE VOS INFORMATIONS. VOUS COMPRENEZ QUE VOUS ÊTES SEUL RESPONSABLE DE TOUT DOMMAGE À VOTRE SYSTÈME INFORMATIQUE OU DE TOUTE PERTE DE DONNÉES RÉSULTANT DE TOUT MATÉRIEL ET/OU DONNÉES TÉLÉCHARGÉS À PARTIR DU SERVICE OU AUTREMENT FOURNIS PAR LE SERVICE."
          },
          {
            "style": {"color": "#4A4F54"},
            "content":
              "LE FOURNISSEUR DE SERVICES NE GARANTIT PAS QUE LE SERVICE SERA EXEMPT DE VIRUS OU D’AUTRES ÉLÉMENTS NUISIBLES."
          },
          {
            "style": {"color": "#4A4F54"},
            "content":
              "LE FOURNISSEUR DE SERVICES EST RESPONSABLE, CONFORMÉMENT AUX DISPOSITIONS LÉGALES EN VIGUEUR, DES DOMMAGES CAUSÉS PAR LE COMPORTEMENT INTENTIONNEL OU PAR NÉGLIGENCE GRAVE DE SES REPRÉSENTANTS LÉGAUX OU DE SES DIRIGEANTS."
          }
        ]
      },
      {
        "title": "9. Indemnité.",
        "isOpen": false,
        "paragraphs": [
          {
            "style": {"color": "#4A4F54"},
            "content":
              "Vous acceptez d’indemniser et de dégager de toute responsabilité le Fournisseur de services de toute réclamation ou demande, y compris les frais d’avocat raisonnables, faite par un tiers et découlant : (a) du contenu que vous soumettez, affichez, transmettez ou rendez autrement disponible par le biais du Service ; (b) de votre violation des présentes Conditions d’utilisation ; (c) de votre violation de la Politique d’utilisation acceptable du Fournisseur de services ; (d) de votre violation des droits d’autrui. À nos frais et à notre choix, vous acceptez de coopérer avec nous dans le cadre de notre défense. À l’exception de ce qui est expressément stipulé dans les présentes Conditions d’utilisation, les présentes Conditions d’utilisation ne sont pas considérées comme créant des droits sur des tiers."
          }
        ]
      },
      {
        "title": "10. Général.",
        "isOpen": false,
        "paragraphs": [
          {
            "style": {"marginLeft": "25px", "color": "#4A4F54"},
            "content":
              "<strong>a. Vos coordonnées.</strong><br/> Sous réserve des lois applicables, vous convenez qu’en concluant les présentes Conditions d’utilisation et en nous fournissant votre numéro de téléphone sans fil et/ou tout autre numéro de téléphone et/ou votre adresse de facturation et/ou votre adresse électronique, nous ou nos mandataires pouvons communiquer avec vous pour toute question relative au compte : (a) en vous appelant ou en vous envoyant un message texte ou vocal préenregistré ou artificiel à ce(s) numéro(s) à l’aide d’un système de numérotation téléphonique automatique et/ou via un appel fait par des personnes en direct pour toute question relative au compte, et/ou (b) en envoyant un e-mail à cette adresse électronique."
          },
          {
            "style": {"marginLeft": "25px", "color": "#4A4F54"},
            "content":
              "<strong>b. Droit applicable.</strong><br/>Toute action liée aux présentes Conditions d’utilisation sera régie par le droit du Colorado et par le droit fédéral américain en vigueur et aucune règle de conflit de lois d’aucune juridiction ne s’appliquera. Toutefois, si vous êtes un résident de l’UE, vos droits en matière de protection des consommateurs ne sont pas limités par ce conflit de lois et vous pouvez faire valoir vos droits en matière de protection des consommateurs dans le pays de l’UE dans lequel vous résidez, dans le cadre des présentes Conditions d’utilisation. La Commission européenne met à votre disposition une plateforme en ligne de résolution des litiges, à laquelle vous pouvez accéder à l’adresse suivante : <a href='http://ec.europa.eu/consumers/odr/' target='_blank'>http://ec.europa.eu/consumers/odr/</a>."
          },
          {
            "style": {"marginLeft": "25px", "color": "#4A4F54"},
            "content":
              "<strong>c. Construction et délégation.</strong><br/>Dans l’éventualité où une disposition des présentes Conditions d’utilisation serait invalidée ou inapplicable, cette invalidité ou inapplicabilité n’invaliderait ni ne rendrait inapplicable aucune autre disposition des présentes Conditions d’utilisation et les présentes Conditions d’utilisation demeureraient pleinement en vigueur et seraient interprétées comme si elles ne contenaient pas la disposition non valide ou inapplicable."
          },
          {
            "style": {"marginLeft": "25px", "color": "#4A4F54"},
            "content":
              "<strong>d. Intégralité de l’accord.</strong><br/>Les présentes Conditions d’utilisation, ainsi que les documents en ligne supplémentaires expressément incorporés dans les présentes Conditions d’utilisation, constituent le seul et unique accord relatif à son objet entre vous et nous, applicable également à tous les utilisateurs de votre compte. Les présentes Conditions d’utilisation remplacent toutes les déclarations, propositions, incitations, assurances, promesses, contrats et autres communications relatives à son objet, à l’exception de celles qui sont expressément énoncées dans les présentes Conditions d’utilisation."
          },
          {
            "style": {"marginLeft": "25px", "color": "#4A4F54"},
            "content":
              "<strong>e. Divers.</strong><br/>Nous pouvons, à notre seule discrétion, appliquer ou refuser d’appliquer une partie ou la totalité des modalités des présentes Conditions d’utilisation. Les rubriques utilisées dans le présent document le sont pour des raisons de commodité seulement et ne doivent pas être considérées comme faisant partie des présentes Conditions d’utilisation ni être utilisées pour en interpréter les termes ou la signification. La date d’entrée en vigueur des présentes Conditions d’utilisation est la date à laquelle vous « acceptez » pour la première fois les présentes Conditions d’utilisation afin de recevoir les Services. Les dispositions des présentes Conditions d’utilisation qui, de par leur nature, devraient être maintenues survivront à toute résiliation des présentes Conditions d’utilisation."
          }
        ]
      }
    ]
  },
  "privacy": {
    "privacyHeader": "Politique de confidentialité sur la Wi-Fi en vol de Viasat",
    "privacySections": [
      {
        "title": "1.	COLLECTE D’INFORMATIONS",
        "isOpen": false,
        "paragraphs": [
          "Viasat peut recueillir des informations vous concernant lorsque vous utilisez nos Services, lorsque nous vous demandons des informations directement ou lorsque vous nous contactez (collectivement, les <strong>\u201C Informations \u201D</strong>). Les informations appartiennent aux catégories suivantes, que nous traitons différemment en vertu de la présente Politique : Informations personnelles (<strong>\u201C IP \u201D</strong>), IP recueillies par Viasat et Informations non personnelles (chacune définie ci-dessous). Cette section explique chaque catégorie de données et la façon dont nous recueillons chaque catégorie de données auprès de vous. Nous pouvons faire appel à des entrepreneurs pour nous aider à fournir les Services (les <strong>\u201C Fournisseurs \u201D</strong>) et ceux-ci peuvent, à ce titre, recueillir les Informations. Cependant, toutes les Informations personnelles recueillies par nos Fournisseurs en notre nom seront traitées comme des Informations personnelles recueillies par Viasat en vertu de la présente Politique.",
          {
            "style": {"marginLeft": "25px"},
            "content":
              "<strong>A.	Informations personnelles</strong><br/>Les Informations que Viasat et ses Fournisseurs et/ou les Services de tiers peuvent recueillir comprennent les informations personnelles identifiables, c’est-à-dire toute information concernant une personne physique identifiée ou identifiable (<strong>\u201C Informations personnelles \u201D</strong>). Des exemples d’Informations personnelles comprennent vos nom et prénom, adresse électronique, numéro de téléphone, adresse, numéro de compte de paiement complet et adresses IP, ainsi que des informations démographiques comme le sexe, l’âge, le code postal, les intérêts et les achats récents et futurs. Dans la mesure où des Informations non personnelles (définies ci-dessous) sont combinées par Viasat ou en son nom avec des Informations personnelles que Viasat recueille directement auprès de vous sur les Services (<strong>\u201C IP recueillies par Viasat \u201D</strong>), nous traiterons les données combinées comme des Informations personnelles aux termes de la présente Politique. "
          },
          {
            "style": {"marginLeft": "25px"},
            "content":
              "<strong>B.	Informations non personnelles</strong><br/>Les Informations que Viasat et ses Fournisseurs et/ou les Services de tiers peuvent recueillir comprennent certaines informations vous concernant lorsque vous accédez ou utilisez les Services (<strong>\u201C Informations d’utilisation \u201D</strong>). Les Informations d’utilisation peuvent inclure le type de navigateur, le système d’exploitation, les informations sur votre utilisation des Services et les données concernant le matériel connecté au réseau (par exemple, ordinateur ou appareil mobile). Sauf dans la mesure requise par la loi applicable, ou dans la mesure où elles sont combinées par Viasat ou en son nom avec des IP recueillies par Viasat, les Informations d’utilisation (y compris, sans s’y limiter, les identificateurs uniques) sont considérées comme des <strong>\u201C Informations non personnelles \u201D</strong> (c’est-à-dire des données qui ne sont pas des Informations personnelles au sens de cette Politique). De plus, les Informations personnelles, y compris, sans s’y limiter, les Informations personnelles recueillies par Viasat, une fois <strong>\u201C dépersonnalisées \u201D</strong> (c.-à-d. une fois supprimés les identificateurs personnels des données pour les rendre non identifiables) sont également considérées comme des Informations non personnelles et peuvent être utilisées et partagées sans obligation envers vous, sauf si cela est interdit par la loi applicable."
          },
          {
            "style": {"marginLeft": "25px"},
            "content":
              "<strong>C.	Enfants et mineurs</strong><br/>Les Services sont destinés à un public général et ne s’adressent pas aux enfants de moins de 13 ans. Viasat n’a pas l’intention de recueillir des Informations personnelles au sens de la Loi sur la protection de la vie privée des enfants (Children’s Privacy Protection Act, <strong>\u201C COPPA \u201D</strong>) (<strong>\u201C Informations personnelles sur les enfants \u201D</strong>) des États-Unis d’une manière non autorisée par la COPPA. Si vous êtes un parent ou un tuteur et que vous croyez que Viasat a recueilli des Informations personnelles sur les enfants d’une manière non autorisée par la COPPA, veuillez nous contacter aux coordonnées indiquées ci-dessous, et nous supprimerons ces données dans la mesure requise par la COPPA.<br/>Tout résident californien âgé de moins de dix-huit (18) ans qui s’est inscrit pour utiliser les Services et qui a affiché publiquement du contenu ou des informations sur les pages destinées au public qui font partie des Services que nous exploitons (par opposition aux Services de tiers qui peuvent avoir été accessibles via les Services, que nous ne fournissons pas et dont nous ne sommes pas responsables), peut en demander la suppression en nous contactant aux coordonnées fournies ci-dessous, en indiquant où le contenu ou les informations sont affichés et leur emplacement et en certifiant les avoir affichés. Viasat fera alors des efforts raisonnables de bonne foi pour retirer la publication de la vue du public ou pour l’anonymiser afin que le mineur ne puisse être identifié individuellement dans la mesure requise par la loi applicable. Ce processus de suppression ne peut pas garantir une suppression totale. Par exemple, des tiers peuvent avoir republié ou archivé du contenu par des moteurs de recherche et d’autres que Viasat ne contrôle pas."
          },
          {
            "style": {"marginLeft": "25px"},
            "content": "<strong>D. Comment les informations sont recueillies</strong>"
          },
          {
            "style": {"marginLeft": "50px"},
            "content":
              "<strong>(1)	Informations que vous nous fournissez</strong><br/>Vous pouvez nous fournir des informations lorsque vous vous inscrivez ou utilisez nos Services. Les Informations personnelles que nous recueillons peuvent comprendre votre nom, votre adresse, votre adresse électronique, votre numéro de téléphone, votre numéro de compte de grand voyageur de la Compagnie aérienne et un numéro de carte de crédit ou de débit ou d’autres informations financières. Nous conserverons vos Informations personnelles pendant la période nécessaire à la réalisation des objectifs énoncés dans la présente Politique, au besoin pour fournir des Services et nous conformer à nos obligations légales."
          },
          {
            "style": {"marginLeft": "50px"},
            "content":
              "<strong>(2)	Informations recueillies automatiquement</strong><br/>Lorsque vous utilisez nos Services, nous pouvons utiliser des cookies, des fichiers journaux ou d’autres technologies de suivi (les <strong>\u201C Technologies de suivi \u201D</strong>) développées actuellement ou ultérieurement pour collecter des Informations. Les Technologies de suivi nous aident à recueillir automatiquement certaines Informations sans que vous ne nous les fournissiez de façon affirmative (c.-à-d., la collecte passive). Cela peut inclure la collecte de données concernant vos identifiants de connexion, le type de navigateur, le système d’exploitation, la version du logiciel, l’adresse IP (protocole Internet) ou l’adresse MAC, les types de plateforme, ainsi que les Informations d’utilisation."
          },
          {
            "style": {"marginLeft": "50px"},
            "content":
              "Les Informations d’utilisation peuvent également être collectées en tant que sous-produit de l’exploitation du réseau commercial de services par satellite de Viasat, notamment des informations sur votre utilisation des Services, y compris les noms de domaine et de sous-domaine et les adresses complètes (<strong>\u201C URL \u201D</strong>) des sites Web visités lorsque vous utilisez nos Services, le temps que vous passez à les utiliser, le nombre de fois où vous y revenez, le temps nécessaire pour charger une page, la commande dans laquelle le contenu de chaque page charge et toute autre donnée nous permettant de suivre et comprendre comment nos utilisateurs utilisent les Services. Cela nous aide, par exemple, à améliorer la performance et l’expérience utilisateur de nos Services, y compris à optimiser, dépanner, mesurer et surveiller la performance de notre réseau et de nos Services, y compris le débogage, mesurer les niveaux de service et identifier les tendances de chargement et les sites Web qui sont statistiquement importants pour nos utilisateurs afin de fournir un trafic Internet plus efficace."
          },
          {
            "style": {"marginLeft": "50px"},
            "content":
              "<strong>(3)	Informations que vous affichez</strong><br/>Toutes les informations, y compris les commentaires et les Informations personnelles que vous affichez sur les pages publiques ou sur nos Services ou les Services de tiers sont accessibles au public et peuvent être consultées, recueillies et utilisées par Viasat. Viasat n’est pas responsable de l’exactitude des informations contenues dans ces publications. "
          },
          {
            "style": {"marginLeft": "50px"},
            "content":
              "<strong>(4)	Technologies de suivi et Do Not Track</strong><br/>Les Technologies de suivi que vous pouvez rencontrer lors de l’utilisation de nos Services, tant sur nos Services que sur les Services de tiers, incluent les :"
          },
          {
            "style": {"marginLeft": "50px"},
            "content":
              "<strong>Cookies</strong>. Les cookies sont des identifiants alphanumériques que nous transférons sur le disque dur de votre ordinateur via votre navigateur pour permettre à nos systèmes de reconnaître votre navigateur. Les cookies permettent à un serveur Web de transférer des données à un ordinateur à des fins d’archivage et autres. Nous et nos Fournisseurs pouvons utiliser des <strong>\u201C cookies \u201D</strong> en association avec nos Services à diverses fins, par exemple pour faciliter votre accès et votre utilisation continus des Services, ainsi que pour effectuer des analyses et collecter des Informations d’utilisation relatives à nos Services. Les Services de tiers peuvent également associer des cookies avec vous, mais nous n’en sommes pas responsables."
          },
          {
            "style": {"marginLeft": "50px"},
            "content":
              "Par exemple, nous pouvons utiliser des cookies pour mémoriser votre nom d’utilisateur et votre mot de passe, si vous choisissez de les stocker. Nous pouvons également utiliser des cookies pour déterminer quand votre session en cours sur les Services doit être déconnectée après une période d’inactivité, ainsi que pour gérer efficacement les serveurs fournissant nos Services."
          },
          {
            "style": {"marginLeft": "50px"},
            "content":
              "Si vous utilisez la méthode de blocage ou de suppression des cookies de votre navigateur, certains types de cookies, mais pas tous, peuvent être supprimés et/ou bloqués et, par conséquent, certaines caractéristiques et fonctionnalités des Services peuvent ne pas fonctionner. Un cookie Flash (ou objet partagé localement) est un fichier de données qui peut être placé sur un appareil via le plug-in Adobe Flash que vous pouvez intégrer ou télécharger sur votre appareil. Les cookies HTML5 peuvent être programmés via le stockage local HTML5. Les cookies Flash et les cookies HTML 5 sont stockés localement sur votre appareil en dehors du navigateur et les paramètres du navigateur ne les contrôlent pas. Pour identifier certains types d’objets locaux partagés sur votre ordinateur et ajuster vos paramètres, veuillez consulter : <a href='www.macromedia.com/support/documentation/en/flashplayer/help/settings_manager.html' target='_blank'>www.macromedia.com/support/documentation/en/flashplayer/help/settings_manager.html</a>. Les Services peuvent associer tout ou partie de ces types de cookies à vos appareils."
          },
          {
            "style": {"marginLeft": "50px"},
            "content":
              "Nous et nos Fournisseurs pouvons utiliser à la fois des cookies de session et des cookies persistants. Une description de chacun de ces cookies est fournie ci-dessous."
          },
          {
            "style": {"marginLeft": "50px"},
            "content":
              "<strong>Cookies de session</strong>. Les cookies de session n’existent que pendant une session en ligne. Ils disparaissent de votre ordinateur lorsque vous fermez votre navigateur ou éteignez votre ordinateur. Nous pouvons utiliser des cookies de session pour, par exemple, permettre à nos systèmes de vous identifier de manière unique pendant une session ou lorsque vous êtes connecté aux Services. Cela nous permet de traiter vos transactions et demandes en ligne et de vérifier votre identité, une fois que vous vous êtes connecté, lorsque vous passez par nos Services."
          },
          {
            "style": {"marginLeft": "50px"},
            "content":
              "<strong>Cookies persistants</strong>. Les cookies persistants restent sur votre ordinateur après que vous avez fermé votre navigateur ou éteint votre ordinateur. Nous pouvons utiliser des cookies persistants pour, par exemple, permettre à nos systèmes de se souvenir de vous et de vous connecter automatiquement à nos Services."
          },
          {
            "style": {"marginLeft": "50px"},
            "content":
              "Bien que la plupart des navigateurs vous permettent de bloquer les cookies en activant un en-tête <strong>\u201C Ne pas suivre \u201D</strong> dans le navigateur, nos Services ne recherchent pas les en-têtes <strong>\u201C Ne pas suivre \u201D</strong> et nous n’y répondons pas. Toutefois, nous n’utilisons les cookies que de la manière décrite dans la présente Politique."
          },
          {
            "style": {"marginLeft": "50px"},
            "content":
              "Certaines informations sur votre utilisation des Services et de certains Services de tiers peuvent être recueillies à l’aide des Technologies de suivi du temps et des services, et elles peuvent être utilisées par Viasat, nos Fournisseurs et des tiers pour associer différents dispositifs que vous utilisez et réaliser des analyses. Voir la section 5.D et E pour certains choix concernant ces activités. "
          },
          {
            "style": {"marginLeft": "50px"},
            "content":
              "Viasat vous informe des Technologies de suivi et de vos choix à leur sujet, tel qu’expliqué à la section 5.D et E, afin que votre consentement à les utiliser soit éclairé de façon significative."
          }
        ]
      },
      {
        "title": "2.	COMMENT NOUS UTILISONS LES INFORMATIONS RECUEILLIES",
        "isOpen": false,
        "paragraphs": [
          "Viasat (et nos Fournisseurs travaillant en notre nom) peut utiliser les Informations que nous (et nos Fournisseurs travaillant en notre nom) recueillons auprès de vous et à votre sujet, y compris les Informations personnelles, à toute fin non interdite par la loi applicable ou incompatible avec la présente Politique de confidentialité ou les Conditions de confidentialité supplémentaires applicables. Si nécessaire, nous obtiendrons votre consentement avant d’utiliser vos données à ces fins :",
          {
            "style": {"marginLeft": "25px"},
            "content": "•	Fournir les Services et communiquer avec nos clients ;"
          },
          {
            "style": {"marginLeft": "25px"},
            "content": "•	Développer de nouveaux produits ou services ;"
          },
          {
            "style": {"marginLeft": "25px"},
            "content": "•	Vous commercialiser nos Services et les services connexes ;"
          },
          {
            "style": {"marginLeft": "25px"},
            "content":
              "•	Vous contacter avec des informations et du contenu promotionnels de Viasat ou au nom de nos partenaires et affiliés ;"
          },
          {
            "style": {"marginLeft": "25px"},
            "content": "•	Vous identifier et/ou vous contacter ;"
          },
          {
            "style": {"marginLeft": "25px"},
            "content":
              "•	Optimiser, dépanner, mesurer et surveiller la performance de notre réseau et de nos Services, y compris le débogage, mesurer les niveaux de service et identifier les tendances de chargement et les sites Web qui sont statistiquement importants pour nos utilisateurs afin de fournir un trafic Internet plus efficace ;"
          },
          {
            "style": {"marginLeft": "25px"},
            "content": "•	Résoudre des problèmes avec les Services ou avec nos activités ;"
          },
          {
            "style": {"marginLeft": "25px"},
            "content": "•	Protéger la sécurité ou l’intégrité des Services et de nos activités ; "
          },
          {
            "style": {"marginLeft": "25px"},
            "content": "•	Tel que l’on vous l’a décrit au moment de la collecte des données ;"
          },
          {
            "style": {"marginLeft": "25px"},
            "content":
              "•	Utiliser et divulguer les informations relatives à votre carte de crédit ou de débit ou à d’autres informations financières uniquement pour traiter les paiements et prévenir la fraude ; et/ou"
          },
          {
            "style": {"marginLeft": "25px"},
            "content": "•	Traiter et compléter les transactions."
          },
          "Veuillez également noter que, conformément aux lois applicables, vos Informations peuvent être stockées et utilisées aux fins décrites dans la présente Politique aux États-Unis ou dans tout autre pays dans lequel Viasat ou ses filiales, sociétés affiliées ou fournisseurs de services mènent leurs activités. De plus, vos Informations peuvent être transférées vers des pays en dehors des États-Unis et de l’EEE en utilisant des sauvegardes appropriées si nécessaire."
        ]
      },
      {
        "title": "3.	PARTAGE ET DIVULGATION DES INFORMATIONS",
        "isOpen": false,
        "paragraphs": [
          "Viasat peut transmettre vos Informations, y compris vos Informations personnelles, à des tiers, à des fins non interdites par la loi applicable ou non conformes à la présente Politique. Cependant, nous ne partagerons pas les Informations personnelles recueillies par Viasat avec des tiers à des fins de marketing direct, à moins que nous ne vous donnions le choix (soit de vous abonner soit de vous désabonner selon la loi applicable) de ce partage. Si nécessaire, nous obtiendrons votre consentement avant de partager et de divulguer vos données dans les circonstances suivantes :",
          {
            "style": {"marginLeft": "25px"},
            "content":
              "•	Nous pouvons divulguer vos Informations à des partenaires, des Fournisseurs ou d’autres personnes qui exercent des fonctions en notre nom relativement aux Services ;"
          },
          {
            "style": {"marginLeft": "25px"},
            "content":
              "•	Nous pouvons divulguer vos Informations à des auditeurs externes, à des conseillers professionnels et à d’éventuels partenaires de transition commerciale ;"
          },
          {
            "style": {"marginLeft": "25px"},
            "content":
              "•	Dans le cadre de l’acquisition ou de la fusion de Viasat par une autre société ou en cas de regroupement ou de réorganisation impliquant Viasat, ou si la totalité ou une partie de nos actifs sont transférés à une autre société, ou dans le cadre d’une procédure de faillite ou d’une opération similaire, nous pouvons divulguer et transférer les Informations à la société acquérante ou à tout autre tiers concerné (notamment en ce qui concerne la diligence raisonnable à exercer dans une telle opération potentielle) ;"
          },
          {
            "style": {"marginLeft": "25px"},
            "content":
              "•	Nous pouvons divulguer vos Informations personnelles à des organismes d’application de la loi, à des représentants du gouvernement, à des organismes de réglementation ou à d’autres parties lorsque nous y sommes tenus par la loi applicable."
          },
          {
            "style": {"marginLeft": "25px"},
            "content":
              "•	Nous pouvons divulguer vos Informations afin de répondre à un processus judiciaire, par exemple pour nous conformer à une procédure judiciaire, à une assignation ou à une ordonnance d’un tribunal, pour nous conformer à la loi ou pour protéger nos droits en cas de litige ou d’arbitrage ; "
          },
          {
            "style": {"marginLeft": "25px"},
            "content":
              "•	Nous pouvons divulguer vos Informations lorsque nous croyons qu’il est nécessaire d’enquêter, de prévenir ou de prendre des mesures concernant des activités illégales, des soupçons de fraude, des situations impliquant des menaces potentielles à la sécurité ou à la propriété de toute personne ou entité (y compris Viasat), ou des violations de nos Conditions d’utilisation ou de nos politiques ;"
          },
          {
            "style": {"marginLeft": "25px"},
            "content":
              "•	En cas d’urgence, nous utiliserons ou partagerons vos Informations lorsque cela est nécessaire pour protéger un intérêt essentiel à la vie d’une personne ; et"
          },
          {
            "style": {"marginLeft": "25px"},
            "content":
              "•	Nous utiliserons ou divulguerons vos Informations lorsque cela est nécessaire pour protéger un intérêt essentiel à la vie d’une personne."
          }
        ]
      },
      {
        "title": "4.	SERVICES DE TIERS, CARACTÉRISTIQUES SOCIALES, PUBLICITÉ ET ANALYSE",
        "isOpen": false,
        "paragraphs": [
          "Les Services peuvent inclure des liens hypertextes vers les Services (par exemple, les applications et plug-ins), sites Web, emplacements, plates-formes, applications ou services exploités par des tiers (<strong>\u201C Service(s) de tiers \u201D</strong>), ou inclure sur ceux-ci, ou en relation avec ceux-ci, et vous pouvez utiliser les Services pour consulter et utiliser les Services de tiers. Ces Services de tiers peuvent utiliser leurs propres cookies, balises Web et autres Technologies de suivi pour recueillir de façon indépendante des informations à votre sujet et peuvent vous demander des informations personnelles.",
          "Certaines fonctionnalités des Services peuvent permettre des interactions que vous initiez entre les Services et certains Services de tiers, tels que les réseaux sociaux de tiers (<strong>\u201C Caractéristiques sociales \u201D</strong>). Exemples de caractéristiques sociales : vous permettre d’envoyer du contenu tel que des contacts et des photos entre les Services et un Service de tiers ; <strong>\u201C aimer \u201D</strong> ou <strong>\u201C partager \u201D</strong> notre contenu ; vous connecter aux Services en utilisant votre compte de Service de tiers (par exemple, utiliser Facebook Connect pour vous connecter aux Services) ; et connecter autrement le Service à un Service de tiers (par exemple, pour extraire ou pousser des informations vers ou depuis les Services). Si vous utilisez des Caractéristiques sociales, et éventuellement d’autres Services de tiers, les informations que vous affichez ou auxquelles vous donnez accès peuvent être affichées publiquement sur les Services (voir Section 1.D(3)) ou par le Service de tiers que vous utilisez. De même, si vous publiez des informations sur un Service de tiers faisant référence aux Services (par exemple, en utilisant un hashtag associé à Viasat dans un tweet ou une mise à jour de statut), votre publication peut être utilisée sur les Services ou en relation avec ceux-ci ou autrement par Viasat. De plus, Viasat et le tiers peuvent avoir accès à certaines informations vous concernant et concernant votre utilisation des Services et de tout Service de tiers. ",
          "Viasat peut faire appel à des Fournisseurs pour des services d’analyse. Ces services d’analyse peuvent utiliser des cookies et d’autres Technologies de suivi pour aider à analyser les utilisateurs des Services et la façon dont ils utilisent les Services. Les informations générées par ces services (par exemple, votre adresse IP et d’autres Informations d’utilisation) peuvent être transmises et stockées par ces Fournisseurs sur des serveurs aux États-Unis (ou ailleurs) et ces Fournisseurs peuvent utiliser ces informations à des fins telles que l’évaluation de votre utilisation des services, la compilation de rapports statistiques sur les activités des services et la fourniture d’autres services relatifs aux activités et autres utilisations Internet. ",
          "Sauf dans la mesure où Viasat combine des informations provenant de Fournisseurs, de Services de tiers ou d’autres tiers avec des IP collectées par Viasat, auquel cas Viasat traitera les informations combinées comme des Informations personnelles au sens de cette Politique de confidentialité (voir Section 1.A), les données obtenues par Viasat d’un tiers, même en association avec les Services, ne sont soumises aux limitations imposées par Viasat à l’IP collectées par Viasat dans cette Politique. Autrement, les Informations recueillies, stockées et partagées par des tiers demeurent assujetties à leurs politiques et pratiques en matière de protection de la vie privée, y compris la question de savoir s’ils continuent de partager des informations avec Viasat, les types d’informations partagées et vos choix quant à ce qui est visible aux autres sur les services de tiers. ",
          "Viasat n’est pas responsable des politiques ou des pratiques commerciales de tierces parties, y compris, mais sans s’y limiter, le contenu informationnel, les produits, les services, les logiciels ou tout autre matériel disponible sur un site Web externe, et ne fait aucune déclaration ou garantie à cet égard. Viasat vous encourage à vous familiariser avec leurs politiques de confidentialité et conditions d’utilisation et à les consulter. Voir la section 5 pour en savoir plus sur certains choix offerts par des tiers concernant la collecte et l’utilisation des données, y compris en matière d’analyse."
        ]
      },
      {
        "title": "5.	VOS CHOIX",
        "isOpen": false,
        "paragraphs": [
          {
            "style": {"marginLeft": "25px"},
            "content":
              "<strong>A.	Informations sur le compte </strong><br/>Vous pouvez mettre à jour ou modifier les coordonnées de votre compte et vos informations de facturation en nous contactant aux coordonnées fournies ci-dessous. Viasat s’efforcera de bonne foi d’apporter les modifications demandées dans ses bases de données alors actives dès que possible, mais il n’est pas toujours possible de modifier, supprimer ou effacer complètement toutes vos informations ou vos publications publiques de nos bases de données (voir la section suivante pour les parents d’enfants de moins de 13 ans et les mineurs de Californie) et les données restantes et/ou en cache peuvent rester archivées après coup. De plus, nous nous réservons le droit de conserver les données (a) tel que requis par la loi applicable ; et (b) aussi longtemps que raisonnablement nécessaire pour atteindre les buts pour lesquels les données sont conservées, sauf dans la mesure interdite par la loi applicable."
          },
          {
            "style": {"marginLeft": "25px"},
            "content":
              "Si vous ne souhaitez plus recevoir de communications de marketing direct de notre part, vous pouvez le faire en suivant les instructions incluses dans la communication ou en communiquant avec nous aux coordonnées indiquées ci-dessous."
          },
          {
            "style": {"marginLeft": "25px"},
            "content":
              "<strong>B.	Vos droits</strong><br/>Dans la mesure prévue par la loi de votre juridiction, vous pouvez avoir le droit de : (a) accéder à certaines Informations personnelles que nous conservons à votre sujet ; (b) exercer votre droit à la transférabilité des données ; (c) nous demander de mettre à jour, corriger, modifier, effacer ou restreindre vos Informations personnelles ; (d) retirer votre consentement donné précédemment ; (e) nous demander de ne pas partager vos Informations personnelles avec des tiers pour des services auxiliaires ou concurrents ; et/ou (f) nous opposer en tout temps à leur traitement sur la base de motifs légitimes concernant votre situation personnelle particulière. Nous nous conformerons à ces demandes dans la mesure requise par la loi applicable de votre juridiction, mais nous pourrions ne pas donner suite à une demande si nous croyons que le changement violerait une loi ou une exigence légale ou rendrait les informations inexactes. Nous pouvons prendre des mesures pour vérifier votre identité avant de vous donner accès à vos informations. Nous pouvons facturer des frais, dans la mesure permise par la loi applicable, avant de vous fournir une copie des Informations personnelles que nous détenons à votre sujet. Vous pouvez, selon l’endroit où vous vous trouvez, avoir le droit de déposer une plainte auprès d’un organisme de réglementation gouvernemental si vous n’êtes pas satisfait de notre réponse."
          },
          {
            "style": {"marginLeft": "25px"},
            "content":
              "Pour exercer les droits ci-dessus, veuillez nous contacter aux coordonnées ci-dessous. Nous examinerons et traiterons votre demande dans un délai raisonnable. Veuillez noter que dans certaines circonstances, le RGPD peut limiter l’exercice de ces droits."
          },
          {
            "style": {"marginLeft": "25px"},
            "content":
              "<strong>C.	Retrait du consentement</strong><br/>À tout moment, les Personnes concernées de l’EEE peuvent retirer le consentement qu’elles ont donné à Viasat pour l’utilisation, la divulgation ou tout autre traitement de vos Informations personnelles. Vous pouvez retirer votre consentement en envoyant un e-mail à Viasat aux coordonnées fournies ci-dessous et en suivant les instructions que nous vous avons fournies. "
          },
          {
            "style": {"marginLeft": "25px"},
            "content":
              "Veuillez noter que le retrait de votre consentement au traitement de certaines Informations personnelles vous concernant (1) peut limiter notre capacité à vous fournir des services et (2) n’affecte pas la légalité de nos activités de traitement basées sur votre consentement avant son retrait."
          },
          {
            "style": {"marginLeft": "25px"},
            "content":
              "<strong>D.	Technologies de suivi en général</strong><br/>Les cookies réguliers peuvent généralement être désactivés ou supprimés par les outils disponibles dans la plupart des navigateurs commerciaux et, dans certains cas, bloqués à l’avenir en sélectionnant certains paramètres. Les navigateurs offrent différentes fonctionnalités et options, vous devrez peut-être les configurer séparément. De plus, les outils des navigateurs commerciaux peuvent ne pas être efficaces en ce qui concerne les cookies Flash (également appelés objets partagés localement), les cookies HTML5 ou d’autres Technologies de suivi. Pour plus d’informations sur la désactivation des cookies Flash, rendez-vous sur le site Web d’Adobe à l’adresse <a href='http://helpx.adobe.com/flash-player/kb/disable-third-party-local-shared.html' target='_blank'>http://helpx.adobe.com/flash-player/kb/disable-third-party-local-shared.html</a>. Veuillez noter que si vous désactivez ou supprimez ces technologies, certaines parties du Service (et des Services de tiers) peuvent ne pas fonctionner et que lorsque vous revisitez le Service, votre capacité à limiter les Technologies de suivi basées sur le navigateur est soumise aux paramètres et limitations de votre navigateur."
          },
          {
            "style": {"marginLeft": "25px"},
            "content":
              "Les paramètres de votre navigateur peuvent vous permettre de transmettre automatiquement un signal <strong>\u201C Ne pas suivre \u201D</strong> aux services en ligne que vous visitez. Notez toutefois qu’il n’y a pas de consensus parmi les acteurs de l’industrie quant à la signification de l’expression <strong>\u201C Ne pas suivre \u201D</strong> dans ce contexte. Comme beaucoup de services en ligne, nous ne modifions pas actuellement nos pratiques lorsque nous recevons une alerte <strong>\u201C Ne pas suivre \u201D</strong> du navigateur d’un utilisateur. Pour en savoir plus sur <strong>\u201C Ne pas suivre \u201D</strong>, vous pouvez visiter <a href='http://www.allaboutdnt.com' target='_blank'>http://www.allaboutdnt.com</a>, mais nous ne sommes pas responsables de l’exhaustivité ou de l’exactitude de ces informations de tiers. Certains tiers, cependant, peuvent vous offrir des choix concernant leurs Technologies de suivi. Une façon d’identifier potentiellement les cookies sur nos Services (et sur les Services de tiers) est d’ajouter le plug-in Ghostery gratuit à votre navigateur (<a href='www.ghostery.com' target='_blank'>www.ghostery.com</a>), qui, selon Ghostery, affichera pour vous les cookies traditionnels basés sur le navigateur associés aux sites Web (mais pas aux applications mobiles) que vous visitez et les politiques et options de confidentialité et de désabonnement des parties exploitant ces cookies. Viasat n’est pas responsable de l’exhaustivité ou de l’exactitude de cet outil ou des avis ou mécanismes de choix de tiers. Pour des informations spécifiques sur certaines des options de choix offertes par les fournisseurs de services d’analyse et de publicité de tiers, voir la section suivante."
          },
          {
            "style": {"marginLeft": "25px"},
            "content":
              "<strong>E.	Technologies d’analyse et de suivi de la publicité</strong><br/>Vous pouvez exercer vos choix concernant l’utilisation des cookies de Google Analytics en vous rendant sur <a href='https://tools.google.com/dlpage/gaoptout' target='_blank'>https://tools.google.com/dlpage/gaoptout</a> ou en téléchargeant le module complémentaire de navigateur pour la désactivation de Google Analytics. Vous pouvez exercer vos choix concernant l’utilisation des cookies d’Adobe Analytics en vous rendant sur <a href='http://www.adobe.com/privacy/opt-out.html' target='_blank'>http://www.adobe.com/privacy/opt-out.html</a> sous la section intitulée \u201C Dites à nos clients de ne pas mesurer votre utilisation de leurs sites Web ou d’adapter leurs annonces en ligne pour vous \u201D."
          },
          {
            "style": {"marginLeft": "25px"},
            "content":
              "Vous pouvez choisir de recevoir ou non de la publicité basée sur vos intérêts en soumettant un formulaire de désabonnement. Certains des annonceurs et Fournisseurs qui fournissent des services liés à la publicité pour nous et nos partenaires, ou qui sont associés aux Services de tiers que vous pouvez visiter en utilisant nos Services, peuvent participer au programme d’autorégulation de la Digital Advertising Alliance (<strong>\u201C DAA \u201D</strong>) concernant la publicité comportementale en ligne. Pour en savoir plus sur la façon dont vous pouvez exercer certains choix concernant la publicité basée sur vos intérêts, visitez <a href='http://www.aboutads.info/choices/' target='_blank'>http://www.aboutads.info/choices/</a> et <a href='http://www.aboutads.info/appchoices' target='_blank'>http://www.aboutads.info/appchoices</a> pour obtenir des informations sur le programme de désabonnement de la DAA pour les applications mobiles. Certaines de ces sociétés peuvent également être membres de la Network Advertising Initiative (<strong>\u201C NAI \u201D</strong>). Pour en savoir plus sur la NAI et sur les options de désabonnement qui s’offrent à leurs membres, consultez <a href='http://www.networkadvertising.org/choices/.' target='_blank'>http://www.networkadvertising.org/choices/.</a> Veuillez noter que, même si vous pouvez vous désabonner de certains types de publicité basée sur vos intérêts, vous pouvez continuer à recevoir d’autres types d’annonces. Le désabonnement signifie seulement que les membres sélectionnés ne doivent plus vous diffuser certaines publicités basées sur vos intérêts, mais cela ne signifie pas que vous ne recevrez plus de contenu ou de publicités ciblées (p. ex., d’autres réseaux publicitaires). De plus, si vos navigateurs sont configurés pour rejeter les cookies lorsque vous visitez ces pages Web avec option de désabonnement, ou si vous effacez par la suite vos cookies, utilisez un ou des navigateurs Web différents ou utilisez une méthode d’accès sans navigateur (p. ex., application mobile), votre option de désabonnement basé sur le navigateur NAI / DAA peut ne pas être efficace, ou ne plus l’être. Viasat n’est pas responsable de l’efficacité ou du respect des options ou des programmes de désabonnement de tiers ou de l’exactitude de leurs déclarations concernant leurs programmes."
          }
        ]
      },
      {
        "title": "6.	VOS DROITS À LA VIE PRIVÉE EN CALIFORNIE",
        "isOpen": false,
        "paragraphs": [
          "Nous pouvons de temps à autre choisir de partager certaines Informations vous concernant avec des tiers, tels qu’une Compagnie aérienne, aux fins de marketing direct de ces tiers, cependant, nous ne partagerons sciemment des Informations personnelles avec des tiers à leurs fins de marketing direct que si vous avez consenti à ce partage (abonnement) ou si vous avez la possibilité d’éventuellement mettre fin à ce partage (désabonnement). L’article 1798.83 du Code civil de la Californie permet aux résidents de la Californie qui nous ont fourni des informations personnelles, telles que définies dans la loi, d’exercer, dans certaines circonstances, ces droits d’abonnement/de désabonnement et de s’informer davantage sur la façon de le faire et sur la façon dont nous nous conformons à l’article 1798.83. Pour faire une telle demande, veuillez nous fournir suffisamment d’informations pour que nous puissions déterminer si cela vous est applicable, attester que vous êtes un résident de la Californie et fournir une adresse à jour pour notre réponse. Vous pouvez faire cette demande par écrit à l’adresse suivante : Viasat, Inc, 3902 S. Traditions Drive, College Station, TX 77845, à l’attention du Service juridique. Une telle demande doit inclure \u201C California Privacy Rights Request \u201D (Demande de droits à la vie privée en Californie) sur la première ligne de la description et inclure votre nom, adresse municipale, ville, état et code postal. Veuillez noter que nous ne sommes tenus de répondre qu’à une seule demande par client chaque année et que nous ne sommes pas tenus de répondre aux demandes faites autrement que par notre adresse électronique ou notre adresse postale."
        ]
      },
      {
        "title": "7.	TRANSFERT INTERNATIONAL",
        "isOpen": false,
        "paragraphs": [
          "Vos informations sont stockées sur des serveurs aux États-Unis. Si vous êtes situé à l’extérieur des États-Unis, veuillez noter que les informations que nous recueillons seront transférées et traitées aux États-Unis, en utilisant les mesures de protection appropriées au besoin."
        ]
      },
      {
        "title": "8.	SÉCURITÉ DES DONNÉES",
        "isOpen": false,
        "paragraphs": [
          "Viasat a pris certaines mesures physiques, administratives et techniques pour protéger les Informations personnelles que nous recueillons auprès des clients et des visiteurs de nos Services. Bien que nous cherchions à assurer l’intégrité et la sécurité de notre réseau et de nos systèmes, nous ne pouvons garantir la sécurité des Informations contre le détournement par des pirates informatiques ou d’autres activités malveillantes ou criminelles, ou en cas de panne du matériel informatique, des logiciels ou d’un réseau de télécommunications. Nous vous encourageons à prendre des précautions pour protéger vos données personnelles lorsque vous êtes sur Internet. Conformément aux lois applicables, nous vous aviserons si nous prenons connaissance d’une violation de la sécurité concernant vos données personnelles stockées par ou pour nous."
        ]
      },
      {
        "title": "9.	MODIFICATIONS À LA POLITIQUE DE CONFIDENTIALITÉ",
        "isOpen": false,
        "paragraphs": [
          "Viasat peut modifier cette Politique de temps à autre. Lorsque nous le ferons, nous afficherons la ou les modifications sur les Services. Toute modification entrera en vigueur immédiatement après l’affichage de la Politique révisée, à moins qu’une date d’entrée en vigueur différente ne soit indiquée et que votre utilisation de notre Service indique votre consentement à la Politique de confidentialité affichée au moment de l’utilisation. Cependant, nous n’utiliserons pas vos Informations personnelles recueillies précédemment par Viasat, dans la mesure où elles ne sont pas recueillies en vertu de la nouvelle Politique de confidentialité, d’une manière matériellement différente de celle déclarée au moment où elles ont été recueillies sans votre consentement. Dans la mesure où une disposition de la présente Politique est jugée invalide ou inapplicable par un tribunal compétent, cette disposition sera supprimée dans la mesure nécessaire pour que le reste soit valide et applicable."
        ]
      },
      {
        "title": "10.	COMMENT NOUS CONTACTER",
        "isOpen": false,
        "paragraphs": [
          "Si vous avez des questions que vous aimeriez poser au sujet de la présente Politique ou de la façon dont nous traitons vos Informations, ou si vous avez une demande concernant la section intitulée <strong>\u201C Vos droits \u201D</strong>, veuillez envoyer un e-mail à <a href='mailto:privacy@Viasat.com'>privacy@Viasat.com</a> ou nous joindre à notre service clientèle au numéro 1-866-497-5377."
        ]
      }
    ]
  },
  "consentDeclaration": {
    "consentDeclarationHeader": "DÉCLARATION DE CONSENTEMENT",
    "consentDeclarationContent":
      "<p>Conformément au Règlement général de l’Union européenne sur la protection des données 2016/679 (<strong>\u201C RGPD de l’UE \u201D</strong>), Viasat (la <strong>\u201C Société \u201D</strong>), en sa qualité de responsable du traitement des données en vertu du RGPD de l’UE, demande votre consentement explicite et formel à certaines activités de traitement impliquant vos données à caractère personnel.</p><p>En cochant la case ci-dessous pour confirmer que <strong>\u201C vous avez lu et accepté les présentes Conditions d’utilisation \u201D</strong>, vous consentez à la collecte, au traitement et à l’utilisation des données à caractère personnel par Viasat, Inc, 3902 South Traditions Drive, College Station, TX 77845, ÉTATS-UNIS (<strong>\u201C Viasat \u201D</strong>), tel que décrit dans la Politique de confidentialité de Viasat sur la WiFi en vol (la <strong>\u201C Politique de confidentialité \u201D</strong>), y compris un transfert et un stockage dans la ou les bases de données Viasat, afin de fournir le service Internet WiFi en vol Viasat et les produits et services connexes (la <strong>\u201C Finalité \u201D</strong>) (collectivement les <strong>\u201C Services \u201D</strong>). En règle générale, les <strong>\u201C données à caractère personnel \u201D</strong> (ou <strong>\u201C informations personnelles \u201D</strong> dans la Politique de confidentialité) désignent les informations concernant une personne physique identifiée ou identifiable. Les types de données à caractère personnel que nous pouvons traiter à votre sujet comprennent, sans s’y limiter, vos nom et prénom, adresse e-mail, adresses IP et code postal.</p><p>Viasat peut traiter vos données à caractère personnel pour vous fournir les Services. Par exemple, Viasat utilisera vos informations personnelles pour traiter votre paiement du Service et pour identifier votre appareil personnel afin de vous fournir le Service.</p><p>Viasat partagera également vos données à caractère personnel avec des tiers afin de vous fournir les Services. Les tiers avec lesquels Viasat peut partager vos données à caractère personnel peuvent inclure des partenaires, des fournisseurs ou d’autres personnes qui exercent des fonctions liées aux Services en notre nom. Viasat exigera de tout tiers traitant vos données à caractère personnel qu’il se conforme aux termes et conditions de la présente Déclaration de consentement.</p><p>Viasat peut également traiter vos données à caractère personnel si nécessaire pour se conformer aux lois applicables, pour protéger vos intérêts vitaux et pour atteindre des objectifs liés aux intérêts légitimes de Viasat à vous fournir les Services (dans la mesure où ces intérêts ne sont pas contrebalancés par vos intérêts à protéger vos données à caractère personnel). Sauf disposition contraire de la loi, les données à caractère personnel ne seront manipulées et traitées que par les personnes qui sont responsables des activités nécessaires à la Finalité.</p><p>Viasat s’engage à assurer la sécurité de vos informations. Nous avons mis en place des mesures de protection physiques, techniques et administratives raisonnables conçues pour empêcher l’accès non autorisé à vos informations personnelles.</p><p>De plus, vous reconnaissez et confirmez que vos données à caractère personnel seront partagées avec les bureaux de Viasat en Californie, en Inde et aux États-Unis, avec Amazon Web Services, Inc, Salesforce.com, Inc, CMC Americas, Inc. Eutelsat SA, et Viawest, Inc. qui peuvent être situés en dehors de votre pays de résidence et qui peuvent avoir un niveau de protection des données différent de celui de votre pays de résidence, le tout conformément à la Politique de confidentialité.</p><p>Vous avez le droit de retirer à tout moment votre consentement à la collecte et au traitement des données à caractère personnel. Si vous souhaitez retirer votre consentement, veuillez nous contacter par e-mail à <a href='mailto:privacy@Viasat.com>privacy@Viasat.com</a>.</p>"
  },
  "effectiveDate": {
    "effectiveDateText": "Date d'effet: le 4 décembre 2018"
  },
  "agreements": {
    "agreementCheckOneText":
      "En cochant cette case, vous reconnaissez avoir lu et accepté les présentes Conditions d’utilisation et la Déclaration de consentement, ainsi que la Politique de confidentialité et la Politique d’utilisation acceptable de Viasat. Ni Viasat ni la Compagnie aérienne n’utiliseront vos coordonnées pour envoyer des e-mails avec du contenu promotionnel ou marketing.",
    "buttonText": "CONTINUER"
  }
}
