{
  "feature": {
    "columnSizes": {
      "xs": 12
    }
  },
  "componentTheme": {
    "boxShadow": "none",
    "display": {
      "xs": true
    },
    "padding": {
      "xs": "0 0 0 0"
    },
    "margin": {
      "xs": "0 0 0 0"
    },
    "order": {
      "xs": 0
    },
    "width": {
      "xs": "auto"
    },
    "height": {
      "xs": "auto"
    },
    "minHeight": {
      "xs": "auto"
    },
    "maxHeight": {
      "xs": "auto"
    },
    "minWidth": {
      "xs": "auto"
    },
    "maxWidth": {
      "xs": "auto"
    },
    "backgroundImage": null,
    "align": {
      "xs": "left"
    }
  }
}
