<svg xmlns="http://www.w3.org/2000/svg" width="25" height="25" viewBox="0 0 25 25">
    <path fill="#202E39" fill-rule="evenodd" d="M12.5 0c1.725 0 3.349.326 4.87.977a12.544 12.544 0 0 1 3.98 2.673 12.544 12.544 0 0 1 2.673 3.98c.651 1.521.977 3.145.977 4.87s-.326 3.349-.977 4.87a12.544 12.544 0 0 1-2.673 3.98 12.544 12.544 0 0 1-3.98 2.673c-1.521.651-3.145.977-4.87.977s-3.349-.326-4.87-.977a12.544 12.544 0 0 1-3.98-2.673 12.544 12.544 0 0 1-2.673-3.98C.326 15.85 0 14.226 0 12.5s.326-3.349.977-4.87A12.544 12.544 0 0 1 3.65 3.65 12.544 12.544 0 0 1 7.63.977C9.15.326 10.774 0 12.5 0zm0 23.462c1.514 0 2.934-.289 4.26-.867a11.038 11.038 0 0 0 3.467-2.356 11.294 11.294 0 0 0 2.344-3.479c.578-1.326.866-2.746.866-4.26 0-1.514-.288-2.934-.866-4.26a11.142 11.142 0 0 0-2.344-3.467 11.142 11.142 0 0 0-3.467-2.344 10.551 10.551 0 0 0-4.26-.866c-1.514 0-2.934.288-4.26.866a11.142 11.142 0 0 0-3.467 2.344A11.142 11.142 0 0 0 2.429 8.24a10.551 10.551 0 0 0-.866 4.26c0 1.514.288 2.934.866 4.26a11.294 11.294 0 0 0 2.344 3.48c.985.992 2.14 1.777 3.467 2.355 1.326.578 2.746.867 4.26.867zm.488-15.674a.772.772 0 0 1 .562-.244c.211 0 .399.081.561.244l4.615 4.736-4.615 4.737c-.081.065-.17.118-.268.158a.757.757 0 0 1-.293.061.757.757 0 0 1-.293-.06 1.113 1.113 0 0 1-.269-.16.815.815 0 0 1-.22-.56c0-.212.074-.4.22-.562l2.881-2.857H7.031a.74.74 0 0 1-.561-.232.772.772 0 0 1-.22-.549.76.76 0 0 1 .22-.562.76.76 0 0 1 .561-.22h8.79l-2.833-2.831a.745.745 0 0 1-.22-.55c0-.22.074-.402.22-.549z"/>
</svg>
