<svg xmlns="http://www.w3.org/2000/svg" width="26" height="26" viewBox="0 0 26 26">
    <path fill="#25B2EF" fill-rule="evenodd" d="M20.474 23.642v-9.917l1.56-1.487v11.404c0 .438-.151.808-.452 1.108-.3.301-.67.451-1.108.451H2.54c-.422 0-.788-.15-1.097-.45-.308-.301-.463-.67-.463-1.11V4.15c0-.423.155-.788.463-1.097A1.499 1.499 0 0 1 2.54 2.59h12.5l.049.049-1.584 1.51H2.54v19.494h17.934zm4.264-22.393c.406.39.71.788.914 1.194.203.406.312.828.328 1.267 0 .422-.097.845-.292 1.267-.195.422-.495.845-.901 1.267-.18.195-.82.837-1.925 1.925s-2.29 2.254-3.558 3.497a840.021 840.021 0 0 0-5.263 5.202 1.915 1.915 0 0 0-.134.097.431.431 0 0 1-.134.073c-.195.05-.593.171-1.194.366-.601.195-1.227.394-1.876.597-.65.203-1.227.39-1.73.56-.504.171-.764.256-.78.256a.4.4 0 0 0-.098.012.4.4 0 0 1-.097.013.652.652 0 0 1-.463-.195.663.663 0 0 1-.17-.305.652.652 0 0 1 0-.353c0-.016.077-.272.231-.768.154-.495.329-1.064.524-1.705.195-.642.382-1.272.56-1.889a74.55 74.55 0 0 1 .39-1.316c.016-.048.037-.097.061-.146a.573.573 0 0 1 .11-.146l1.62-1.62c1.08-1.08 2.278-2.275 3.594-3.582a774.193 774.193 0 0 0 3.655-3.655c1.121-1.13 1.73-1.734 1.828-1.816.13-.13.418-.345.865-.645.446-.3.986-.451 1.62-.451.422 0 .828.085 1.218.256.39.17.756.418 1.097.743zm-1.072 3.899c.26-.26.45-.508.572-.744.122-.235.183-.458.183-.67a1.668 1.668 0 0 0-.207-.657 2.695 2.695 0 0 0-.548-.683 2.577 2.577 0 0 0-.622-.438 1.422 1.422 0 0 0-.621-.147c-.357 0-.67.098-.938.293a7.24 7.24 0 0 0-.45.341l-4.886 4.885c-1.21 1.21-2.372 2.368-3.485 3.473-1.113 1.104-1.831 1.819-2.156 2.144a189.933 189.933 0 0 1-1.145 3.85c.65-.211 1.344-.435 2.083-.67l1.645-.524.487-.463c1.56-1.543 2.944-2.912 4.154-4.106s2.238-2.21 3.083-3.046c.844-.836 1.506-1.49 1.986-1.961.479-.471.767-.764.865-.877z"/>
</svg>
