<?xml version="1.0" encoding="UTF-8"?>
<svg width="35px" height="35px" viewBox="0 0 35 35" version="1.1" xmlns="http://www.w3.org/2000/svg" xmlns:xlink="http://www.w3.org/1999/xlink">
    <!-- Generator: sketchtool 51 (57462) - http://www.bohemiancoding.com/sketch -->
    <title>EE1CC4B2-9BB9-4093-913F-CD72AF80ECAB</title>
    <desc>Created with sketchtool.</desc>
    <defs></defs>
    <g id="Page-1" stroke="none" stroke-width="1" fill="none" fill-rule="evenodd">
        <g id="Neos_Connected_Tablet" transform="translate(-736.000000, -634.000000)">
            <rect fill="#FFFFFF" x="0" y="0" width="1440" height="960"></rect>
            <path d="M754.504486,658.330386 C754.504486,660.785746 752.205376,661.656283 750.084838,661.656283 C747.785728,661.656283 744.816975,660.651817 744.816975,657.883957 C744.816975,654.959846 748.232157,654.223238 750.553589,654.223238 C750.776803,654.223238 751.000018,654.223238 751.245554,654.267881 C752.607163,655.250025 754.504486,656.410741 754.504486,658.330386 Z M752.852699,646.165193 C752.852699,647.861624 751.892876,649.267875 750.062517,649.267875 C747.517871,649.267875 746.312512,645.919657 746.312512,643.799119 C746.312512,642.12501 747.183049,640.517865 749.080373,640.517865 C751.625019,640.517865 752.852699,644.066976 752.852699,646.165193 Z M755.218773,640.428579 L757.183061,639.000006 L751.267875,639.000006 C747.584835,639.000006 743.678581,641.254473 743.678581,645.316978 C743.678581,648.129481 745.888405,650.138412 748.656265,650.138412 C748.968765,650.138412 749.303587,650.116091 749.616088,650.071448 C749.437516,650.473234 749.325909,650.852699 749.325909,651.276806 C749.325909,652.125022 749.705373,652.727701 750.218767,653.375023 C748.299122,653.508952 746.133941,653.754488 744.482153,654.781275 C743.165187,655.607169 742.160722,656.946456 742.160722,658.531279 C742.160722,661.857176 745.933048,662.950927 748.633944,662.950927 C752.071448,662.950927 756.513417,661.209854 756.513417,657.125028 C756.513417,653.17413 752.138412,652.459843 752.138412,650.607163 C752.138412,648.799125 755.48663,648.352696 755.48663,644.669656 C755.48663,642.705368 754.638415,641.723223 753.366092,640.428579 L755.218773,640.428579 Z M761.714316,650.428591 L764.571463,650.428591 L764.571463,649.000018 L761.714316,649.000018 L761.714316,646.142872 L760.285743,646.142872 L760.285743,649.000018 L757.428597,649.000018 L757.428597,650.428591 L760.285743,650.428591 L760.285743,654.000024 L761.714316,654.000024 L761.714316,650.428591 Z M770.285755,640.428579 L770.285755,661.857176 C770.285755,665.406287 767.406287,668.285755 763.857176,668.285755 L742.428579,668.285755 C738.879468,668.285755 736,665.406287 736,661.857176 L736,640.428579 C736,636.879468 738.879468,634 742.428579,634 L763.857176,634 C767.406287,634 770.285755,636.879468 770.285755,640.428579 Z" id="google-plus-square---FontAwesome" fill="#DB4437"></path>
        </g>
    </g>
</svg>