<!--<svg  preserveAspectRatio="xMinYMin meet" id="Layer_1" data-name="Layer 1" xmlns="http://www.w3.org/2000/svg" xmlns:xlink="http://www.w3.org/1999/xlink" viewBox="0 0 768 151.62"><defs><style>.cls-1{fill:url(#linear-gradient);}.cls-2{fill:#1d9ed9;}.cls-3{fill:url(#linear-gradient-2);}</style><linearGradient id="linear-gradient" y1="18.86" x2="383.03" y2="18.86" gradientUnits="userSpaceOnUse"><stop offset="0" stop-color="#1d3362"/><stop offset="0.35" stop-color="#016a83"/><stop offset="0.64" stop-color="#009198"/><stop offset="0.85" stop-color="#00a9a5"/><stop offset="1" stop-color="#00b1a9"/></linearGradient><linearGradient id="linear-gradient-2" x1="190.48" y1="75.81" x2="768" y2="75.81" gradientUnits="userSpaceOnUse"><stop offset="0" stop-color="#1d9ed9"/><stop offset="0.16" stop-color="#0da1db"/><stop offset="0.34" stop-color="#1da9c4"/><stop offset="0.56" stop-color="#47b49e"/><stop offset="0.77" stop-color="#81c56c"/><stop offset="1" stop-color="#bdd632"/></linearGradient></defs><title>Motif_tablet</title><polygon class="cls-1" points="0 0.01 190.48 37.73 383.03 0 0 0.01"/><polygon class="cls-2" points="0 76.18 190.48 37.73 0 0.01 0 76.18"/><polygon class="cls-3" points="768 0.01 383.03 0 190.48 37.73 768 151.62 768 0.01"/></svg>-->

<svg preserveAspectRatio="none" id="Layer_1" data-name="Layer 1" xmlns="http://www.w3.org/2000/svg" xmlns:xlink="http://www.w3.org/1999/xlink" viewBox="0 0 768 151.62" width="100%" height="150"><defs><style>.cls-1{fill:url(#linear-gradient);}.cls-2{fill:#1d9ed9;}.cls-3{fill:url(#linear-gradient-2);}</style><linearGradient id="linear-gradient" y1="18.86" x2="383.03" y2="18.86" gradientUnits="userSpaceOnUse"><stop offset="0" stop-color="#1d3362"/><stop offset="0.35" stop-color="#016a83"/><stop offset="0.64" stop-color="#009198"/><stop offset="0.85" stop-color="#00a9a5"/><stop offset="1" stop-color="#00b1a9"/></linearGradient><linearGradient id="linear-gradient-2" x1="190.48" y1="75.81" x2="768" y2="75.81" gradientUnits="userSpaceOnUse"><stop offset="0" stop-color="#1d9ed9"/><stop offset="0.16" stop-color="#0da1db"/><stop offset="0.34" stop-color="#1da9c4"/><stop offset="0.56" stop-color="#47b49e"/><stop offset="0.77" stop-color="#81c56c"/><stop offset="1" stop-color="#bdd632"/></linearGradient></defs><title>Motif_tablet</title><polygon class="cls-1" points="0 0.01 190.48 37.73 383.03 0 0 0.01"/><polygon class="cls-2" points="0 76.18 190.48 37.73 0 0.01 0 76.18"/><polygon class="cls-3" points="768 0.01 383.03 0 190.48 37.73 768 151.62 768 0.01"/></svg>
