<?xml version="1.0" encoding="UTF-8"?>
<svg width="30px" height="24px" viewBox="0 0 30 24" version="1.1" xmlns="http://www.w3.org/2000/svg" xmlns:xlink="http://www.w3.org/1999/xlink">
    <!-- Generator: sketchtool 51 (57462) - http://www.bohemiancoding.com/sketch -->
    <title>01398CFE-30DE-4976-B25C-D334352E3FE3</title>
    <desc>Created with sketchtool.</desc>
    <defs></defs>
    <g id="Welcome" stroke="none" stroke-width="1" fill="none" fill-rule="evenodd">
        <g id="Menu_Mobile" transform="translate(-20.000000, -302.000000)" fill="#6DACE3">
            <g id="Group-6" transform="translate(0.000000, 280.000000)">
                <g id="Group-4">
                    <path d="M34.8660892,40.1071358 L36.8080558,38.1651692 L34.2634099,35.6205233 L32.3214433,37.5624899 L32.3214433,38.4999911 L33.928588,38.4999911 L33.928588,40.1071358 L34.8660892,40.1071358 Z M42.2321694,28.05355 C42.0814995,27.9028802 41.8303832,27.9196213 41.6797133,28.0702911 L35.8203314,33.9296731 C35.6696615,34.0803429 35.6529204,34.3314593 35.8035903,34.4821291 C35.9542601,34.6327989 36.2053765,34.6160579 36.3560463,34.465388 L42.2154283,28.6060061 C42.3660981,28.4553362 42.3828392,28.2042199 42.2321694,28.05355 Z M43.5714567,37.9977583 L43.5714567,41.1785657 C43.5714567,43.8403992 41.4118559,46 38.7500224,46 L24.8214343,46 C22.1596008,46 20,43.8403992 20,41.1785657 L20,27.2499776 C20,24.5881441 22.1596008,22.4285433 24.8214343,22.4285433 L38.7500224,22.4285433 C39.419666,22.4285433 40.0893097,22.5624721 40.70873,22.8470706 C40.8593999,22.914035 40.9765875,23.0647048 41.0100697,23.2321157 C41.0435519,23.4162677 40.9933286,23.5836786 40.8593999,23.7176074 L40.0390864,24.5379208 C39.8884166,24.6885907 39.6875235,24.7388139 39.5033715,24.6718496 C39.2522551,24.6048852 39.0011387,24.571403 38.7500224,24.571403 L24.8214343,24.571403 C23.3482183,24.571403 22.1428597,25.7767616 22.1428597,27.2499776 L22.1428597,41.1785657 C22.1428597,42.6517817 23.3482183,43.8571403 24.8214343,43.8571403 L38.7500224,43.8571403 C40.2232384,43.8571403 41.428597,42.6517817 41.428597,41.1785657 L41.428597,39.0691882 C41.428597,38.9352594 41.4788202,38.8013307 41.5792668,38.7008842 L42.6506966,37.6294543 C42.8181076,37.4620434 43.0357417,37.4285612 43.2366348,37.5122667 C43.4375279,37.5959721 43.5714567,37.7801241 43.5714567,37.9977583 Z M41.9643119,25.6428329 L46.7857462,30.4642672 L35.5357328,41.7142806 L30.7142985,41.7142806 L30.7142985,36.8928463 L41.9643119,25.6428329 Z M49.3973565,27.8526569 L47.8571761,29.3928373 L43.0357417,24.571403 L44.5759222,23.0312226 C45.1953425,22.4118022 46.2332902,22.4118022 46.8527106,23.0312226 L49.3973565,25.5758685 C50.0167769,26.1952889 50.0167769,27.2332366 49.3973565,27.8526569 Z" id="pencil-square-o---FontAwesome"></path>
                </g>
            </g>
        </g>
    </g>
</svg>