<svg xmlns="http://www.w3.org/2000/svg" width="20" height="20" viewBox="0 0 20 20">
    <g fill="#FFF" fill-rule="evenodd">
        <path fill-opacity=".5" d="M1.93 6.424c1.679 0 3.227.295 4.645.884a11.279 11.279 0 0 1 3.68 2.437c1.038 1.034 1.848 2.265 2.432 3.693.584 1.428.876 2.973.876 4.637a.626.626 0 0 1-.187.461.629.629 0 0 1-.463.187.629.629 0 0 1-.462-.187.626.626 0 0 1-.187-.461c0-1.48-.26-2.856-.778-4.126a9.922 9.922 0 0 0-2.155-3.29 9.784 9.784 0 0 0-3.278-2.162c-1.266-.517-2.64-.776-4.124-.776a.629.629 0 0 1-.462-.187.626.626 0 0 1-.187-.461c0-.184.062-.338.187-.462a.629.629 0 0 1 .462-.187zM1.93 0c2.493 0 4.835.472 7.027 1.415a18.279 18.279 0 0 1 5.748 3.87 18.239 18.239 0 0 1 3.878 5.737C19.528 13.209 20 15.547 20 18.035c0 .17-.062.321-.187.452a.591.591 0 0 1-.443.197.613.613 0 0 1-.463-.197.636.636 0 0 1-.187-.452c0-2.305-.44-4.476-1.318-6.512a16.944 16.944 0 0 0-3.603-5.334 16.98 16.98 0 0 0-5.344-3.596c-2.041-.877-4.216-1.316-6.526-1.316a.639.639 0 0 1-.453-.187A.61.61 0 0 1 1.28.63a.59.59 0 0 1 .196-.442A.639.639 0 0 1 1.93 0z"/>
        <path d="M7.246 12.176a.596.596 0 0 1 .176.44.596.596 0 0 1-.176.439L4.59 15.71l2.656 2.656a.596.596 0 0 1 .176.44.596.596 0 0 1-.176.44.596.596 0 0 1-.44.175.596.596 0 0 1-.439-.176L3.711 16.59l-2.656 2.656a.596.596 0 0 1-.44.176.596.596 0 0 1-.44-.176.596.596 0 0 1-.175-.44c0-.175.059-.322.176-.439l2.656-2.656-2.656-2.656a.596.596 0 0 1-.176-.44c0-.176.059-.322.176-.44A.596.596 0 0 1 .616 12c.175 0 .321.059.439.176l2.656 2.656 2.656-2.656a.596.596 0 0 1 .44-.176c.175 0 .322.059.44.176z"/>
    </g>
</svg>
