<?xml version="1.0" encoding="UTF-8"?>
<svg width="35px" height="35px" viewBox="0 0 35 35" version="1.1" xmlns="http://www.w3.org/2000/svg" xmlns:xlink="http://www.w3.org/1999/xlink">
    <!-- Generator: sketchtool 51 (57462) - http://www.bohemiancoding.com/sketch -->
    <title>6263F558-90BA-41E6-B216-F8B5997E2EF4</title>
    <desc>Created with sketchtool.</desc>
    <defs></defs>
    <g id="Page-1" stroke="none" stroke-width="1" fill="none" fill-rule="evenodd">
        <g id="Neos_Connected_Tablet" transform="translate(-768.000000, -576.000000)">
            <rect fill="#FFFFFF" x="0" y="0" width="1440" height="960"></rect>
            <path d="M788.513417,602.22771 L788.513417,598.723241 C788.513417,597.986633 788.290203,597.607169 787.866095,597.607169 C787.620559,597.607169 787.375023,597.718776 787.129487,597.964312 L787.129487,602.964318 C787.375023,603.209854 787.620559,603.321461 787.866095,603.321461 C788.290203,603.321461 788.513417,602.964318 788.513417,602.22771 Z M792.620565,599.504492 L794.093781,599.504492 L794.093781,598.745563 C794.093781,597.986633 793.848245,597.607169 793.357173,597.607169 C792.866101,597.607169 792.620565,597.986633 792.620565,598.745563 L792.620565,599.504492 Z M779.875014,593.566985 L779.875014,595.129487 L778.089298,595.129487 L778.089298,604.571463 L776.43751,604.571463 L776.43751,595.129487 L774.696437,595.129487 L774.696437,593.566985 L779.875014,593.566985 Z M784.361627,596.379489 L784.361627,604.571463 L782.866089,604.571463 L782.866089,603.678604 C782.285731,604.348248 781.727695,604.68307 781.169659,604.68307 C780.700908,604.68307 780.366086,604.482177 780.232157,604.058069 C780.142872,603.812533 780.098229,603.433068 780.098229,602.852711 L780.098229,596.379489 L781.571445,596.379489 L781.571445,602.406281 C781.571445,602.741103 781.571445,602.941996 781.593766,602.986639 C781.616088,603.209854 781.727695,603.321461 781.928588,603.321461 C782.241088,603.321461 782.531267,603.098247 782.866089,602.629496 L782.866089,596.379489 L784.361627,596.379489 Z M789.986633,598.85717 L789.986633,602.116103 C789.986633,602.852711 789.94199,603.410747 789.830383,603.745569 C789.651812,604.37057 789.250025,604.68307 788.647346,604.68307 C788.133953,604.68307 787.620559,604.37057 787.129487,603.76789 L787.129487,604.571463 L785.63395,604.571463 L785.63395,593.566985 L787.129487,593.566985 L787.129487,597.16074 C787.598238,596.580382 788.111631,596.267881 788.647346,596.267881 C789.250025,596.267881 789.651812,596.580382 789.830383,597.205382 C789.94199,597.540204 789.986633,598.075919 789.986633,598.85717 Z M795.589319,601.736638 L795.589319,601.937531 C795.589319,602.428603 795.566997,602.741103 795.544676,602.897353 C795.500033,603.232175 795.388426,603.522354 795.209854,603.790212 C794.808068,604.392891 794.183067,604.68307 793.424137,604.68307 C792.642887,604.68307 792.040207,604.392891 791.6161,603.834855 C791.303599,603.433068 791.147349,602.785746 791.147349,601.915209 L791.147349,599.035742 C791.147349,598.165205 791.281278,597.540204 791.593778,597.116097 C792.017886,596.55806 792.620565,596.267881 793.379495,596.267881 C794.116103,596.267881 794.718782,596.55806 795.120568,597.116097 C795.433068,597.540204 795.589319,598.165205 795.589319,599.035742 L795.589319,600.732172 L792.620565,600.732172 L792.620565,602.183067 C792.620565,602.941996 792.866101,603.321461 793.379495,603.321461 C793.736638,603.321461 793.959852,603.120568 794.049138,602.741103 C794.049138,602.651817 794.07146,602.316996 794.07146,601.736638 L795.589319,601.736638 Z M785.522342,583.343759 L785.522342,586.825906 C785.522342,587.584835 785.276806,587.9643 784.808056,587.9643 C784.316984,587.9643 784.093769,587.584835 784.093769,586.825906 L784.093769,583.343759 C784.093769,582.584829 784.316984,582.183043 784.808056,582.183043 C785.276806,582.183043 785.522342,582.584829 785.522342,583.343759 Z M797.419678,599.258956 C797.419678,597.339311 797.419678,595.308059 796.99557,593.455378 C796.68307,592.138412 795.61164,591.17859 794.339317,591.044661 C791.303599,590.709839 788.223238,590.709839 785.142878,590.709839 C782.084838,590.709839 779.004477,590.709839 775.968759,591.044661 C774.674115,591.17859 773.602685,592.138412 773.312506,593.455378 C772.888399,595.308059 772.866077,597.339311 772.866077,599.258956 C772.866077,601.15628 772.866077,603.187532 773.312506,605.062535 C773.602685,606.357179 774.674115,607.317002 775.946438,607.473252 C779.004477,607.808074 782.084838,607.808074 785.142878,607.808074 C788.200917,607.808074 791.281278,607.808074 794.339317,607.473252 C795.61164,607.317002 796.68307,606.357179 796.973249,605.062535 C797.419678,603.187532 797.419678,601.15628 797.419678,599.258956 Z M780.566979,584.727689 L782.57591,578.120538 L780.901801,578.120538 L779.763407,582.473222 L778.58037,578.120538 L776.839296,578.120538 C777.174118,579.147325 777.553583,580.174112 777.888405,581.200899 C778.42412,582.763401 778.758941,583.924117 778.915192,584.727689 L778.915192,589.214301 L780.566979,589.214301 L780.566979,584.727689 Z M787.01788,586.535727 L787.01788,583.633938 C787.01788,582.763401 786.86163,582.116079 786.549129,581.691971 C786.125022,581.133935 785.544664,580.843756 784.808056,580.843756 C784.049126,580.843756 783.468768,581.133935 783.066982,581.691971 C782.754482,582.116079 782.598232,582.763401 782.598232,583.633938 L782.598232,586.535727 C782.598232,587.406264 782.754482,588.053586 783.066982,588.477693 C783.468768,589.03573 784.049126,589.325909 784.808056,589.325909 C785.544664,589.325909 786.125022,589.03573 786.549129,588.477693 C786.86163,588.075907 787.01788,587.406264 787.01788,586.535727 Z M791.058063,589.214301 L792.553601,589.214301 L792.553601,580.955363 L791.058063,580.955363 L791.058063,587.272335 C790.723241,587.741085 790.410741,587.9643 790.120562,587.9643 C789.919669,587.9643 789.78574,587.852693 789.763419,587.607157 C789.741097,587.562514 789.741097,587.383942 789.741097,587.026799 L789.741097,580.955363 L788.24556,580.955363 L788.24556,587.495549 C788.24556,588.075907 788.290203,588.455372 788.379489,588.723229 C788.535739,589.125016 788.870561,589.325909 789.339311,589.325909 C789.897348,589.325909 790.455384,588.991087 791.058063,588.321443 L791.058063,589.214301 Z M802.285755,582.428579 L802.285755,603.857176 C802.285755,607.406287 799.406287,610.285755 795.857176,610.285755 L774.428579,610.285755 C770.879468,610.285755 768,607.406287 768,603.857176 L768,582.428579 C768,578.879468 770.879468,576 774.428579,576 L795.857176,576 C799.406287,576 802.285755,578.879468 802.285755,582.428579 Z" id="youtube-square---FontAwesome" fill="#FF0000"></path>
        </g>
    </g>
</svg>