{
  "componentTheme": {
    "margin": {
      "xs": "0px 0px 0px 0px"
    },
    "padding": {
      "xs": "20px 20px 20px 20px"
    },
    "maxWidth": {
      "xs": "100%",
      "md": "1000px"
    },
    "backgroundColor": "theme.primaryBackgroundColor",
    "formBackgroundColor": "theme.primaryBackgroundColor",
    "primaryTextColor": "theme.primaryTextColor",
    "priceTextColor": "theme.primaryTextColor",
    "secondaryTextColor": "theme.secondaryTextColor"
  },
  "feature": {
    "userCardApiUrl": "/mockapi/proxy/sso/aa/user_card",
    "subscriptionPurchaseApiUrl": "/mockapi/proxy/sso/aa/purchase_subscription",
    "openPageAfterPurchase": "Payment_Confirmation",
    "formErrorIcon": "./mocks/images/form_error.svg",
    "costSectionBackgroundImage": "./mocks/images/aa-bg-cost-notification.svg",
    "paymentMethodVisaImage": "./mocks/images/aa-cc-visa.svg",
    "paymentMethodMasterCardImage": "./mocks/images/aa-cc-mastercard.svg",
    "paymentMethodDiscoverImage": "./mocks/images/aa-cc-discover.svg",
    "paymentMethodAmexImage": "./mocks/images/aa-cc-amex.svg",
    "paymentMethodClubImage": "./mocks/images/aa-cc-dinersclub.svg",
    "paymentMethodJCBImage": "./mocks/images/aa-cc-jcb.svg",
    "paymentMethodCheckIcon": "./mocks/images/aa-icon-check.svg",
    "lockIcon": "./mocks/images/aa-icon-lock.svg"
  }
}
