{
  "$schema": "http://json-schema.org/draft-06/schema#",
  "$ref": "field-schema.json#",
  "id": "#IFCSettings",
  "properties": {
    "deviceUrl": {
      "$id": "ifc.settings.deviceUrl",
      "$ref": "#/definitions/url",
      "title": "Device Url",
      "default": "/device"
    },
    "devicePollRate": {
      "$id": "ifc.settings.devicePollRate",
      "type": "number",
      "title": "Device Poll Rate",
      "default": 5000
    },
    "profileUrl": {
      "$id": "ifc.settings.profileUrl",
      "$ref": "#/definitions/url",
      "title": "Profile Url",
      "default": "/profile"
    },
    "ICAO": {
      "$id": "ifc.settings.ICAO",
      "type": "string",
      "title": "Airline ICAO Code",
      "default": ""
    }
  },
  "required": ["deviceUrl", "devicePollRate", "profileUrl", "ICAO"]
}
