{
  "componentTheme": {
    "backgroundColor": "theme.primaryBackgroundColor",
    "backgroundImage": {
      "xs": "/mocks/images/FlightTimeRemaining_worldMap_Tablet.svg",
      "sm": "/mocks/images/FlightTimeRemaining_worldMap_Mobile.svg",
      "lg": "/mocks/images/FlightTimeRemaining_worldMap_Laptop.svg"
    },
    "titleColor": "theme.quaternaryTextColor",
    "titleFontSize": "theme.primaryFontSize",
    "titleFontWeight": "500",
    "originMarginRight": "10px",
    "timeMarginRight": "10px",
    "progressMarginRight": "10px",
    "progressBarForegroundColor": "#52ab5b",
    "progressBarBackgroundColor": "#d9d9d9",
    "progressBarPlaneFontSize": "25px",
    "progressBarWidth": "200px",
    "progressBarHeight": "3px",
    "progressBarFlexGrow": "0",
    "progressBarBorderRadius": "0px",
    "progressBarFlexFillerMarginRight": "-30px",
    "locationLabelColor": "theme.quaternaryTextColor",
    "locationLabelFontSize": "20px",
    "locationLabelFontWeight": "500",
    "timeToDestinationLabelColor": "theme.secondaryTextColor",
    "timeToDestinationLabelFontSize": "theme.tertiaryFontSize",
    "timeToDestinationLabelFontWeight": "500",
    "timeToDestinationLabelPadding": "11px 0px 0px 0px"
  },
  "feature": {
    "flexWidget": false,
    "flightCutoffPercentage": 100,
    "showTitle": true,
    "hourFormat": "hrs",
    "minuteFormat": "min",
    "extraSpaceInTime": true,
    "hourZeroPadding": true
  }
}
