{
  "componentTheme": {
    "buttonBackground": "",
    "buttonFontSize": "",
    "buttonColor": "",
    "background": "theme.primaryBackgroundColor",
    "titleFontSize": "",
    "titleColor": "",
    "contentColor": "",
    "contentFontSize": ""
  },
  "feature": {
    "dialogTitle": "Placeholder title",
    "dialogText": "Placeholder text",
    "dialogCloseTitle": "Placeholder close"
  }
}
